{
"type": "FeatureCollection",
"name": "23_via_laurel",
"features": [
{ "type": "Feature", "properties": { "stop_name": "Santa Cruz Metro Center (Pacific Station) Lane 1" }, "geometry": { "type": "Point", "coordinates": [ -122.024575, 36.971022 ] } },
{ "type": "Feature", "properties": { "stop_name": "Western Dr & Flower" }, "geometry": { "type": "Point", "coordinates": [ -122.056626, 36.964212 ] } },
{ "type": "Feature", "properties": { "stop_name": "Western Dr & Monarch" }, "geometry": { "type": "Point", "coordinates": [ -122.058416, 36.97029 ] } },
{ "type": "Feature", "properties": { "stop_name": "Western Dr & Meder" }, "geometry": { "type": "Point", "coordinates": [ -122.058346, 36.973766 ] } },
{ "type": "Feature", "properties": { "stop_name": "Western Dr & Beachview" }, "geometry": { "type": "Point", "coordinates": [ -122.056574, 36.96147 ] } },
{ "type": "Feature", "properties": { "stop_name": "Western Dr & Western Ct (#630)" }, "geometry": { "type": "Point", "coordinates": [ -122.058345, 36.96861 ] } },
{ "type": "Feature", "properties": { "stop_name": "Western & Monarch Way" }, "geometry": { "type": "Point", "coordinates": [ -122.058511, 36.970358 ] } },
{ "type": "Feature", "properties": { "stop_name": "Western & Western Ct" }, "geometry": { "type": "Point", "coordinates": [ -122.058517, 36.968826 ] } },
{ "type": "Feature", "properties": { "stop_name": "Western & Cypress Park" }, "geometry": { "type": "Point", "coordinates": [ -122.057161, 36.966549 ] } },
{ "type": "Feature", "properties": { "stop_name": "Western & Flower St" }, "geometry": { "type": "Point", "coordinates": [ -122.056742, 36.964524 ] } },
{ "type": "Feature", "properties": { "stop_name": "Laurel & Center" }, "geometry": { "type": "Point", "coordinates": [ -122.02774, 36.968919 ] } },
{ "type": "Feature", "properties": { "stop_name": "Laurel & Blackburn" }, "geometry": { "type": "Point", "coordinates": [ -122.031162, 36.968447 ] } },
{ "type": "Feature", "properties": { "stop_name": "Laurel & Chestnut" }, "geometry": { "type": "Point", "coordinates": [ -122.028995, 36.968652 ] } },
{ "type": "Feature", "properties": { "stop_name": "Laurel & Blackburn" }, "geometry": null },
{ "type": "Feature", "properties": { "stop_name": "Mission & Laurel" }, "geometry": { "type": "Point", "coordinates": [ -122.0374, 36.9692 ] } },
{ "type": "Feature", "properties": { "stop_name": "Mission & Laurel" }, "geometry": { "type": "Point", "coordinates": [ -122.0378, 36.969 ] } },
{ "type": "Feature", "properties": { "stop_name": "Mission & Bay\/Trescony" }, "geometry": { "type": "Point", "coordinates": [ -122.0391, 36.9673 ] } },
{ "type": "Feature", "properties": { "stop_name": "Mission & Miramar (Safeway)" }, "geometry": { "type": "Point", "coordinates": [ -122.044601, 36.96213 ] } },
{ "type": "Feature", "properties": { "stop_name": "Mission & Miramar (Safeway)" }, "geometry": { "type": "Point", "coordinates": [ -122.0445, 36.962399 ] } },
{ "type": "Feature", "properties": { "stop_name": "Mission & Bellevue (Berkshire)" }, "geometry": { "type": "Point", "coordinates": [ -122.04283, 36.963521 ] } },
{ "type": "Feature", "properties": { "stop_name": "Mission & Palm Center" }, "geometry": { "type": "Point", "coordinates": [ -122.041532, 36.965112 ] } },
{ "type": "Feature", "properties": { "stop_name": "Mission & Olive (Longs)" }, "geometry": { "type": "Point", "coordinates": [ -122.041835, 36.965073 ] } },
{ "type": "Feature", "properties": { "stop_name": "Mission & Bay\/Trescony" }, "geometry": { "type": "Point", "coordinates": [ -122.039129, 36.96729 ] } },
{ "type": "Feature", "properties": { "stop_name": "Mission & Laurel" }, "geometry": { "type": "Point", "coordinates": [ -122.037436, 36.969171 ] } },
{ "type": "Feature", "properties": { "stop_name": "Mission & Laurel" }, "geometry": { "type": "Point", "coordinates": [ -122.037792, 36.96903 ] } },
{ "type": "Feature", "properties": { "stop_name": "Mission & Swift" }, "geometry": { "type": "Point", "coordinates": [ -122.048814, 36.960637 ] } },
{ "type": "Feature", "properties": { "stop_name": "Mission & King (Mission Floor)" }, "geometry": { "type": "Point", "coordinates": [ -122.047748, 36.961262 ] } },
{ "type": "Feature", "properties": { "stop_name": "Meder & Nobel" }, "geometry": { "type": "Point", "coordinates": [ -122.05619, 36.97495 ] } },
{ "type": "Feature", "properties": { "stop_name": null }, "geometry": { "type": "Point", "coordinates": [ -122.032209513731857, 36.968442427943536 ] } },
{ "type": "Feature", "properties": { "stop_name": null }, "geometry": { "type": "Point", "coordinates": [ -122.062744285685014, 36.982796824888517 ] } },
{ "type": "Feature", "properties": { "stop_name": null }, "geometry": null },
{ "type": "Feature", "properties": { "stop_name": null }, "geometry": { "type": "Point", "coordinates": [ -122.06620129753415, 36.990620588547088 ] } },
{ "type": "Feature", "properties": { "stop_name": null }, "geometry": { "type": "Point", "coordinates": [ -122.064927661589735, 36.992829957022103 ] } },
{ "type": "Feature", "properties": { "stop_name": null }, "geometry": { "type": "Point", "coordinates": [ -122.06365402564532, 36.99701476083947 ] } },
{ "type": "Feature", "properties": { "stop_name": null }, "geometry": { "type": "Point", "coordinates": [ -122.064407810183852, 36.99917214417389 ] } },
{ "type": "Feature", "properties": { "stop_name": null }, "geometry": { "type": "Point", "coordinates": [ -122.06264031540384, 36.999614017868893 ] } },
{ "type": "Feature", "properties": { "stop_name": null }, "geometry": { "type": "Point", "coordinates": [ -122.058195585883524, 36.999795965860955 ] } },
{ "type": "Feature", "properties": { "stop_name": null }, "geometry": { "type": "Point", "coordinates": [ -122.055414380862047, 36.996676857425648 ] } },
{ "type": "Feature", "properties": { "stop_name": null }, "geometry": null },
{ "type": "Feature", "properties": { "stop_name": null }, "geometry": { "type": "Point", "coordinates": [ -122.055232432869985, 36.993167860435925 ] } },
{ "type": "Feature", "properties": { "stop_name": null }, "geometry": { "type": "Point", "coordinates": [ -122.053464938089974, 36.985526044769422 ] } },
{ "type": "Feature", "properties": { "stop_name": null }, "geometry": { "type": "Point", "coordinates": [ -122.052269279856432, 36.981419218662928 ] } },
{ "type": "Feature", "properties": { "stop_name": null }, "geometry": { "type": "Point", "coordinates": [ -122.053828834074096, 36.976974489142613 ] } }
]
}
