{
"type": "FeatureCollection",
"name": "1625",
"crs": { "type": "name", "properties": { "name": "urn:ogc:def:crs:OGC:1.3:CRS84" } },
"features": [
{ "type": "Feature", "properties": { "type": "lines", "start": "-122.039132, 36.967283" }, "geometry": { "type": "MultiLineString", "coordinates": [ [ [ -122.0427072, 36.9685177 ], [ -122.0426282, 36.9684897 ] ], [ [ -122.0427072, 36.9685177 ], [ -122.042604, 36.96863 ] ], [ [ -122.0427072, 36.9685177 ], [ -122.042846764946788, 36.96838118834421 ] ], [ [ -122.0426282, 36.9684897 ], [ -122.0427072, 36.9685177 ] ], [ [ -122.0426282, 36.9684897 ], [ -122.042374305535276, 36.968352054070074 ] ], [ [ -122.0426282, 36.9684897 ], [ -122.042819815821957, 36.968297838909784 ] ], [ [ -122.0426282, 36.9684897 ], [ -122.042436512060974, 36.968681515543821 ] ], [ [ -122.0419127, 36.9681018 ], [ -122.0426282, 36.9684897 ] ], [ [ -122.0419127, 36.9681018 ], [ -122.0418573, 36.9681025 ] ], [ [ -122.0418573, 36.9681025 ], [ -122.0419127, 36.9681018 ] ], [ [ -122.0418573, 36.9681025 ], [ -122.0417043, 36.9680324 ] ], [ [ -122.0377252, 36.9658976 ], [ -122.036361417203167, 36.965015068180499 ] ], [ [ -122.0377252, 36.9658976 ], [ -122.0377417, 36.9659083 ] ], [ [ -122.0377417, 36.9659083 ], [ -122.0377252, 36.9658976 ] ], [ [ -122.0377417, 36.9659083 ], [ -122.0378141, 36.9659551 ] ], [ [ -122.0377417, 36.9659083 ], [ -122.0377779, 36.9658748 ] ], [ [ -122.0377417, 36.9659083 ], [ -122.0376904, 36.9659559 ] ], [ [ -122.0378141, 36.9659551 ], [ -122.0377417, 36.9659083 ] ], [ [ -122.0378141, 36.9659551 ], [ -122.0378559, 36.9659143 ] ], [ [ -122.0378141, 36.9659551 ], [ -122.0377485, 36.9660116 ] ], [ [ -122.0378141, 36.9659551 ], [ -122.0378747, 36.9660006 ] ], [ [ -122.0373484, 36.9668842 ], [ -122.0382506, 36.9669701 ] ], [ [ -122.0373484, 36.9668842 ], [ -122.0374426, 36.9662753 ] ], [ [ -122.0373484, 36.9668842 ], [ -122.0372602, 36.9674799 ] ], [ [ -122.0382506, 36.9669701 ], [ -122.037451999118815, 36.966894063848713 ] ], [ [ -122.0396374, 36.9695407 ], [ -122.039494969840874, 36.969705890083091 ] ], [ [ -122.0396374, 36.9695407 ], [ -122.0396796, 36.9694918 ] ], [ [ -122.0396374, 36.9695407 ], [ -122.0397435, 36.9695899 ] ], [ [ -122.0396374, 36.9695407 ], [ -122.0395827, 36.969509 ] ], [ [ -122.0396796, 36.9694918 ], [ -122.0396374, 36.9695407 ] ], [ [ -122.0396796, 36.9694918 ], [ -122.03962, 36.9694625 ] ], [ [ -122.0396796, 36.9694918 ], [ -122.0397819, 36.9695413 ] ], [ [ -122.0379211, 36.9686641 ], [ -122.0380329, 36.9686853 ] ], [ [ -122.0379211, 36.9686641 ], [ -122.0378207, 36.9688033 ] ], [ [ -122.0379211, 36.9686641 ], [ -122.0379682, 36.9685973 ] ], [ [ -122.0379211, 36.9686641 ], [ -122.0378258, 36.9686316 ] ], [ [ -122.0380329, 36.9686853 ], [ -122.0379211, 36.9686641 ] ], [ [ -122.0380329, 36.9686853 ], [ -122.038369, 36.9688473 ] ], [ [ -122.0380329, 36.9686853 ], [ -122.037987, 36.9687459 ] ], [ [ -122.0380329, 36.9686853 ], [ -122.0380778, 36.9686169 ] ], [ [ -122.038369, 36.9688473 ], [ -122.0380329, 36.9686853 ] ], [ [ -122.038369, 36.9688473 ], [ -122.03962, 36.9694625 ] ], [ [ -122.038369, 36.9688473 ], [ -122.0383212, 36.9689057 ] ], [ [ -122.03962, 36.9694625 ], [ -122.039290269066171, 36.969300349344131 ] ], [ [ -122.03962, 36.9694625 ], [ -122.0396796, 36.9694918 ] ], [ [ -122.03962, 36.9694625 ], [ -122.0395827, 36.969509 ] ], [ [ -122.03962, 36.9694625 ], [ -122.0396656, 36.9693933 ] ], [ [ -122.0397819, 36.9695413 ], [ -122.0396796, 36.9694918 ] ], [ [ -122.0397819, 36.9695413 ], [ -122.039950849993119, 36.969623177311483 ] ], [ [ -122.0397819, 36.9695413 ], [ -122.0398354, 36.9694753 ] ], [ [ -122.0397819, 36.9695413 ], [ -122.0397435, 36.9695899 ] ], [ [ -122.0350253, 36.9673133 ], [ -122.035038531987951, 36.967156466381716 ] ], [ [ -122.0350253, 36.9673133 ], [ -122.035007500538228, 36.967469842396866 ] ], [ [ -122.0350253, 36.9673133 ], [ -122.035134, 36.9673212 ] ], [ [ -122.0385012, 36.9652894 ], [ -122.038977188574876, 36.964770885435357 ] ], [ [ -122.0385012, 36.9652894 ], [ -122.0384448, 36.9653434 ] ], [ [ -122.0385012, 36.9652894 ], [ -122.0384555, 36.9652527 ] ], [ [ -122.0385012, 36.9652894 ], [ -122.0385577, 36.9653292 ] ], [ [ -122.0384448, 36.9653434 ], [ -122.0385012, 36.9652894 ] ], [ [ -122.0384448, 36.9653434 ], [ -122.0383857, 36.9654038 ] ], [ [ -122.0384448, 36.9653434 ], [ -122.0383022, 36.9652427 ] ], [ [ -122.0384448, 36.9653434 ], [ -122.0385013, 36.9653849 ] ], [ [ -122.0421791, 36.9676632 ], [ -122.0422248, 36.9676051 ] ], [ [ -122.0421791, 36.9676632 ], [ -122.0420832, 36.9676092 ] ], [ [ -122.0421791, 36.9676632 ], [ -122.0426156, 36.9679021 ] ], [ [ -122.0422248, 36.9676051 ], [ -122.0421791, 36.9676632 ] ], [ [ -122.0422248, 36.9676051 ], [ -122.042593858983395, 36.967176796880217 ] ], [ [ -122.0422248, 36.9676051 ], [ -122.0423028, 36.967646 ] ], [ [ -122.0422248, 36.9676051 ], [ -122.0421718, 36.9675768 ] ], [ [ -122.041478, 36.9653009 ], [ -122.0415739, 36.965356 ] ], [ [ -122.041478, 36.9653009 ], [ -122.0414328, 36.9653528 ] ], [ [ -122.041478, 36.9653009 ], [ -122.0415681, 36.9651972 ] ], [ [ -122.0415739, 36.965356 ], [ -122.041478, 36.9653009 ] ], [ [ -122.0415739, 36.965356 ], [ -122.0421113, 36.9656466 ] ], [ [ -122.0415739, 36.965356 ], [ -122.0415283, 36.9654041 ] ], [ [ -122.0415739, 36.965356 ], [ -122.041625, 36.9653114 ] ], [ [ -122.0421113, 36.9656466 ], [ -122.041956833779381, 36.965563072118137 ] ], [ [ -122.0421113, 36.9656466 ], [ -122.0422335, 36.9657136 ] ], [ [ -122.0421113, 36.9656466 ], [ -122.0421532, 36.9655998 ] ], [ [ -122.0422335, 36.9657136 ], [ -122.042201905523314, 36.965696277332754 ] ], [ [ -122.0422335, 36.9657136 ], [ -122.04225638546643, 36.965688991392568 ] ], [ [ -122.0422335, 36.9657136 ], [ -122.042211158815533, 36.965738528582222 ] ], [ [ -122.0412478, 36.9671515 ], [ -122.0412963, 36.9670944 ] ], [ [ -122.0412478, 36.9671515 ], [ -122.0407544, 36.9668863 ] ], [ [ -122.0412478, 36.9671515 ], [ -122.0420832, 36.9676092 ] ], [ [ -122.0412963, 36.9670944 ], [ -122.0412478, 36.9671515 ] ], [ [ -122.0412963, 36.9670944 ], [ -122.0416157, 36.9667248 ] ], [ [ -122.0412963, 36.9670944 ], [ -122.0413775, 36.9671394 ] ], [ [ -122.0412963, 36.9670944 ], [ -122.0412478, 36.9670743 ] ], [ [ -122.0416157, 36.9667248 ], [ -122.0412963, 36.9670944 ] ], [ [ -122.0416157, 36.9667248 ], [ -122.0419484, 36.96634 ] ], [ [ -122.0416157, 36.9667248 ], [ -122.0415749, 36.9667001 ] ], [ [ -122.0419484, 36.96634 ], [ -122.0416157, 36.9667248 ] ], [ [ -122.0419484, 36.96634 ], [ -122.042315205813878, 36.965928538054357 ] ], [ [ -122.0419484, 36.96634 ], [ -122.0419024, 36.9663142 ] ], [ [ -122.0373983, 36.9662138 ], [ -122.035942477822459, 36.966120846223497 ] ], [ [ -122.0373983, 36.9662138 ], [ -122.0374093, 36.9662145 ] ], [ [ -122.0374093, 36.9662145 ], [ -122.0373983, 36.9662138 ] ], [ [ -122.0374093, 36.9662145 ], [ -122.0375059, 36.9662205 ] ], [ [ -122.0374093, 36.9662145 ], [ -122.0373966, 36.9662707 ] ], [ [ -122.0374093, 36.9662145 ], [ -122.0374233, 36.9661519 ] ], [ [ -122.0375059, 36.9662205 ], [ -122.0374093, 36.9662145 ] ], [ [ -122.0375059, 36.9662205 ], [ -122.0377485, 36.9660116 ] ], [ [ -122.0375059, 36.9662205 ], [ -122.0374426, 36.9662753 ] ], [ [ -122.035134, 36.9673212 ], [ -122.0350253, 36.9673133 ] ], [ [ -122.035134, 36.9673212 ], [ -122.035436905295342, 36.967350137265797 ] ], [ [ -122.035134, 36.9673212 ], [ -122.0351298, 36.9673557 ] ], [ [ -122.035134, 36.9673212 ], [ -122.0351389, 36.9672642 ] ], [ [ -122.0372537, 36.9675237 ], [ -122.035134, 36.9673212 ] ], [ [ -122.0372537, 36.9675237 ], [ -122.0378724, 36.9675871 ] ], [ [ -122.0372537, 36.9675237 ], [ -122.0372602, 36.9674799 ] ], [ [ -122.0378724, 36.9675871 ], [ -122.0372537, 36.9675237 ] ], [ [ -122.0378724, 36.9675871 ], [ -122.0381876, 36.9676193 ] ], [ [ -122.0378724, 36.9675871 ], [ -122.0378609, 36.9676358 ] ], [ [ -122.0381876, 36.9676193 ], [ -122.0378724, 36.9675871 ] ], [ [ -122.0381876, 36.9676193 ], [ -122.0383409, 36.967635 ] ], [ [ -122.0376255, 36.9696687 ], [ -122.038290938692342, 36.969994969701169 ] ], [ [ -122.0376255, 36.9696687 ], [ -122.0375903, 36.9697173 ] ], [ [ -122.0376255, 36.9696687 ], [ -122.0374539, 36.9695873 ] ], [ [ -122.0410654, 36.9679744 ], [ -122.0411939, 36.9680401 ] ], [ [ -122.0410654, 36.9679744 ], [ -122.040908, 36.9679173 ] ], [ [ -122.0411939, 36.9680401 ], [ -122.0410654, 36.9679744 ] ], [ [ -122.0411939, 36.9680401 ], [ -122.0412546, 36.9680732 ] ], [ [ -122.0411939, 36.9680401 ], [ -122.0412049, 36.9680264 ] ], [ [ -122.0411939, 36.9680401 ], [ -122.0411834, 36.9680532 ] ], [ [ -122.0383857, 36.9654038 ], [ -122.0384448, 36.9653434 ] ], [ [ -122.0383857, 36.9654038 ], [ -122.0378559, 36.9659143 ] ], [ [ -122.0383857, 36.9654038 ], [ -122.0384481, 36.9654398 ] ], [ [ -122.0383857, 36.9654038 ], [ -122.038331, 36.9653681 ] ], [ [ -122.0378559, 36.9659143 ], [ -122.0383857, 36.9654038 ] ], [ [ -122.0378559, 36.9659143 ], [ -122.0378141, 36.9659551 ] ], [ [ -122.0378559, 36.9659143 ], [ -122.0379062, 36.9659704 ] ], [ [ -122.0378559, 36.9659143 ], [ -122.0378171, 36.965871 ] ], [ [ -122.0377485, 36.9660116 ], [ -122.0378141, 36.9659551 ] ], [ [ -122.0377485, 36.9660116 ], [ -122.0375059, 36.9662205 ] ], [ [ -122.0377485, 36.9660116 ], [ -122.0376926, 36.965988 ] ], [ [ -122.0377485, 36.9660116 ], [ -122.0378281, 36.9660453 ] ], [ [ -122.0368496, 36.9694567 ], [ -122.0369469, 36.9694831 ] ], [ [ -122.0368496, 36.9694567 ], [ -122.0368223, 36.9695158 ] ], [ [ -122.0368496, 36.9694567 ], [ -122.036227501293723, 36.969288064002598 ] ], [ [ -122.0369469, 36.9694831 ], [ -122.0368496, 36.9694567 ] ], [ [ -122.0369469, 36.9694831 ], [ -122.0372071, 36.9695471 ] ], [ [ -122.0369469, 36.9694831 ], [ -122.0369763, 36.9694162 ] ], [ [ -122.0372071, 36.9695471 ], [ -122.0369469, 36.9694831 ] ], [ [ -122.0372071, 36.9695471 ], [ -122.0373203, 36.9695655 ] ], [ [ -122.0372071, 36.9695471 ], [ -122.0371546, 36.9696315 ] ], [ [ -122.0372071, 36.9695471 ], [ -122.0372525, 36.9694708 ] ], [ [ -122.0373203, 36.9695655 ], [ -122.0372071, 36.9695471 ] ], [ [ -122.0373203, 36.9695655 ], [ -122.0374539, 36.9695873 ] ], [ [ -122.0373203, 36.9695655 ], [ -122.0373773, 36.9694913 ] ], [ [ -122.0373203, 36.9695655 ], [ -122.0372707, 36.9696375 ] ], [ [ -122.0389547, 36.9667396 ], [ -122.0378878, 36.9660105 ] ], [ [ -122.0389547, 36.9667396 ], [ -122.0390302, 36.9667915 ] ], [ [ -122.0378878, 36.9660105 ], [ -122.0389547, 36.9667396 ] ], [ [ -122.0378878, 36.9660105 ], [ -122.0378747, 36.9660006 ] ], [ [ -122.0378747, 36.9660006 ], [ -122.0378878, 36.9660105 ] ], [ [ -122.0378747, 36.9660006 ], [ -122.0378141, 36.9659551 ] ], [ [ -122.0378747, 36.9660006 ], [ -122.0378281, 36.9660453 ] ], [ [ -122.0378747, 36.9660006 ], [ -122.0379062, 36.9659704 ] ], [ [ -122.0395528, 36.9671523 ], [ -122.0396306, 36.9672251 ] ], [ [ -122.0395528, 36.9671523 ], [ -122.0394875, 36.9670903 ] ], [ [ -122.0395528, 36.9671523 ], [ -122.0394199, 36.9672328 ] ], [ [ -122.0395528, 36.9671523 ], [ -122.0397315, 36.9670392 ] ], [ [ -122.0396306, 36.9672251 ], [ -122.0395528, 36.9671523 ] ], [ [ -122.0396306, 36.9672251 ], [ -122.0396639, 36.9672432 ] ], [ [ -122.0396306, 36.9672251 ], [ -122.0397038, 36.9671884 ] ], [ [ -122.0396306, 36.9672251 ], [ -122.0395551, 36.9672598 ] ], [ [ -122.0396639, 36.9672432 ], [ -122.0396306, 36.9672251 ] ], [ [ -122.0396639, 36.9672432 ], [ -122.0398176, 36.9673271 ] ], [ [ -122.0398176, 36.9673271 ], [ -122.0396639, 36.9672432 ] ], [ [ -122.0398176, 36.9673271 ], [ -122.0398514, 36.9673456 ] ], [ [ -122.0398176, 36.9673271 ], [ -122.039781, 36.9673775 ] ], [ [ -122.0398514, 36.9673456 ], [ -122.0398176, 36.9673271 ] ], [ [ -122.0398514, 36.9673456 ], [ -122.040908, 36.9679173 ] ], [ [ -122.040908, 36.9679173 ], [ -122.0398514, 36.9673456 ] ], [ [ -122.040908, 36.9679173 ], [ -122.0410654, 36.9679744 ] ], [ [ -122.0374426, 36.9662753 ], [ -122.0375059, 36.9662205 ] ], [ [ -122.0374426, 36.9662753 ], [ -122.0373484, 36.9668842 ] ], [ [ -122.0374426, 36.9662753 ], [ -122.0375761, 36.9662888 ] ], [ [ -122.0374426, 36.9662753 ], [ -122.0373966, 36.9662707 ] ], [ [ -122.0372602, 36.9674799 ], [ -122.0373484, 36.9668842 ] ], [ [ -122.0372602, 36.9674799 ], [ -122.0372537, 36.9675237 ] ], [ [ -122.0372602, 36.9674799 ], [ -122.0373077, 36.9674848 ] ], [ [ -122.0372602, 36.9674799 ], [ -122.0371929, 36.9674729 ] ], [ [ -122.0417043, 36.9680324 ], [ -122.0418573, 36.9681025 ] ], [ [ -122.0417043, 36.9680324 ], [ -122.0415305, 36.9679637 ] ], [ [ -122.0417043, 36.9680324 ], [ -122.0420243, 36.9676755 ] ], [ [ -122.0415305, 36.9679637 ], [ -122.0417043, 36.9680324 ] ], [ [ -122.0415305, 36.9679637 ], [ -122.041418, 36.9679609 ] ], [ [ -122.041418, 36.9679609 ], [ -122.0415305, 36.9679637 ] ], [ [ -122.041418, 36.9679609 ], [ -122.041312, 36.967974 ] ], [ [ -122.041312, 36.967974 ], [ -122.041418, 36.9679609 ] ], [ [ -122.041312, 36.967974 ], [ -122.041214, 36.9679931 ] ], [ [ -122.041214, 36.9679931 ], [ -122.041312, 36.967974 ] ], [ [ -122.041214, 36.9679931 ], [ -122.0412195, 36.9679728 ] ], [ [ -122.041214, 36.9679931 ], [ -122.0412049, 36.9680264 ] ], [ [ -122.0383022, 36.9652427 ], [ -122.037776389027897, 36.964871405866781 ] ], [ [ -122.0383022, 36.9652427 ], [ -122.0384448, 36.9653434 ] ], [ [ -122.0420832, 36.9676092 ], [ -122.0420243, 36.9676755 ] ], [ [ -122.0420832, 36.9676092 ], [ -122.041381879765083, 36.967224959789895 ] ], [ [ -122.0420832, 36.9676092 ], [ -122.0421791, 36.9676632 ] ], [ [ -122.0420243, 36.9676755 ], [ -122.0420832, 36.9676092 ] ], [ [ -122.0420243, 36.9676755 ], [ -122.0417043, 36.9680324 ] ], [ [ -122.0420243, 36.9676755 ], [ -122.041247921682597, 36.967250791121025 ] ], [ [ -122.0420243, 36.9676755 ], [ -122.042800685852512, 36.968100207799935 ] ], [ [ -122.0419496, 36.9646093 ], [ -122.041962813591823, 36.964594135408035 ] ], [ [ -122.0419496, 36.9646093 ], [ -122.041930616422789, 36.96459879575395 ] ], [ [ -122.0419496, 36.9646093 ], [ -122.041951901432256, 36.964627711458114 ] ], [ [ -122.0415283, 36.9654041 ], [ -122.0415739, 36.965356 ] ], [ [ -122.0415283, 36.9654041 ], [ -122.0414328, 36.9653528 ] ], [ [ -122.0415283, 36.9654041 ], [ -122.0421886, 36.9657637 ] ], [ [ -122.0415283, 36.9654041 ], [ -122.041514, 36.9654101 ] ], [ [ -122.041625, 36.9653114 ], [ -122.0415739, 36.965356 ] ], [ [ -122.041625, 36.9653114 ], [ -122.0416243, 36.9652929 ] ], [ [ -122.041625, 36.9653114 ], [ -122.0421532, 36.9655998 ] ], [ [ -122.0414328, 36.9653528 ], [ -122.0415283, 36.9654041 ] ], [ [ -122.0414328, 36.9653528 ], [ -122.0413663, 36.9653172 ] ], [ [ -122.0414328, 36.9653528 ], [ -122.0413699, 36.9654251 ] ], [ [ -122.0414328, 36.9653528 ], [ -122.041478, 36.9653009 ] ], [ [ -122.0413663, 36.9653172 ], [ -122.0414328, 36.9653528 ] ], [ [ -122.0413663, 36.9653172 ], [ -122.0417034, 36.9649255 ] ], [ [ -122.0413663, 36.9653172 ], [ -122.0413078, 36.9653868 ] ], [ [ -122.0403594, 36.9667821 ], [ -122.0404171, 36.9667048 ] ], [ [ -122.0403594, 36.9667821 ], [ -122.0399735, 36.9670212 ] ], [ [ -122.0403594, 36.9667821 ], [ -122.0404105, 36.9667927 ] ], [ [ -122.0404171, 36.9667048 ], [ -122.0403594, 36.9667821 ] ], [ [ -122.0404171, 36.9667048 ], [ -122.0404775, 36.9666293 ] ], [ [ -122.0404171, 36.9667048 ], [ -122.0403284, 36.9666329 ] ], [ [ -122.0404171, 36.9667048 ], [ -122.0406043, 36.9668055 ] ], [ [ -122.0404775, 36.9666293 ], [ -122.0404171, 36.9667048 ] ], [ [ -122.0404775, 36.9666293 ], [ -122.0404057, 36.9665566 ] ], [ [ -122.0404775, 36.9666293 ], [ -122.0404815, 36.9666118 ] ], [ [ -122.0404775, 36.9666293 ], [ -122.0404852, 36.9666459 ] ], [ [ -122.0404057, 36.9665566 ], [ -122.0404775, 36.9666293 ] ], [ [ -122.0404057, 36.9665566 ], [ -122.0402943, 36.9664752 ] ], [ [ -122.0404057, 36.9665566 ], [ -122.0403284, 36.9666329 ] ], [ [ -122.0404057, 36.9665566 ], [ -122.0405147, 36.9664264 ] ], [ [ -122.0402943, 36.9664752 ], [ -122.0404057, 36.9665566 ] ], [ [ -122.0402943, 36.9664752 ], [ -122.0402246, 36.9665283 ] ], [ [ -122.0402943, 36.9664752 ], [ -122.0400378, 36.9663119 ] ], [ [ -122.0402943, 36.9664752 ], [ -122.0403262, 36.9664685 ] ], [ [ -122.0402246, 36.9665283 ], [ -122.0402943, 36.9664752 ] ], [ [ -122.0402246, 36.9665283 ], [ -122.0401697, 36.9665831 ] ], [ [ -122.0402246, 36.9665283 ], [ -122.0399831, 36.9663681 ] ], [ [ -122.0402246, 36.9665283 ], [ -122.0403284, 36.9666329 ] ], [ [ -122.0401697, 36.9665831 ], [ -122.0402246, 36.9665283 ] ], [ [ -122.0401697, 36.9665831 ], [ -122.0384481, 36.9654398 ] ], [ [ -122.0401697, 36.9665831 ], [ -122.0401937, 36.9666075 ] ], [ [ -122.0384555, 36.9652527 ], [ -122.0385012, 36.9652894 ] ], [ [ -122.0384555, 36.9652527 ], [ -122.037883042852741, 36.964879070226615 ] ], [ [ -122.0384555, 36.9652527 ], [ -122.038899928537987, 36.964780018042632 ] ], [ [ -122.0385577, 36.9653292 ], [ -122.0385012, 36.9652894 ] ], [ [ -122.0385577, 36.9653292 ], [ -122.0385013, 36.9653849 ] ], [ [ -122.0385577, 36.9653292 ], [ -122.0391957, 36.9657628 ] ], [ [ -122.0385577, 36.9653292 ], [ -122.038556, 36.9653144 ] ], [ [ -122.0385013, 36.9653849 ], [ -122.0385577, 36.9653292 ] ], [ [ -122.0385013, 36.9653849 ], [ -122.0384481, 36.9654398 ] ], [ [ -122.0385013, 36.9653849 ], [ -122.0384448, 36.9653434 ] ], [ [ -122.0385013, 36.9653849 ], [ -122.038647, 36.9654815 ] ], [ [ -122.0384481, 36.9654398 ], [ -122.0385013, 36.9653849 ] ], [ [ -122.0384481, 36.9654398 ], [ -122.0383857, 36.9654038 ] ], [ [ -122.0384481, 36.9654398 ], [ -122.039253300025621, 36.965974526527241 ] ], [ [ -122.0384481, 36.9654398 ], [ -122.0379062, 36.9659704 ] ], [ [ -122.038331, 36.9653681 ], [ -122.0383857, 36.9654038 ] ], [ [ -122.038331, 36.9653681 ], [ -122.0381815, 36.9652715 ] ], [ [ -122.038331, 36.9653681 ], [ -122.0378171, 36.965871 ] ], [ [ -122.0377302, 36.9689431 ], [ -122.0377666, 36.9688868 ] ], [ [ -122.0377302, 36.9689431 ], [ -122.0377069, 36.9689871 ] ], [ [ -122.0377666, 36.9688868 ], [ -122.0377302, 36.9689431 ] ], [ [ -122.0377666, 36.9688868 ], [ -122.0378207, 36.9688033 ] ], [ [ -122.0377666, 36.9688868 ], [ -122.0378644, 36.9689376 ] ], [ [ -122.0378207, 36.9688033 ], [ -122.0377666, 36.9688868 ] ], [ [ -122.0378207, 36.9688033 ], [ -122.0379211, 36.9686641 ] ], [ [ -122.0378207, 36.9688033 ], [ -122.0377337, 36.9687787 ] ], [ [ -122.0379682, 36.9685973 ], [ -122.0379211, 36.9686641 ] ], [ [ -122.0379682, 36.9685973 ], [ -122.0383091, 36.9681023 ] ], [ [ -122.0379682, 36.9685973 ], [ -122.0380778, 36.9686169 ] ], [ [ -122.0379682, 36.9685973 ], [ -122.0378612, 36.9685777 ] ], [ [ -122.0383091, 36.9681023 ], [ -122.0379682, 36.9685973 ] ], [ [ -122.0383091, 36.9681023 ], [ -122.0383605, 36.9680315 ] ], [ [ -122.0383605, 36.9680315 ], [ -122.0383091, 36.9681023 ] ], [ [ -122.0383605, 36.9680315 ], [ -122.038444, 36.9679164 ] ], [ [ -122.0383605, 36.9680315 ], [ -122.0384466, 36.9680756 ] ], [ [ -122.038444, 36.9679164 ], [ -122.0383605, 36.9680315 ] ], [ [ -122.038444, 36.9679164 ], [ -122.038614, 36.9677516 ] ], [ [ -122.038614, 36.9677516 ], [ -122.038444, 36.9679164 ] ], [ [ -122.038614, 36.9677516 ], [ -122.0386967, 36.9676865 ] ], [ [ -122.0386967, 36.9676865 ], [ -122.038614, 36.9677516 ] ], [ [ -122.0386967, 36.9676865 ], [ -122.0387923, 36.9676231 ] ], [ [ -122.0386967, 36.9676865 ], [ -122.0385599, 36.9676605 ] ], [ [ -122.0386967, 36.9676865 ], [ -122.038823, 36.967715 ] ], [ [ -122.0387923, 36.9676231 ], [ -122.0386967, 36.9676865 ] ], [ [ -122.0387923, 36.9676231 ], [ -122.0388878, 36.9675601 ] ], [ [ -122.0387923, 36.9676231 ], [ -122.0387177, 36.9675705 ] ], [ [ -122.0388878, 36.9675601 ], [ -122.0387923, 36.9676231 ] ], [ [ -122.0388878, 36.9675601 ], [ -122.0391383, 36.9674049 ] ], [ [ -122.0388878, 36.9675601 ], [ -122.0388387, 36.9674974 ] ], [ [ -122.0391383, 36.9674049 ], [ -122.0388878, 36.9675601 ] ], [ [ -122.0391383, 36.9674049 ], [ -122.0391971, 36.967372 ] ], [ [ -122.0391383, 36.9674049 ], [ -122.0390784, 36.9673463 ] ], [ [ -122.0391383, 36.9674049 ], [ -122.0392079, 36.9674659 ] ], [ [ -122.0391971, 36.967372 ], [ -122.0391383, 36.9674049 ] ], [ [ -122.0391971, 36.967372 ], [ -122.0394199, 36.9672328 ] ], [ [ -122.0409087, 36.9659555 ], [ -122.0409762, 36.9658779 ] ], [ [ -122.0409087, 36.9659555 ], [ -122.0407856, 36.966103 ] ], [ [ -122.0409762, 36.9658779 ], [ -122.0409087, 36.9659555 ] ], [ [ -122.0409762, 36.9658779 ], [ -122.0410681, 36.9657722 ] ], [ [ -122.0409762, 36.9658779 ], [ -122.0410624, 36.9659251 ] ], [ [ -122.0410681, 36.9657722 ], [ -122.0409762, 36.9658779 ] ], [ [ -122.0410681, 36.9657722 ], [ -122.0412572, 36.9655547 ] ], [ [ -122.0410681, 36.9657722 ], [ -122.0411541, 36.965818 ] ], [ [ -122.0412572, 36.9655547 ], [ -122.0410681, 36.9657722 ] ], [ [ -122.0412572, 36.9655547 ], [ -122.0413699, 36.9654251 ] ], [ [ -122.0412572, 36.9655547 ], [ -122.0413403, 36.9656006 ] ], [ [ -122.0413699, 36.9654251 ], [ -122.0412572, 36.9655547 ] ], [ [ -122.0413699, 36.9654251 ], [ -122.0414328, 36.9653528 ] ], [ [ -122.0413699, 36.9654251 ], [ -122.0413078, 36.9653868 ] ], [ [ -122.0415681, 36.9651972 ], [ -122.041478, 36.9653009 ] ], [ [ -122.0415681, 36.9651972 ], [ -122.041747, 36.9649915 ] ], [ [ -122.041747, 36.9649915 ], [ -122.0415681, 36.9651972 ] ], [ [ -122.041747, 36.9649915 ], [ -122.0417717, 36.9649631 ] ], [ [ -122.0417717, 36.9649631 ], [ -122.041747, 36.9649915 ] ], [ [ -122.0417717, 36.9649631 ], [ -122.0418266, 36.9649 ] ], [ [ -122.0417717, 36.9649631 ], [ -122.0417034, 36.9649255 ] ], [ [ -122.0418266, 36.9649 ], [ -122.0417717, 36.9649631 ] ], [ [ -122.0418266, 36.9649 ], [ -122.0419411, 36.9647683 ] ], [ [ -122.0418266, 36.9649 ], [ -122.0416797, 36.9648203 ] ], [ [ -122.0419411, 36.9647683 ], [ -122.041869910427707, 36.964850183551718 ] ], [ [ -122.0419411, 36.9647683 ], [ -122.042012288291843, 36.964686415806057 ] ], [ [ -122.0419411, 36.9647683 ], [ -122.0420299, 36.9648224 ] ], [ [ -122.038647, 36.9654815 ], [ -122.0385013, 36.9653849 ] ], [ [ -122.038647, 36.9654815 ], [ -122.0391434, 36.9658107 ] ], [ [ -122.0391434, 36.9658107 ], [ -122.038647, 36.9654815 ] ], [ [ -122.0391434, 36.9658107 ], [ -122.0393917, 36.9659752 ] ], [ [ -122.0391434, 36.9658107 ], [ -122.0391957, 36.9657628 ] ], [ [ -122.0393917, 36.9659752 ], [ -122.0391434, 36.9658107 ] ], [ [ -122.0393917, 36.9659752 ], [ -122.039584, 36.9661029 ] ], [ [ -122.0393917, 36.9659752 ], [ -122.0394422, 36.96593 ] ], [ [ -122.039584, 36.9661029 ], [ -122.0393917, 36.9659752 ] ], [ [ -122.039584, 36.9661029 ], [ -122.039753, 36.9662152 ] ], [ [ -122.039753, 36.9662152 ], [ -122.039584, 36.9661029 ] ], [ [ -122.039753, 36.9662152 ], [ -122.0399831, 36.9663681 ] ], [ [ -122.0399831, 36.9663681 ], [ -122.039753, 36.9662152 ] ], [ [ -122.0399831, 36.9663681 ], [ -122.0400378, 36.9663119 ] ], [ [ -122.0399831, 36.9663681 ], [ -122.0402246, 36.9665283 ] ], [ [ -122.0413832, 36.9647477 ], [ -122.041445836552086, 36.964676128804598 ] ], [ [ -122.0413832, 36.9647477 ], [ -122.041472720902476, 36.964797584064094 ] ], [ [ -122.0413832, 36.9647477 ], [ -122.0413257, 36.9647156 ] ], [ [ -122.0412405, 36.9653439 ], [ -122.0416348, 36.9648879 ] ], [ [ -122.0412405, 36.9653439 ], [ -122.0409242, 36.9651892 ] ], [ [ -122.0412405, 36.9653439 ], [ -122.0413078, 36.9653868 ] ], [ [ -122.0416348, 36.9648879 ], [ -122.041398045752615, 36.965161701513594 ] ], [ [ -122.0416348, 36.9648879 ], [ -122.0417034, 36.9649255 ] ], [ [ -122.0416348, 36.9648879 ], [ -122.0413832, 36.9647477 ] ], [ [ -122.0409242, 36.9651892 ], [ -122.0412405, 36.9653439 ] ], [ [ -122.0409242, 36.9651892 ], [ -122.0413257, 36.9647156 ] ], [ [ -122.0413257, 36.9647156 ], [ -122.041303796186128, 36.964741437226017 ] ], [ [ -122.0413257, 36.9647156 ], [ -122.041357667147807, 36.964733446007727 ] ], [ [ -122.0421532, 36.9655998 ], [ -122.0421113, 36.9656466 ] ], [ [ -122.0421532, 36.9655998 ], [ -122.042223238266814, 36.965521689526163 ] ], [ [ -122.0421532, 36.9655998 ], [ -122.042251853170484, 36.96565450912793 ] ], [ [ -122.0421532, 36.9655998 ], [ -122.04205405520446, 36.96554566641607 ] ], [ [ -122.0420299, 36.9648224 ], [ -122.042041678914416, 36.964829424774265 ] ], [ [ -122.0420299, 36.9648224 ], [ -122.04201821131366, 36.964815278852129 ] ], [ [ -122.0420299, 36.9648224 ], [ -122.042038353050302, 36.964812773188925 ] ], [ [ -122.0420299, 36.9648224 ], [ -122.04202143397066, 36.964832019469846 ] ], [ [ -122.0376337, 36.9691128 ], [ -122.0375232, 36.9690885 ] ], [ [ -122.0376337, 36.9691128 ], [ -122.0375758, 36.9692048 ] ], [ [ -122.0376337, 36.9691128 ], [ -122.0377069, 36.9689871 ] ], [ [ -122.0375232, 36.9690885 ], [ -122.0376337, 36.9691128 ] ], [ [ -122.0375232, 36.9690885 ], [ -122.0373688, 36.9690465 ] ], [ [ -122.0375232, 36.9690885 ], [ -122.0372739, 36.9694562 ] ], [ [ -122.0375232, 36.9690885 ], [ -122.0377083, 36.9688155 ] ], [ [ -122.0373688, 36.9690465 ], [ -122.0375232, 36.9690885 ] ], [ [ -122.0373688, 36.9690465 ], [ -122.0371635, 36.9689907 ] ], [ [ -122.0373688, 36.9690465 ], [ -122.0373168, 36.9691437 ] ], [ [ -122.0371635, 36.9689907 ], [ -122.0373688, 36.9690465 ] ], [ [ -122.0371635, 36.9689907 ], [ -122.0371389, 36.968984 ] ], [ [ -122.0371635, 36.9689907 ], [ -122.0369763, 36.9694162 ] ], [ [ -122.0371389, 36.968984 ], [ -122.0371635, 36.9689907 ] ], [ [ -122.0371389, 36.968984 ], [ -122.0362201, 36.9687417 ] ], [ [ -122.0362201, 36.9687417 ], [ -122.036518131449625, 36.968820294928435 ] ], [ [ -122.0362201, 36.9687417 ], [ -122.035909078525322, 36.968708790929256 ] ], [ [ -122.0408709, 36.9661486 ], [ -122.0412087, 36.9663293 ] ], [ [ -122.0408709, 36.9661486 ], [ -122.0407856, 36.966103 ] ], [ [ -122.0408709, 36.9661486 ], [ -122.0410624, 36.9659251 ] ], [ [ -122.0408709, 36.9661486 ], [ -122.0408042, 36.9662265 ] ], [ [ -122.0412087, 36.9663293 ], [ -122.0408709, 36.9661486 ] ], [ [ -122.0412087, 36.9663293 ], [ -122.0414017, 36.9661113 ] ], [ [ -122.0414017, 36.9661113 ], [ -122.0412087, 36.9663293 ] ], [ [ -122.0414017, 36.9661113 ], [ -122.0410734, 36.9659311 ] ], [ [ -122.0410624, 36.9659251 ], [ -122.0409762, 36.9658779 ] ], [ [ -122.0410624, 36.9659251 ], [ -122.0410734, 36.9659311 ] ], [ [ -122.0410624, 36.9659251 ], [ -122.0411541, 36.965818 ] ], [ [ -122.0410624, 36.9659251 ], [ -122.0408709, 36.9661486 ] ], [ [ -122.0410734, 36.9659311 ], [ -122.0410624, 36.9659251 ] ], [ [ -122.0410734, 36.9659311 ], [ -122.0414017, 36.9661113 ] ], [ [ -122.0407856, 36.966103 ], [ -122.0408709, 36.9661486 ] ], [ [ -122.0407856, 36.966103 ], [ -122.0405147, 36.9664264 ] ], [ [ -122.0407856, 36.966103 ], [ -122.0409087, 36.9659555 ] ], [ [ -122.0386823, 36.9670841 ], [ -122.0387191, 36.967107 ] ], [ [ -122.0386823, 36.9670841 ], [ -122.0388968, 36.9668698 ] ], [ [ -122.0387191, 36.967107 ], [ -122.0386823, 36.9670841 ] ], [ [ -122.0387191, 36.967107 ], [ -122.0390356, 36.967307 ] ], [ [ -122.0387191, 36.967107 ], [ -122.0385391, 36.9672884 ] ], [ [ -122.0390356, 36.967307 ], [ -122.0387191, 36.967107 ] ], [ [ -122.0390356, 36.967307 ], [ -122.0390784, 36.9673463 ] ], [ [ -122.0393173, 36.9671478 ], [ -122.0388968, 36.9668698 ] ], [ [ -122.0393173, 36.9671478 ], [ -122.0393525, 36.9671754 ] ], [ [ -122.0388968, 36.9668698 ], [ -122.0393173, 36.9671478 ] ], [ [ -122.0388968, 36.9668698 ], [ -122.0386823, 36.9670841 ] ], [ [ -122.0390784, 36.9673463 ], [ -122.0390356, 36.967307 ] ], [ [ -122.0390784, 36.9673463 ], [ -122.0391383, 36.9674049 ] ], [ [ -122.0390784, 36.9673463 ], [ -122.0391145, 36.967324 ] ], [ [ -122.0390784, 36.9673463 ], [ -122.039029, 36.9673775 ] ], [ [ -122.0394199, 36.9672328 ], [ -122.0393525, 36.9671754 ] ], [ [ -122.0394199, 36.9672328 ], [ -122.0391971, 36.967372 ] ], [ [ -122.0394199, 36.9672328 ], [ -122.0395528, 36.9671523 ] ], [ [ -122.0393525, 36.9671754 ], [ -122.0394199, 36.9672328 ] ], [ [ -122.0393525, 36.9671754 ], [ -122.0393173, 36.9671478 ] ], [ [ -122.0393525, 36.9671754 ], [ -122.0393894, 36.9671534 ] ], [ [ -122.0393525, 36.9671754 ], [ -122.0393079, 36.967204 ] ], [ [ -122.040102, 36.9662459 ], [ -122.0400378, 36.9663119 ] ], [ [ -122.040102, 36.9662459 ], [ -122.0401302, 36.966261 ] ], [ [ -122.040102, 36.9662459 ], [ -122.0401302, 36.966261 ] ], [ [ -122.0400378, 36.9663119 ], [ -122.040102, 36.9662459 ] ], [ [ -122.0400378, 36.9663119 ], [ -122.0399831, 36.9663681 ] ], [ [ -122.0400378, 36.9663119 ], [ -122.0398416, 36.9661978 ] ], [ [ -122.0400378, 36.9663119 ], [ -122.0402943, 36.9664752 ] ], [ [ -122.0402446, 36.9663222 ], [ -122.0407046, 36.9657811 ] ], [ [ -122.0402446, 36.9663222 ], [ -122.0401302, 36.966261 ] ], [ [ -122.0407046, 36.9657811 ], [ -122.0402446, 36.9663222 ] ], [ [ -122.0407046, 36.9657811 ], [ -122.040596, 36.9657184 ] ], [ [ -122.040596, 36.9657184 ], [ -122.0401302, 36.966261 ] ], [ [ -122.040596, 36.9657184 ], [ -122.0407046, 36.9657811 ] ], [ [ -122.0401302, 36.966261 ], [ -122.040596, 36.9657184 ] ], [ [ -122.0401302, 36.966261 ], [ -122.040102, 36.9662459 ] ], [ [ -122.0401302, 36.966261 ], [ -122.040102, 36.9662459 ] ], [ [ -122.0401302, 36.966261 ], [ -122.0402446, 36.9663222 ] ], [ [ -122.0421886, 36.9657637 ], [ -122.042280980136795, 36.965813953601455 ] ], [ [ -122.0421886, 36.9657637 ], [ -122.042096252863374, 36.965713407662683 ] ], [ [ -122.0421886, 36.9657637 ], [ -122.0422335, 36.9657136 ] ], [ [ -122.0411541, 36.965818 ], [ -122.0410681, 36.9657722 ] ], [ [ -122.0411541, 36.965818 ], [ -122.0414982, 36.9660019 ] ], [ [ -122.0411541, 36.965818 ], [ -122.0413403, 36.9656006 ] ], [ [ -122.0411541, 36.965818 ], [ -122.0410624, 36.9659251 ] ], [ [ -122.0414982, 36.9660019 ], [ -122.0411541, 36.965818 ] ], [ [ -122.0414982, 36.9660019 ], [ -122.0415393, 36.9659606 ] ], [ [ -122.0415393, 36.9659606 ], [ -122.0414982, 36.9660019 ] ], [ [ -122.0415393, 36.9659606 ], [ -122.0416822, 36.9657894 ] ], [ [ -122.0416822, 36.9657894 ], [ -122.0415393, 36.9659606 ] ], [ [ -122.0416822, 36.9657894 ], [ -122.0413403, 36.9656006 ] ], [ [ -122.0413403, 36.9656006 ], [ -122.0416822, 36.9657894 ] ], [ [ -122.0413403, 36.9656006 ], [ -122.0412572, 36.9655547 ] ], [ [ -122.0413403, 36.9656006 ], [ -122.041514, 36.9654101 ] ], [ [ -122.0413403, 36.9656006 ], [ -122.0411541, 36.965818 ] ], [ [ -122.0405147, 36.9664264 ], [ -122.0405969, 36.9664717 ] ], [ [ -122.0405147, 36.9664264 ], [ -122.0404057, 36.9665566 ] ], [ [ -122.0405147, 36.9664264 ], [ -122.0407856, 36.966103 ] ], [ [ -122.0405969, 36.9664717 ], [ -122.0405147, 36.9664264 ] ], [ [ -122.0405969, 36.9664717 ], [ -122.0409313, 36.9666676 ] ], [ [ -122.0405969, 36.9664717 ], [ -122.0408042, 36.9662265 ] ], [ [ -122.0405969, 36.9664717 ], [ -122.0404908, 36.9665972 ] ], [ [ -122.0409313, 36.9666676 ], [ -122.0405969, 36.9664717 ] ], [ [ -122.0409313, 36.9666676 ], [ -122.0410587, 36.9665117 ] ], [ [ -122.0409313, 36.9666676 ], [ -122.0408493, 36.9667679 ] ], [ [ -122.0398589, 36.9669565 ], [ -122.0399735, 36.9670212 ] ], [ [ -122.0398589, 36.9669565 ], [ -122.0397315, 36.9670392 ] ], [ [ -122.0398589, 36.9669565 ], [ -122.0402276, 36.9667171 ] ], [ [ -122.0399735, 36.9670212 ], [ -122.0398589, 36.9669565 ] ], [ [ -122.0399735, 36.9670212 ], [ -122.0401635, 36.9671285 ] ], [ [ -122.0399735, 36.9670212 ], [ -122.0397038, 36.9671884 ] ], [ [ -122.0399735, 36.9670212 ], [ -122.0403594, 36.9667821 ] ], [ [ -122.0401635, 36.9671285 ], [ -122.0399735, 36.9670212 ] ], [ [ -122.0401635, 36.9671285 ], [ -122.0403289, 36.967078 ] ], [ [ -122.0403289, 36.967078 ], [ -122.0401635, 36.9671285 ] ], [ [ -122.0403289, 36.967078 ], [ -122.0405436, 36.9668655 ] ], [ [ -122.0405436, 36.9668655 ], [ -122.0403289, 36.967078 ] ], [ [ -122.0405436, 36.9668655 ], [ -122.0406043, 36.9668055 ] ], [ [ -122.0405436, 36.9668655 ], [ -122.0404105, 36.9667927 ] ], [ [ -122.0405436, 36.9668655 ], [ -122.0420243, 36.9676755 ] ], [ [ -122.0406043, 36.9668055 ], [ -122.0405436, 36.9668655 ] ], [ [ -122.0406043, 36.9668055 ], [ -122.0404171, 36.9667048 ] ], [ [ -122.0406043, 36.9668055 ], [ -122.0406959, 36.9668548 ] ], [ [ -122.0388387, 36.9674974 ], [ -122.0388878, 36.9675601 ] ], [ [ -122.0388387, 36.9674974 ], [ -122.0387882, 36.9674516 ] ], [ [ -122.0388387, 36.9674974 ], [ -122.039029, 36.9673775 ] ], [ [ -122.0388387, 36.9674974 ], [ -122.0387177, 36.9675705 ] ], [ [ -122.0387882, 36.9674516 ], [ -122.0388387, 36.9674974 ] ], [ [ -122.0387882, 36.9674516 ], [ -122.0385391, 36.9672884 ] ], [ [ -122.0385391, 36.9672884 ], [ -122.0387882, 36.9674516 ] ], [ [ -122.0385391, 36.9672884 ], [ -122.0387191, 36.967107 ] ], [ [ -122.0387177, 36.9675705 ], [ -122.0387923, 36.9676231 ] ], [ [ -122.0387177, 36.9675705 ], [ -122.0386761, 36.9675393 ] ], [ [ -122.0387177, 36.9675705 ], [ -122.0388387, 36.9674974 ] ], [ [ -122.0387177, 36.9675705 ], [ -122.0386356, 36.9676215 ] ], [ [ -122.0386761, 36.9675393 ], [ -122.0387177, 36.9675705 ] ], [ [ -122.0386761, 36.9675393 ], [ -122.0385273, 36.9675899 ] ], [ [ -122.0385273, 36.9675899 ], [ -122.0386761, 36.9675393 ] ], [ [ -122.0385273, 36.9675899 ], [ -122.0385231, 36.9676099 ] ], [ [ -122.0385273, 36.9675899 ], [ -122.0383539, 36.9675688 ] ], [ [ -122.0385231, 36.9676099 ], [ -122.0385273, 36.9675899 ] ], [ [ -122.0385231, 36.9676099 ], [ -122.0385131, 36.9676536 ] ], [ [ -122.0385231, 36.9676099 ], [ -122.0386356, 36.9676215 ] ], [ [ -122.0385231, 36.9676099 ], [ -122.0383493, 36.967592 ] ], [ [ -122.0385131, 36.9676536 ], [ -122.0385231, 36.9676099 ] ], [ [ -122.0385131, 36.9676536 ], [ -122.0383409, 36.967635 ] ], [ [ -122.0385131, 36.9676536 ], [ -122.0385599, 36.9676605 ] ], [ [ -122.0383539, 36.9675688 ], [ -122.0385273, 36.9675899 ] ], [ [ -122.0383539, 36.9675688 ], [ -122.0383493, 36.967592 ] ], [ [ -122.0383493, 36.967592 ], [ -122.0383539, 36.9675688 ] ], [ [ -122.0383493, 36.967592 ], [ -122.0383409, 36.967635 ] ], [ [ -122.0383493, 36.967592 ], [ -122.0385231, 36.9676099 ] ], [ [ -122.0383493, 36.967592 ], [ -122.0373077, 36.9674848 ] ], [ [ -122.0383409, 36.967635 ], [ -122.0383493, 36.967592 ] ], [ [ -122.0383409, 36.967635 ], [ -122.0381876, 36.9676193 ] ], [ [ -122.0383409, 36.967635 ], [ -122.0385131, 36.9676536 ] ], [ [ -122.0376535, 36.9685766 ], [ -122.0376749, 36.9685297 ] ], [ [ -122.0376535, 36.9685766 ], [ -122.0378258, 36.9686316 ] ], [ [ -122.0376535, 36.9685766 ], [ -122.0372273, 36.9684541 ] ], [ [ -122.0376749, 36.9685297 ], [ -122.0376535, 36.9685766 ] ], [ [ -122.0376749, 36.9685297 ], [ -122.0377147, 36.9684424 ] ], [ [ -122.0376749, 36.9685297 ], [ -122.0378337, 36.9685777 ] ], [ [ -122.0376749, 36.9685297 ], [ -122.0370126, 36.9683297 ] ], [ [ -122.0377147, 36.9684424 ], [ -122.0376749, 36.9685297 ] ], [ [ -122.0377147, 36.9684424 ], [ -122.0377993, 36.9684544 ] ], [ [ -122.0377147, 36.9684424 ], [ -122.0376258, 36.9684136 ] ], [ [ -122.0377993, 36.9684544 ], [ -122.0377147, 36.9684424 ] ], [ [ -122.0377993, 36.9684544 ], [ -122.0378952, 36.9681864 ] ], [ [ -122.0378952, 36.9681864 ], [ -122.0377993, 36.9684544 ] ], [ [ -122.0378952, 36.9681864 ], [ -122.0378741, 36.9680239 ] ], [ [ -122.0378741, 36.9680239 ], [ -122.0378952, 36.9681864 ] ], [ [ -122.0378741, 36.9680239 ], [ -122.0379903, 36.9679275 ] ], [ [ -122.0378741, 36.9680239 ], [ -122.0377534, 36.9680063 ] ], [ [ -122.0379903, 36.9679275 ], [ -122.0378741, 36.9680239 ] ], [ [ -122.0379903, 36.9679275 ], [ -122.0380431, 36.9677756 ] ], [ [ -122.0380431, 36.9677756 ], [ -122.0379903, 36.9679275 ] ], [ [ -122.0380431, 36.9677756 ], [ -122.0378345, 36.9677475 ] ], [ [ -122.0378345, 36.9677475 ], [ -122.0380431, 36.9677756 ] ], [ [ -122.0378345, 36.9677475 ], [ -122.0377534, 36.9680063 ] ], [ [ -122.0378345, 36.9677475 ], [ -122.0378609, 36.9676358 ] ], [ [ -122.0377534, 36.9680063 ], [ -122.0378345, 36.9677475 ] ], [ [ -122.0377534, 36.9680063 ], [ -122.0376258, 36.9684136 ] ], [ [ -122.0377534, 36.9680063 ], [ -122.0378741, 36.9680239 ] ], [ [ -122.0376258, 36.9684136 ], [ -122.0377534, 36.9680063 ] ], [ [ -122.0376258, 36.9684136 ], [ -122.0377147, 36.9684424 ] ], [ [ -122.0378609, 36.9676358 ], [ -122.0378345, 36.9677475 ] ], [ [ -122.0378609, 36.9676358 ], [ -122.0378724, 36.9675871 ] ], [ [ -122.0378609, 36.9676358 ], [ -122.0351298, 36.9673557 ] ], [ [ -122.0378609, 36.9676358 ], [ -122.0381707, 36.9676675 ] ], [ [ -122.0372273, 36.9684541 ], [ -122.0372245, 36.9685246 ] ], [ [ -122.0372273, 36.9684541 ], [ -122.0370639, 36.9684071 ] ], [ [ -122.0372273, 36.9684541 ], [ -122.0376535, 36.9685766 ] ], [ [ -122.0372245, 36.9685246 ], [ -122.0372273, 36.9684541 ] ], [ [ -122.0372245, 36.9685246 ], [ -122.03722, 36.968638 ] ], [ [ -122.0372245, 36.9685246 ], [ -122.0377944, 36.9686909 ] ], [ [ -122.0372245, 36.9685246 ], [ -122.0369724, 36.968451 ] ], [ [ -122.03722, 36.968638 ], [ -122.0372245, 36.9685246 ] ], [ [ -122.03722, 36.968638 ], [ -122.0377337, 36.9687787 ] ], [ [ -122.03722, 36.968638 ], [ -122.0371407, 36.9689031 ] ], [ [ -122.0377337, 36.9687787 ], [ -122.03722, 36.968638 ] ], [ [ -122.0377337, 36.9687787 ], [ -122.0378207, 36.9688033 ] ], [ [ -122.0377337, 36.9687787 ], [ -122.0377083, 36.9688155 ] ], [ [ -122.0377337, 36.9687787 ], [ -122.0377944, 36.9686909 ] ], [ [ -122.0371407, 36.9689031 ], [ -122.03722, 36.968638 ] ], [ [ -122.0373168, 36.9691437 ], [ -122.0373688, 36.9690465 ] ], [ [ -122.0369763, 36.9694162 ], [ -122.0371635, 36.9689907 ] ], [ [ -122.0369763, 36.9694162 ], [ -122.0369469, 36.9694831 ] ], [ [ -122.0369763, 36.9694162 ], [ -122.0369648, 36.9694131 ] ], [ [ -122.0369763, 36.9694162 ], [ -122.0372305, 36.9694835 ] ], [ [ -122.0371259, 36.9698513 ], [ -122.0370455, 36.9698168 ] ], [ [ -122.0371259, 36.9698513 ], [ -122.0368885, 36.9702392 ] ], [ [ -122.0371259, 36.9698513 ], [ -122.0371519, 36.9698129 ] ], [ [ -122.0370455, 36.9698168 ], [ -122.0371259, 36.9698513 ] ], [ [ -122.0370455, 36.9698168 ], [ -122.0369471, 36.9697746 ] ], [ [ -122.0370455, 36.9698168 ], [ -122.0371394, 36.9696685 ] ], [ [ -122.0370455, 36.9698168 ], [ -122.036747566717295, 36.970287630308206 ] ], [ [ -122.0369471, 36.9697746 ], [ -122.0370455, 36.9698168 ] ], [ [ -122.0369471, 36.9697746 ], [ -122.0370342, 36.969634 ] ], [ [ -122.0370342, 36.969634 ], [ -122.0369471, 36.9697746 ] ], [ [ -122.0370342, 36.969634 ], [ -122.036808, 36.9695467 ] ], [ [ -122.036808, 36.9695467 ], [ -122.0370342, 36.969634 ] ], [ [ -122.036808, 36.9695467 ], [ -122.0368223, 36.9695158 ] ], [ [ -122.0368223, 36.9695158 ], [ -122.036808, 36.9695467 ] ], [ [ -122.0368223, 36.9695158 ], [ -122.0368496, 36.9694567 ] ], [ [ -122.0368223, 36.9695158 ], [ -122.036274495377384, 36.969367633748902 ] ], [ [ -122.0368223, 36.9695158 ], [ -122.0371356, 36.9696006 ] ], [ [ -122.0375903, 36.9697173 ], [ -122.0376255, 36.9696687 ] ], [ [ -122.0375903, 36.9697173 ], [ -122.0375578, 36.9697622 ] ], [ [ -122.0375903, 36.9697173 ], [ -122.03819782256636, 36.970011802274549 ] ], [ [ -122.0375903, 36.9697173 ], [ -122.0374676, 36.9696578 ] ], [ [ -122.0375578, 36.9697622 ], [ -122.0375903, 36.9697173 ] ], [ [ -122.0375578, 36.9697622 ], [ -122.0374383, 36.9699371 ] ], [ [ -122.0375578, 36.9697622 ], [ -122.0374137, 36.9696994 ] ], [ [ -122.0374383, 36.9699371 ], [ -122.0375578, 36.9697622 ] ], [ [ -122.0374383, 36.9699371 ], [ -122.0372576, 36.9698587 ] ], [ [ -122.0372576, 36.9698587 ], [ -122.0374383, 36.9699371 ] ], [ [ -122.0372576, 36.9698587 ], [ -122.0371519, 36.9698129 ] ], [ [ -122.0372576, 36.9698587 ], [ -122.0373741, 36.969681 ] ], [ [ -122.0372576, 36.9698587 ], [ -122.036984534863947, 36.970275374285116 ] ], [ [ -122.0371519, 36.9698129 ], [ -122.0372576, 36.9698587 ] ], [ [ -122.0371519, 36.9698129 ], [ -122.0371259, 36.9698513 ] ], [ [ -122.0371519, 36.9698129 ], [ -122.0372707, 36.9696375 ] ], [ [ -122.0374137, 36.9696994 ], [ -122.0375578, 36.9697622 ] ], [ [ -122.0378644, 36.9689376 ], [ -122.0377666, 36.9688868 ] ], [ [ -122.0378644, 36.9689376 ], [ -122.0381755, 36.9690835 ] ], [ [ -122.0378644, 36.9689376 ], [ -122.037666, 36.9692479 ] ], [ [ -122.0378644, 36.9689376 ], [ -122.037987, 36.9687459 ] ], [ [ -122.0381755, 36.9690835 ], [ -122.0378644, 36.9689376 ] ], [ [ -122.0381755, 36.9690835 ], [ -122.0382995, 36.9691417 ] ], [ [ -122.0381755, 36.9690835 ], [ -122.0383212, 36.9689057 ] ], [ [ -122.0382995, 36.9691417 ], [ -122.0381755, 36.9690835 ] ], [ [ -122.0383212, 36.9689057 ], [ -122.038369, 36.9688473 ] ], [ [ -122.0383212, 36.9689057 ], [ -122.0381755, 36.9690835 ] ], [ [ -122.0383212, 36.9689057 ], [ -122.037987, 36.9687459 ] ], [ [ -122.0383212, 36.9689057 ], [ -122.0395827, 36.969509 ] ], [ [ -122.0375758, 36.9692048 ], [ -122.037666, 36.9692479 ] ], [ [ -122.0375758, 36.9692048 ], [ -122.0375141, 36.9692938 ] ], [ [ -122.0375758, 36.9692048 ], [ -122.0376337, 36.9691128 ] ], [ [ -122.037666, 36.9692479 ], [ -122.0375758, 36.9692048 ] ], [ [ -122.037666, 36.9692479 ], [ -122.0380054, 36.9694101 ] ], [ [ -122.037666, 36.9692479 ], [ -122.0375252, 36.9694553 ] ], [ [ -122.037666, 36.9692479 ], [ -122.0378644, 36.9689376 ] ], [ [ -122.0380054, 36.9694101 ], [ -122.037666, 36.9692479 ] ], [ [ -122.0390302, 36.9667915 ], [ -122.0394673, 36.9670771 ] ], [ [ -122.0390302, 36.9667915 ], [ -122.0389547, 36.9667396 ] ], [ [ -122.0394673, 36.9670771 ], [ -122.0390302, 36.9667915 ] ], [ [ -122.0394673, 36.9670771 ], [ -122.0394875, 36.9670903 ] ], [ [ -122.0394875, 36.9670903 ], [ -122.0394673, 36.9670771 ] ], [ [ -122.0394875, 36.9670903 ], [ -122.0395528, 36.9671523 ] ], [ [ -122.0394875, 36.9670903 ], [ -122.0395407, 36.9670594 ] ], [ [ -122.0394875, 36.9670903 ], [ -122.0394452, 36.9671188 ] ], [ [ -122.0391957, 36.9657628 ], [ -122.0385577, 36.9653292 ] ], [ [ -122.0391957, 36.9657628 ], [ -122.0394422, 36.96593 ] ], [ [ -122.0391957, 36.9657628 ], [ -122.0392515, 36.9657182 ] ], [ [ -122.0391957, 36.9657628 ], [ -122.0391434, 36.9658107 ] ], [ [ -122.0394422, 36.96593 ], [ -122.0391957, 36.9657628 ] ], [ [ -122.0394422, 36.96593 ], [ -122.0395425, 36.965999 ] ], [ [ -122.0394422, 36.96593 ], [ -122.0394439, 36.9657224 ] ], [ [ -122.0394422, 36.96593 ], [ -122.0393917, 36.9659752 ] ], [ [ -122.0395425, 36.965999 ], [ -122.0394422, 36.96593 ] ], [ [ -122.0395425, 36.965999 ], [ -122.039587, 36.9660275 ] ], [ [ -122.0395425, 36.965999 ], [ -122.0397865, 36.9659994 ] ], [ [ -122.039587, 36.9660275 ], [ -122.0395425, 36.965999 ] ], [ [ -122.039587, 36.9660275 ], [ -122.0396284, 36.9660351 ] ], [ [ -122.0396284, 36.9660351 ], [ -122.039587, 36.9660275 ] ], [ [ -122.0396284, 36.9660351 ], [ -122.0397869, 36.9661424 ] ], [ [ -122.0397869, 36.9661424 ], [ -122.0396284, 36.9660351 ] ], [ [ -122.0397869, 36.9661424 ], [ -122.0398233, 36.9661671 ] ], [ [ -122.0397869, 36.9661424 ], [ -122.0397865, 36.9659994 ] ], [ [ -122.0398233, 36.9661671 ], [ -122.0397869, 36.9661424 ] ], [ [ -122.0398233, 36.9661671 ], [ -122.0398416, 36.9661978 ] ], [ [ -122.0398416, 36.9661978 ], [ -122.0398233, 36.9661671 ] ], [ [ -122.0398416, 36.9661978 ], [ -122.0400378, 36.9663119 ] ], [ [ -122.0381275, 36.9652354 ], [ -122.037615003173372, 36.964892006276813 ] ], [ [ -122.0381275, 36.9652354 ], [ -122.0381462, 36.9652363 ] ], [ [ -122.0381462, 36.9652363 ], [ -122.0381275, 36.9652354 ] ], [ [ -122.0381462, 36.9652363 ], [ -122.0381672, 36.9652468 ] ], [ [ -122.0381672, 36.9652468 ], [ -122.0381462, 36.9652363 ] ], [ [ -122.0381672, 36.9652468 ], [ -122.0381815, 36.9652715 ] ], [ [ -122.0381815, 36.9652715 ], [ -122.0381672, 36.9652468 ] ], [ [ -122.0381815, 36.9652715 ], [ -122.038331, 36.9653681 ] ], [ [ -122.0403284, 36.9666329 ], [ -122.0404171, 36.9667048 ] ], [ [ -122.0403284, 36.9666329 ], [ -122.0404057, 36.9665566 ] ], [ [ -122.0403284, 36.9666329 ], [ -122.0402246, 36.9665283 ] ], [ [ -122.0403284, 36.9666329 ], [ -122.0402276, 36.9667171 ] ], [ [ -122.0406959, 36.9668548 ], [ -122.0406043, 36.9668055 ] ], [ [ -122.0406959, 36.9668548 ], [ -122.0407024, 36.9668583 ] ], [ [ -122.0407024, 36.9668583 ], [ -122.0406959, 36.9668548 ] ], [ [ -122.0407024, 36.9668583 ], [ -122.0407544, 36.9668863 ] ], [ [ -122.0397315, 36.9670392 ], [ -122.0398589, 36.9669565 ] ], [ [ -122.0397315, 36.9670392 ], [ -122.0395528, 36.9671523 ] ], [ [ -122.0402276, 36.9667171 ], [ -122.0398589, 36.9669565 ] ], [ [ -122.0402276, 36.9667171 ], [ -122.0403284, 36.9666329 ] ], [ [ -122.0385599, 36.9676605 ], [ -122.0385131, 36.9676536 ] ], [ [ -122.0385599, 36.9676605 ], [ -122.0386967, 36.9676865 ] ], [ [ -122.0385599, 36.9676605 ], [ -122.0386356, 36.9676215 ] ], [ [ -122.0385599, 36.9676605 ], [ -122.0384656, 36.9677156 ] ], [ [ -122.038823, 36.967715 ], [ -122.0386967, 36.9676865 ] ], [ [ -122.038823, 36.967715 ], [ -122.0388572, 36.9677335 ] ], [ [ -122.038823, 36.967715 ], [ -122.038881, 36.96768 ] ], [ [ -122.038823, 36.967715 ], [ -122.0387746, 36.9677504 ] ], [ [ -122.0388572, 36.9677335 ], [ -122.038823, 36.967715 ] ], [ [ -122.0388572, 36.9677335 ], [ -122.0390154, 36.9678191 ] ], [ [ -122.0390154, 36.9678191 ], [ -122.0388572, 36.9677335 ] ], [ [ -122.0390154, 36.9678191 ], [ -122.0398808, 36.9682876 ] ], [ [ -122.0390154, 36.9678191 ], [ -122.0389758, 36.9678627 ] ], [ [ -122.0398808, 36.9682876 ], [ -122.0390154, 36.9678191 ] ], [ [ -122.0398808, 36.9682876 ], [ -122.0404332, 36.9685912 ] ], [ [ -122.0404332, 36.9685912 ], [ -122.0398808, 36.9682876 ] ], [ [ -122.0404332, 36.9685912 ], [ -122.0418039, 36.9693161 ] ], [ [ -122.0418039, 36.9693161 ], [ -122.041695731013519, 36.969258894412853 ] ], [ [ -122.0418039, 36.9693161 ], [ -122.0418793, 36.969351 ] ], [ [ -122.0418039, 36.9693161 ], [ -122.0418549, 36.9692635 ] ], [ [ -122.0418039, 36.9693161 ], [ -122.0417596, 36.9693612 ] ], [ [ -122.0418793, 36.969351 ], [ -122.041842481585178, 36.969333958054683 ] ], [ [ -122.0418793, 36.969351 ], [ -122.041852200358477, 36.969377275163659 ] ], [ [ -122.0418793, 36.969351 ], [ -122.041906543032312, 36.969324820509499 ] ], [ [ -122.0378258, 36.9686316 ], [ -122.0376535, 36.9685766 ] ], [ [ -122.0378258, 36.9686316 ], [ -122.0379211, 36.9686641 ] ], [ [ -122.0378258, 36.9686316 ], [ -122.0378612, 36.9685777 ] ], [ [ -122.0378258, 36.9686316 ], [ -122.0377944, 36.9686909 ] ], [ [ -122.035872, 36.9682662 ], [ -122.0355585286067, 36.968235650787854 ] ], [ [ -122.035872, 36.9682662 ], [ -122.036185616498088, 36.968295777071688 ] ], [ [ -122.0367542, 36.9683494 ], [ -122.035872, 36.9682662 ] ], [ [ -122.0367542, 36.9683494 ], [ -122.0370639, 36.9684071 ] ], [ [ -122.0370639, 36.9684071 ], [ -122.0367542, 36.9683494 ] ], [ [ -122.0370639, 36.9684071 ], [ -122.0372273, 36.9684541 ] ], [ [ -122.0374539, 36.9695873 ], [ -122.0373203, 36.9695655 ] ], [ [ -122.0374539, 36.9695873 ], [ -122.0376255, 36.9696687 ] ], [ [ -122.0374539, 36.9695873 ], [ -122.0374094, 36.9696465 ] ], [ [ -122.0374539, 36.9695873 ], [ -122.0374979, 36.9695184 ] ], [ [ -122.0373773, 36.9694913 ], [ -122.0373203, 36.9695655 ] ], [ [ -122.0373773, 36.9694913 ], [ -122.0375141, 36.9692938 ] ], [ [ -122.0373773, 36.9694913 ], [ -122.0374979, 36.9695184 ] ], [ [ -122.0373773, 36.9694913 ], [ -122.0372525, 36.9694708 ] ], [ [ -122.0375141, 36.9692938 ], [ -122.0373773, 36.9694913 ] ], [ [ -122.0375141, 36.9692938 ], [ -122.0375758, 36.9692048 ] ], [ [ -122.0377069, 36.9689871 ], [ -122.0376337, 36.9691128 ] ], [ [ -122.0377069, 36.9689871 ], [ -122.0377302, 36.9689431 ] ], [ [ -122.0368885, 36.9702392 ], [ -122.036929139105808, 36.97017279768685 ] ], [ [ -122.0368885, 36.9702392 ], [ -122.036845705989691, 36.970304724993341 ] ], [ [ -122.0372707, 36.9696375 ], [ -122.0371519, 36.9698129 ] ], [ [ -122.0372707, 36.9696375 ], [ -122.0373203, 36.9695655 ] ], [ [ -122.0372707, 36.9696375 ], [ -122.0371546, 36.9696315 ] ], [ [ -122.0372707, 36.9696375 ], [ -122.0374094, 36.9696465 ] ], [ [ -122.0419459, 36.969287 ], [ -122.0418896180377, 36.969341084768587 ] ], [ [ -122.0419459, 36.969287 ], [ -122.042000911622523, 36.969232080328226 ] ], [ [ -122.0419459, 36.969287 ], [ -122.041992, 36.9693222 ] ], [ [ -122.0419459, 36.969287 ], [ -122.0418931, 36.9692524 ] ], [ [ -122.042604, 36.96863 ], [ -122.042575081324998, 36.968658870338047 ] ], [ [ -122.042604, 36.96863 ], [ -122.042631395612432, 36.968600188689187 ] ], [ [ -122.0426156, 36.9679021 ], [ -122.0427045, 36.9679507 ] ], [ [ -122.0426156, 36.9679021 ], [ -122.04244733051415, 36.967810004741885 ] ], [ [ -122.0427045, 36.9679507 ], [ -122.042625069145416, 36.96790727660818 ] ], [ [ -122.0427045, 36.9679507 ], [ -122.042782285152896, 36.967996001088366 ] ], [ [ -122.0407544, 36.9668863 ], [ -122.0407024, 36.9668583 ] ], [ [ -122.0407544, 36.9668863 ], [ -122.0412478, 36.9671515 ] ], [ [ -122.0407544, 36.9668863 ], [ -122.040802, 36.9668269 ] ], [ [ -122.0397865, 36.9659994 ], [ -122.0397869, 36.9661424 ] ], [ [ -122.0397865, 36.9659994 ], [ -122.0397872, 36.9659925 ] ], [ [ -122.0397865, 36.9659994 ], [ -122.0395425, 36.965999 ] ], [ [ -122.0397872, 36.9659925 ], [ -122.0397865, 36.9659994 ] ], [ [ -122.0394439, 36.9657224 ], [ -122.0394422, 36.96593 ] ], [ [ -122.0394439, 36.9657224 ], [ -122.0392515, 36.9657182 ] ], [ [ -122.0392515, 36.9657182 ], [ -122.0394439, 36.9657224 ] ], [ [ -122.0392515, 36.9657182 ], [ -122.0391957, 36.9657628 ] ], [ [ -122.0413078, 36.9653868 ], [ -122.0412405, 36.9653439 ] ], [ [ -122.0413078, 36.9653868 ], [ -122.0413699, 36.9654251 ] ], [ [ -122.0413078, 36.9653868 ], [ -122.0413663, 36.9653172 ] ], [ [ -122.0413078, 36.9653868 ], [ -122.0411937, 36.9655226 ] ], [ [ -122.0417034, 36.9649255 ], [ -122.0416348, 36.9648879 ] ], [ [ -122.0417034, 36.9649255 ], [ -122.0417717, 36.9649631 ] ], [ [ -122.0417034, 36.9649255 ], [ -122.0419529, 36.9646357 ] ], [ [ -122.0417034, 36.9649255 ], [ -122.041422071890267, 36.965252394751069 ] ], [ [ -122.0371546, 36.9696315 ], [ -122.0372707, 36.9696375 ] ], [ [ -122.0371546, 36.9696315 ], [ -122.0372071, 36.9695471 ] ], [ [ -122.0371546, 36.9696315 ], [ -122.0371356, 36.9696006 ] ], [ [ -122.0371546, 36.9696315 ], [ -122.0371394, 36.9696685 ] ], [ [ -122.0374094, 36.9696465 ], [ -122.0372707, 36.9696375 ] ], [ [ -122.0374094, 36.9696465 ], [ -122.0374539, 36.9695873 ] ], [ [ -122.0374094, 36.9696465 ], [ -122.0374273, 36.9696449 ] ], [ [ -122.0374094, 36.9696465 ], [ -122.0373933, 36.9696579 ] ], [ [ -122.0374979, 36.9695184 ], [ -122.0374539, 36.9695873 ] ], [ [ -122.0374979, 36.9695184 ], [ -122.0373773, 36.9694913 ] ], [ [ -122.0374979, 36.9695184 ], [ -122.0375045, 36.9695298 ] ], [ [ -122.0374979, 36.9695184 ], [ -122.0374998, 36.9695011 ] ], [ [ -122.0372525, 36.9694708 ], [ -122.0373773, 36.9694913 ] ], [ [ -122.0372525, 36.9694708 ], [ -122.0372071, 36.9695471 ] ], [ [ -122.0372525, 36.9694708 ], [ -122.0372739, 36.9694562 ] ], [ [ -122.0372525, 36.9694708 ], [ -122.0372305, 36.9694835 ] ], [ [ -122.0372739, 36.9694562 ], [ -122.0372525, 36.9694708 ] ], [ [ -122.0372739, 36.9694562 ], [ -122.0375232, 36.9690885 ] ], [ [ -122.0377083, 36.9688155 ], [ -122.0375232, 36.9690885 ] ], [ [ -122.0377083, 36.9688155 ], [ -122.0377337, 36.9687787 ] ], [ [ -122.0377944, 36.9686909 ], [ -122.0377337, 36.9687787 ] ], [ [ -122.0377944, 36.9686909 ], [ -122.0372245, 36.9685246 ] ], [ [ -122.0377944, 36.9686909 ], [ -122.0378258, 36.9686316 ] ], [ [ -122.0369724, 36.968451 ], [ -122.0372245, 36.9685246 ] ], [ [ -122.0369724, 36.968451 ], [ -122.035607989541077, 36.96830304336094 ] ], [ [ -122.0369329, 36.9694156 ], [ -122.036176711054765, 36.969211285313918 ] ], [ [ -122.0369329, 36.9694156 ], [ -122.0369648, 36.9694131 ] ], [ [ -122.0369648, 36.9694131 ], [ -122.0369329, 36.9694156 ] ], [ [ -122.0369648, 36.9694131 ], [ -122.0369763, 36.9694162 ] ], [ [ -122.0372305, 36.9694835 ], [ -122.0369763, 36.9694162 ] ], [ [ -122.0372305, 36.9694835 ], [ -122.0372525, 36.9694708 ] ], [ [ -122.0371356, 36.9696006 ], [ -122.0368223, 36.9695158 ] ], [ [ -122.0371356, 36.9696006 ], [ -122.0371546, 36.9696315 ] ], [ [ -122.0371394, 36.9696685 ], [ -122.0371546, 36.9696315 ] ], [ [ -122.0371394, 36.9696685 ], [ -122.0370455, 36.9698168 ] ], [ [ -122.037987, 36.9687459 ], [ -122.0383212, 36.9689057 ] ], [ [ -122.037987, 36.9687459 ], [ -122.0378644, 36.9689376 ] ], [ [ -122.037987, 36.9687459 ], [ -122.0380329, 36.9686853 ] ], [ [ -122.0395827, 36.969509 ], [ -122.039309699306202, 36.969378440096264 ] ], [ [ -122.0395827, 36.969509 ], [ -122.03940412620851, 36.969719950346033 ] ], [ [ -122.0395827, 36.969509 ], [ -122.0396374, 36.9695407 ] ], [ [ -122.0395827, 36.969509 ], [ -122.03962, 36.9694625 ] ], [ [ -122.0375193, 36.9695379 ], [ -122.038409037457455, 36.969973203649943 ] ], [ [ -122.0375193, 36.9695379 ], [ -122.0375045, 36.9695298 ] ], [ [ -122.0375045, 36.9695298 ], [ -122.0375193, 36.9695379 ] ], [ [ -122.0375045, 36.9695298 ], [ -122.0374979, 36.9695184 ] ], [ [ -122.0374998, 36.9695011 ], [ -122.0374979, 36.9695184 ] ], [ [ -122.0374998, 36.9695011 ], [ -122.0375047, 36.9694858 ] ], [ [ -122.0375047, 36.9694858 ], [ -122.0374998, 36.9695011 ] ], [ [ -122.0375047, 36.9694858 ], [ -122.0375252, 36.9694553 ] ], [ [ -122.0375252, 36.9694553 ], [ -122.0375047, 36.9694858 ] ], [ [ -122.0375252, 36.9694553 ], [ -122.037666, 36.9692479 ] ], [ [ -122.0380778, 36.9686169 ], [ -122.0380329, 36.9686853 ] ], [ [ -122.0380778, 36.9686169 ], [ -122.0379682, 36.9685973 ] ], [ [ -122.0380778, 36.9686169 ], [ -122.0380894, 36.9686324 ] ], [ [ -122.0380778, 36.9686169 ], [ -122.0380816, 36.9686008 ] ], [ [ -122.0378612, 36.9685777 ], [ -122.0379682, 36.9685973 ] ], [ [ -122.0378612, 36.9685777 ], [ -122.0378258, 36.9686316 ] ], [ [ -122.0378612, 36.9685777 ], [ -122.0384656, 36.9677156 ] ], [ [ -122.0378612, 36.9685777 ], [ -122.0378337, 36.9685777 ] ], [ [ -122.03828, 36.9676939 ], [ -122.0384656, 36.9677156 ] ], [ [ -122.03828, 36.9676939 ], [ -122.0382713, 36.9676931 ] ], [ [ -122.0384656, 36.9677156 ], [ -122.03828, 36.9676939 ] ], [ [ -122.0384656, 36.9677156 ], [ -122.0378612, 36.9685777 ] ], [ [ -122.0384656, 36.9677156 ], [ -122.0385599, 36.9676605 ] ], [ [ -122.0378337, 36.9685777 ], [ -122.0378612, 36.9685777 ] ], [ [ -122.0378337, 36.9685777 ], [ -122.0376749, 36.9685297 ] ], [ [ -122.0370126, 36.9683297 ], [ -122.0376749, 36.9685297 ] ], [ [ -122.0370126, 36.9683297 ], [ -122.035523075665211, 36.96816930138769 ] ], [ [ -122.0401937, 36.9666075 ], [ -122.0401697, 36.9665831 ] ], [ [ -122.0401937, 36.9666075 ], [ -122.0401959, 36.9666207 ] ], [ [ -122.0401959, 36.9666207 ], [ -122.0401937, 36.9666075 ] ], [ [ -122.0401959, 36.9666207 ], [ -122.040083, 36.9667303 ] ], [ [ -122.040083, 36.9667303 ], [ -122.0401959, 36.9666207 ] ], [ [ -122.040083, 36.9667303 ], [ -122.0395407, 36.9670594 ] ], [ [ -122.0395407, 36.9670594 ], [ -122.040083, 36.9667303 ] ], [ [ -122.0395407, 36.9670594 ], [ -122.0379062, 36.9659704 ] ], [ [ -122.0395407, 36.9670594 ], [ -122.0394875, 36.9670903 ] ], [ [ -122.0379062, 36.9659704 ], [ -122.039368089820982, 36.966944396950161 ] ], [ [ -122.0379062, 36.9659704 ], [ -122.0384481, 36.9654398 ] ], [ [ -122.0379062, 36.9659704 ], [ -122.0378747, 36.9660006 ] ], [ [ -122.0379062, 36.9659704 ], [ -122.0378559, 36.9659143 ] ], [ [ -122.0377779, 36.9658748 ], [ -122.0377417, 36.9659083 ] ], [ [ -122.0377779, 36.9658748 ], [ -122.0378171, 36.965871 ] ], [ [ -122.0377779, 36.9658748 ], [ -122.036458224845063, 36.964992182286693 ] ], [ [ -122.0376904, 36.9659559 ], [ -122.0377417, 36.9659083 ] ], [ [ -122.0376904, 36.9659559 ], [ -122.0376926, 36.965988 ] ], [ [ -122.0376904, 36.9659559 ], [ -122.036291342766319, 36.965020625986824 ] ], [ [ -122.0376926, 36.965988 ], [ -122.0376904, 36.9659559 ] ], [ [ -122.0376926, 36.965988 ], [ -122.0377485, 36.9660116 ] ], [ [ -122.0376926, 36.965988 ], [ -122.0375524, 36.9661204 ] ], [ [ -122.0378281, 36.9660453 ], [ -122.0377485, 36.9660116 ] ], [ [ -122.0378281, 36.9660453 ], [ -122.0378747, 36.9660006 ] ], [ [ -122.0378281, 36.9660453 ], [ -122.039380055010994, 36.967075553975818 ] ], [ [ -122.0378281, 36.9660453 ], [ -122.0375761, 36.9662888 ] ], [ [ -122.0378171, 36.965871 ], [ -122.0378559, 36.9659143 ] ], [ [ -122.0378171, 36.965871 ], [ -122.0377779, 36.9658748 ] ], [ [ -122.0378171, 36.965871 ], [ -122.038331, 36.9653681 ] ], [ [ -122.0394452, 36.9671188 ], [ -122.0378281, 36.9660453 ] ], [ [ -122.0394452, 36.9671188 ], [ -122.0393894, 36.9671534 ] ], [ [ -122.0394452, 36.9671188 ], [ -122.0394875, 36.9670903 ] ], [ [ -122.0393894, 36.9671534 ], [ -122.0394452, 36.9671188 ] ], [ [ -122.0393894, 36.9671534 ], [ -122.0393525, 36.9671754 ] ], [ [ -122.0386356, 36.9676215 ], [ -122.0385599, 36.9676605 ] ], [ [ -122.0386356, 36.9676215 ], [ -122.0387177, 36.9675705 ] ], [ [ -122.0386356, 36.9676215 ], [ -122.0385231, 36.9676099 ] ], [ [ -122.038556, 36.9653144 ], [ -122.0385577, 36.9653292 ] ], [ [ -122.038556, 36.9653144 ], [ -122.039065914014785, 36.964768142221736 ] ], [ [ -122.0419529, 36.9646357 ], [ -122.0419496, 36.9646093 ] ], [ [ -122.0419529, 36.9646357 ], [ -122.041920999042048, 36.964672753697862 ] ], [ [ -122.0411937, 36.9655226 ], [ -122.0413078, 36.9653868 ] ], [ [ -122.0411937, 36.9655226 ], [ -122.0409066, 36.9657857 ] ], [ [ -122.0409066, 36.9657857 ], [ -122.0411937, 36.9655226 ] ], [ [ -122.0409066, 36.9657857 ], [ -122.0403262, 36.9664685 ] ], [ [ -122.0403262, 36.9664685 ], [ -122.0409066, 36.9657857 ] ], [ [ -122.0403262, 36.9664685 ], [ -122.0402943, 36.9664752 ] ], [ [ -122.0412195, 36.9679728 ], [ -122.041214, 36.9679931 ] ], [ [ -122.0412195, 36.9679728 ], [ -122.0412006, 36.9679268 ] ], [ [ -122.0412006, 36.9679268 ], [ -122.0412195, 36.9679728 ] ], [ [ -122.0412006, 36.9679268 ], [ -122.0411593, 36.967898 ] ], [ [ -122.0411593, 36.967898 ], [ -122.0412006, 36.9679268 ] ], [ [ -122.0411593, 36.967898 ], [ -122.0410957, 36.9678828 ] ], [ [ -122.0410957, 36.9678828 ], [ -122.0411593, 36.967898 ] ], [ [ -122.0410957, 36.9678828 ], [ -122.0410416, 36.9678932 ] ], [ [ -122.0410416, 36.9678932 ], [ -122.0410957, 36.9678828 ] ], [ [ -122.0410416, 36.9678932 ], [ -122.040996, 36.9679035 ] ], [ [ -122.040996, 36.9679035 ], [ -122.0410416, 36.9678932 ] ], [ [ -122.040996, 36.9679035 ], [ -122.0397038, 36.9671884 ] ], [ [ -122.0397038, 36.9671884 ], [ -122.040996, 36.9679035 ] ], [ [ -122.0397038, 36.9671884 ], [ -122.0399735, 36.9670212 ] ], [ [ -122.0397038, 36.9671884 ], [ -122.0396306, 36.9672251 ] ], [ [ -122.0404105, 36.9667927 ], [ -122.0403594, 36.9667821 ] ], [ [ -122.0404105, 36.9667927 ], [ -122.0405436, 36.9668655 ] ], [ [ -122.0418771, 36.9692413 ], [ -122.041987911282547, 36.969130414951444 ] ], [ [ -122.0418771, 36.9692413 ], [ -122.0418549, 36.9692635 ] ], [ [ -122.0418771, 36.9692413 ], [ -122.0418931, 36.9692524 ] ], [ [ -122.0418549, 36.9692635 ], [ -122.0418771, 36.9692413 ] ], [ [ -122.0418549, 36.9692635 ], [ -122.041675728593631, 36.969171665454425 ] ], [ [ -122.0418549, 36.9692635 ], [ -122.0418039, 36.9693161 ] ], [ [ -122.0405403, 36.9685897 ], [ -122.0418549, 36.9692635 ] ], [ [ -122.0405403, 36.9685897 ], [ -122.039076787924046, 36.967787339404872 ] ], [ [ -122.038881, 36.96768 ], [ -122.0405403, 36.9685897 ] ], [ [ -122.038881, 36.96768 ], [ -122.0388853, 36.9676621 ] ], [ [ -122.038881, 36.96768 ], [ -122.038823, 36.967715 ] ], [ [ -122.0388853, 36.9676621 ], [ -122.038881, 36.96768 ] ], [ [ -122.0388853, 36.9676621 ], [ -122.0389735, 36.9676097 ] ], [ [ -122.0389735, 36.9676097 ], [ -122.0388853, 36.9676621 ] ], [ [ -122.0389735, 36.9676097 ], [ -122.0391809, 36.9674825 ] ], [ [ -122.0389735, 36.9676097 ], [ -122.039005, 36.9676402 ] ], [ [ -122.0391809, 36.9674825 ], [ -122.0389735, 36.9676097 ] ], [ [ -122.0391809, 36.9674825 ], [ -122.0392079, 36.9674659 ] ], [ [ -122.0412546, 36.9680732 ], [ -122.0411939, 36.9680401 ] ], [ [ -122.0412546, 36.9680732 ], [ -122.0417302, 36.9683391 ] ], [ [ -122.0417302, 36.9683391 ], [ -122.0412546, 36.9680732 ] ], [ [ -122.0417302, 36.9683391 ], [ -122.041807, 36.9683801 ] ], [ [ -122.041807, 36.9683801 ], [ -122.0417302, 36.9683391 ] ], [ [ -122.041807, 36.9683801 ], [ -122.0418412, 36.9684101 ] ], [ [ -122.0418412, 36.9684101 ], [ -122.041807, 36.9683801 ] ], [ [ -122.0418412, 36.9684101 ], [ -122.0418647, 36.9685885 ] ], [ [ -122.0412049, 36.9680264 ], [ -122.0411939, 36.9680401 ] ], [ [ -122.0412049, 36.9680264 ], [ -122.041214, 36.9679931 ] ], [ [ -122.0395551, 36.9672598 ], [ -122.0396306, 36.9672251 ] ], [ [ -122.0395551, 36.9672598 ], [ -122.0395228, 36.9672729 ] ], [ [ -122.0395551, 36.9672598 ], [ -122.0395827, 36.967268 ] ], [ [ -122.0384633, 36.9680516 ], [ -122.0384917, 36.9680107 ] ], [ [ -122.0384633, 36.9680516 ], [ -122.0384466, 36.9680756 ] ], [ [ -122.0384917, 36.9680107 ], [ -122.0384633, 36.9680516 ] ], [ [ -122.0384917, 36.9680107 ], [ -122.0385811, 36.9679043 ] ], [ [ -122.0385811, 36.9679043 ], [ -122.0384917, 36.9680107 ] ], [ [ -122.0385811, 36.9679043 ], [ -122.0386379, 36.9678459 ] ], [ [ -122.0386379, 36.9678459 ], [ -122.0385811, 36.9679043 ] ], [ [ -122.0386379, 36.9678459 ], [ -122.0387497, 36.9677518 ] ], [ [ -122.0387497, 36.9677518 ], [ -122.0386379, 36.9678459 ] ], [ [ -122.0387497, 36.9677518 ], [ -122.0387746, 36.9677504 ] ], [ [ -122.0387746, 36.9677504 ], [ -122.0387497, 36.9677518 ] ], [ [ -122.0387746, 36.9677504 ], [ -122.0389314, 36.9678379 ] ], [ [ -122.0387746, 36.9677504 ], [ -122.038823, 36.967715 ] ], [ [ -122.0389314, 36.9678379 ], [ -122.0387746, 36.9677504 ] ], [ [ -122.0389314, 36.9678379 ], [ -122.0389758, 36.9678627 ] ], [ [ -122.0417596, 36.9693612 ], [ -122.04179549316386, 36.96932465865261 ] ], [ [ -122.0417596, 36.9693612 ], [ -122.041710923620343, 36.969335917127843 ] ], [ [ -122.0417596, 36.9693612 ], [ -122.04172298522596, 36.969397277492035 ] ], [ [ -122.0398354, 36.9694753 ], [ -122.0397819, 36.9695413 ] ], [ [ -122.0398354, 36.9694753 ], [ -122.040077240620619, 36.969592033143215 ] ], [ [ -122.0398354, 36.9694753 ], [ -122.0396656, 36.9693933 ] ], [ [ -122.0397435, 36.9695899 ], [ -122.0397819, 36.9695413 ] ], [ [ -122.0397435, 36.9695899 ], [ -122.0396374, 36.9695407 ] ], [ [ -122.0397435, 36.9695899 ], [ -122.0397145, 36.9695986 ] ], [ [ -122.0397435, 36.9695899 ], [ -122.039853104528618, 36.96964262985211 ] ], [ [ -122.0396656, 36.9693933 ], [ -122.03962, 36.9694625 ] ], [ [ -122.0396656, 36.9693933 ], [ -122.0398354, 36.9694753 ] ], [ [ -122.0396656, 36.9693933 ], [ -122.039253952426662, 36.969194579889255 ] ], [ [ -122.0371929, 36.9674729 ], [ -122.0372014, 36.9674619 ] ], [ [ -122.0371929, 36.9674729 ], [ -122.0351389, 36.9672642 ] ], [ [ -122.0371929, 36.9674729 ], [ -122.0372602, 36.9674799 ] ], [ [ -122.0372014, 36.9674619 ], [ -122.0371929, 36.9674729 ] ], [ [ -122.0372014, 36.9674619 ], [ -122.0373966, 36.9662707 ] ], [ [ -122.0373966, 36.9662707 ], [ -122.037209018041452, 36.96741541121429 ] ], [ [ -122.0373966, 36.9662707 ], [ -122.0373347, 36.9662613 ] ], [ [ -122.0373966, 36.9662707 ], [ -122.0374426, 36.9662753 ] ], [ [ -122.0373966, 36.9662707 ], [ -122.0374093, 36.9662145 ] ], [ [ -122.0373347, 36.9662613 ], [ -122.0373966, 36.9662707 ] ], [ [ -122.0373347, 36.9662613 ], [ -122.03596303690459, 36.966175332073611 ] ], [ [ -122.0351389, 36.9672642 ], [ -122.035165083832823, 36.967006611998912 ] ], [ [ -122.0351389, 36.9672642 ], [ -122.035458430273479, 36.967296666391469 ] ], [ [ -122.0351389, 36.9672642 ], [ -122.035134, 36.9673212 ] ], [ [ -122.0351298, 36.9673557 ], [ -122.035134, 36.9673212 ] ], [ [ -122.0351298, 36.9673557 ], [ -122.035108253298816, 36.967572903271765 ] ], [ [ -122.0351298, 36.9673557 ], [ -122.035399152240799, 36.967383324606438 ] ], [ [ -122.0374233, 36.9661519 ], [ -122.035920181833532, 36.966053282280654 ] ], [ [ -122.0374233, 36.9661519 ], [ -122.0374884, 36.9661443 ] ], [ [ -122.0374233, 36.9661519 ], [ -122.0374093, 36.9662145 ] ], [ [ -122.0374884, 36.9661443 ], [ -122.0374233, 36.9661519 ] ], [ [ -122.0374884, 36.9661443 ], [ -122.0375524, 36.9661204 ] ], [ [ -122.0375524, 36.9661204 ], [ -122.0374884, 36.9661443 ] ], [ [ -122.0375524, 36.9661204 ], [ -122.0376926, 36.965988 ] ], [ [ -122.0375761, 36.9662888 ], [ -122.0374426, 36.9662753 ] ], [ [ -122.0375761, 36.9662888 ], [ -122.0378281, 36.9660453 ] ], [ [ -122.0373077, 36.9674848 ], [ -122.0372602, 36.9674799 ] ], [ [ -122.0373077, 36.9674848 ], [ -122.0383493, 36.967592 ] ], [ [ -122.0373077, 36.9674848 ], [ -122.0373731, 36.9670674 ] ], [ [ -122.0397145, 36.9695986 ], [ -122.0397435, 36.9695899 ] ], [ [ -122.0397145, 36.9695986 ], [ -122.039659868630608, 36.969662753097211 ] ], [ [ -122.0374676, 36.9696578 ], [ -122.0375903, 36.9697173 ] ], [ [ -122.0374676, 36.9696578 ], [ -122.0374273, 36.9696449 ] ], [ [ -122.0374273, 36.9696449 ], [ -122.0374676, 36.9696578 ] ], [ [ -122.0374273, 36.9696449 ], [ -122.0374094, 36.9696465 ] ], [ [ -122.0373933, 36.9696579 ], [ -122.0374094, 36.9696465 ] ], [ [ -122.0373933, 36.9696579 ], [ -122.0373741, 36.969681 ] ], [ [ -122.0373741, 36.969681 ], [ -122.0373933, 36.9696579 ] ], [ [ -122.0373741, 36.969681 ], [ -122.0372576, 36.9698587 ] ], [ [ -122.041514, 36.9654101 ], [ -122.0415283, 36.9654041 ] ], [ [ -122.041514, 36.9654101 ], [ -122.0413403, 36.9656006 ] ], [ [ -122.0408042, 36.9662265 ], [ -122.0408709, 36.9661486 ] ], [ [ -122.0408042, 36.9662265 ], [ -122.0405969, 36.9664717 ] ], [ [ -122.0404908, 36.9665972 ], [ -122.0405969, 36.9664717 ] ], [ [ -122.0404908, 36.9665972 ], [ -122.0404815, 36.9666118 ] ], [ [ -122.0404815, 36.9666118 ], [ -122.0404908, 36.9665972 ] ], [ [ -122.0404815, 36.9666118 ], [ -122.0404775, 36.9666293 ] ], [ [ -122.0404852, 36.9666459 ], [ -122.0404775, 36.9666293 ] ], [ [ -122.0404852, 36.9666459 ], [ -122.0404982, 36.9666624 ] ], [ [ -122.0404982, 36.9666624 ], [ -122.0404852, 36.9666459 ] ], [ [ -122.0404982, 36.9666624 ], [ -122.040771, 36.9668101 ] ], [ [ -122.040771, 36.9668101 ], [ -122.0404982, 36.9666624 ] ], [ [ -122.040771, 36.9668101 ], [ -122.040802, 36.9668269 ] ], [ [ -122.0381707, 36.9676675 ], [ -122.0378609, 36.9676358 ] ], [ [ -122.0381707, 36.9676675 ], [ -122.0382128, 36.9676854 ] ], [ [ -122.0382128, 36.9676854 ], [ -122.0381707, 36.9676675 ] ], [ [ -122.0382128, 36.9676854 ], [ -122.0382713, 36.9676931 ] ], [ [ -122.0382713, 36.9676931 ], [ -122.0382128, 36.9676854 ] ], [ [ -122.0382713, 36.9676931 ], [ -122.03828, 36.9676939 ] ], [ [ -122.0419543, 36.9649083 ], [ -122.0420299, 36.9648224 ] ], [ [ -122.0419543, 36.9649083 ], [ -122.041897798565728, 36.965016091169623 ] ], [ [ -122.041886, 36.9650386 ], [ -122.0419543, 36.9649083 ] ], [ [ -122.041886, 36.9650386 ], [ -122.0417711, 36.9651689 ] ], [ [ -122.0417711, 36.9651689 ], [ -122.041886, 36.9650386 ] ], [ [ -122.0417711, 36.9651689 ], [ -122.0416449, 36.9652627 ] ], [ [ -122.0416449, 36.9652627 ], [ -122.0417711, 36.9651689 ] ], [ [ -122.0416449, 36.9652627 ], [ -122.0416243, 36.9652929 ] ], [ [ -122.0416243, 36.9652929 ], [ -122.0416449, 36.9652627 ] ], [ [ -122.0416243, 36.9652929 ], [ -122.041625, 36.9653114 ] ], [ [ -122.0418647, 36.9685885 ], [ -122.0418412, 36.9684101 ] ], [ [ -122.041992, 36.9693222 ], [ -122.042011736760358, 36.969333401945072 ] ], [ [ -122.041992, 36.9693222 ], [ -122.041974486996466, 36.969308827815091 ] ], [ [ -122.0418931, 36.9692524 ], [ -122.0419459, 36.969287 ] ], [ [ -122.0418931, 36.9692524 ], [ -122.0418771, 36.9692413 ] ], [ [ -122.0391552, 36.9685042 ], [ -122.0388564, 36.9683482 ] ], [ [ -122.0388564, 36.9683482 ], [ -122.0391552, 36.9685042 ] ], [ [ -122.0388564, 36.9683482 ], [ -122.0388533, 36.9683076 ] ], [ [ -122.0388533, 36.9683076 ], [ -122.0388564, 36.9683482 ] ], [ [ -122.0388533, 36.9683076 ], [ -122.0388401, 36.9682825 ] ], [ [ -122.0388401, 36.9682825 ], [ -122.0388533, 36.9683076 ] ], [ [ -122.0388401, 36.9682825 ], [ -122.0387242, 36.9682151 ] ], [ [ -122.0387242, 36.9682151 ], [ -122.0388401, 36.9682825 ] ], [ [ -122.0387242, 36.9682151 ], [ -122.038459, 36.9680819 ] ], [ [ -122.038459, 36.9680819 ], [ -122.0387242, 36.9682151 ] ], [ [ -122.038459, 36.9680819 ], [ -122.0384466, 36.9680756 ] ], [ [ -122.0384466, 36.9680756 ], [ -122.038459, 36.9680819 ] ], [ [ -122.0384466, 36.9680756 ], [ -122.0383605, 36.9680315 ] ], [ [ -122.0384466, 36.9680756 ], [ -122.0384263, 36.9681048 ] ], [ [ -122.0384466, 36.9680756 ], [ -122.0384633, 36.9680516 ] ], [ [ -122.0390826, 36.9679223 ], [ -122.0397463, 36.9682881 ] ], [ [ -122.0390826, 36.9679223 ], [ -122.0390036, 36.9678782 ] ], [ [ -122.0397463, 36.9682881 ], [ -122.0390826, 36.9679223 ] ], [ [ -122.0397463, 36.9682881 ], [ -122.0404096, 36.96866 ] ], [ [ -122.0404096, 36.96866 ], [ -122.0397463, 36.9682881 ] ], [ [ -122.0404096, 36.96866 ], [ -122.0417596, 36.9693612 ] ], [ [ -122.0380894, 36.9686324 ], [ -122.0396656, 36.9693933 ] ], [ [ -122.0380894, 36.9686324 ], [ -122.0380778, 36.9686169 ] ], [ [ -122.0380816, 36.9686008 ], [ -122.0380778, 36.9686169 ] ], [ [ -122.0380816, 36.9686008 ], [ -122.0384263, 36.9681048 ] ], [ [ -122.0384263, 36.9681048 ], [ -122.0380816, 36.9686008 ] ], [ [ -122.0384263, 36.9681048 ], [ -122.0384466, 36.9680756 ] ], [ [ -122.0390036, 36.9678782 ], [ -122.0390826, 36.9679223 ] ], [ [ -122.0390036, 36.9678782 ], [ -122.0389758, 36.9678627 ] ], [ [ -122.0389758, 36.9678627 ], [ -122.0389314, 36.9678379 ] ], [ [ -122.0389758, 36.9678627 ], [ -122.0390036, 36.9678782 ] ], [ [ -122.0389758, 36.9678627 ], [ -122.0390154, 36.9678191 ] ], [ [ -122.0389758, 36.9678627 ], [ -122.0388998, 36.9679467 ] ], [ [ -122.0388998, 36.9679467 ], [ -122.0389758, 36.9678627 ] ], [ [ -122.039005, 36.9676402 ], [ -122.0389735, 36.9676097 ] ], [ [ -122.039005, 36.9676402 ], [ -122.0390285, 36.9676536 ] ], [ [ -122.0390285, 36.9676536 ], [ -122.039005, 36.9676402 ] ], [ [ -122.0390285, 36.9676536 ], [ -122.0390428, 36.9676559 ] ], [ [ -122.0390428, 36.9676559 ], [ -122.0390285, 36.9676536 ] ], [ [ -122.0390428, 36.9676559 ], [ -122.0390647, 36.9676595 ] ], [ [ -122.0390428, 36.9676559 ], [ -122.0390325, 36.9676675 ] ], [ [ -122.0390647, 36.9676595 ], [ -122.0390428, 36.9676559 ] ], [ [ -122.0390647, 36.9676595 ], [ -122.0390889, 36.967658 ] ], [ [ -122.0390889, 36.967658 ], [ -122.0390647, 36.9676595 ] ], [ [ -122.0390325, 36.9676675 ], [ -122.0390428, 36.9676559 ] ], [ [ -122.0390325, 36.9676675 ], [ -122.0390211, 36.9676852 ] ], [ [ -122.0390211, 36.9676852 ], [ -122.0390325, 36.9676675 ] ], [ [ -122.0390211, 36.9676852 ], [ -122.0390305, 36.967704 ] ], [ [ -122.0390305, 36.967704 ], [ -122.0390211, 36.9676852 ] ], [ [ -122.0398066, 36.9673916 ], [ -122.0410579, 36.9680821 ] ], [ [ -122.0398066, 36.9673916 ], [ -122.039781, 36.9673775 ] ], [ [ -122.0410579, 36.9680821 ], [ -122.0398066, 36.9673916 ] ], [ [ -122.0410579, 36.9680821 ], [ -122.0411284, 36.9680821 ] ], [ [ -122.0411284, 36.9680821 ], [ -122.0410579, 36.9680821 ] ], [ [ -122.0411284, 36.9680821 ], [ -122.0411834, 36.9680532 ] ], [ [ -122.0411834, 36.9680532 ], [ -122.0411284, 36.9680821 ] ], [ [ -122.0411834, 36.9680532 ], [ -122.0411939, 36.9680401 ] ], [ [ -122.0397378, 36.9673537 ], [ -122.039781, 36.9673775 ] ], [ [ -122.0397378, 36.9673537 ], [ -122.0395827, 36.967268 ] ], [ [ -122.039781, 36.9673775 ], [ -122.0397378, 36.9673537 ] ], [ [ -122.039781, 36.9673775 ], [ -122.0398066, 36.9673916 ] ], [ [ -122.039781, 36.9673775 ], [ -122.0398176, 36.9673271 ] ], [ [ -122.039781, 36.9673775 ], [ -122.0397436, 36.9674289 ] ], [ [ -122.0397436, 36.9674289 ], [ -122.039781, 36.9673775 ] ], [ [ -122.0397436, 36.9674289 ], [ -122.0396769, 36.9675127 ] ], [ [ -122.0396769, 36.9675127 ], [ -122.0397436, 36.9674289 ] ], [ [ -122.0393523, 36.9674479 ], [ -122.0393106, 36.967403 ] ], [ [ -122.0393106, 36.967403 ], [ -122.0393523, 36.9674479 ] ], [ [ -122.0393106, 36.967403 ], [ -122.0392254, 36.9674552 ] ], [ [ -122.0393106, 36.967403 ], [ -122.0395228, 36.9672729 ] ], [ [ -122.0392254, 36.9674552 ], [ -122.0393106, 36.967403 ] ], [ [ -122.0392254, 36.9674552 ], [ -122.0392079, 36.9674659 ] ], [ [ -122.0395228, 36.9672729 ], [ -122.0393106, 36.967403 ] ], [ [ -122.0395228, 36.9672729 ], [ -122.0395551, 36.9672598 ] ], [ [ -122.0395827, 36.967268 ], [ -122.0395551, 36.9672598 ] ], [ [ -122.0395827, 36.967268 ], [ -122.0397378, 36.9673537 ] ], [ [ -122.0392079, 36.9674659 ], [ -122.0391809, 36.9674825 ] ], [ [ -122.0392079, 36.9674659 ], [ -122.0392254, 36.9674552 ] ], [ [ -122.0392079, 36.9674659 ], [ -122.0391383, 36.9674049 ] ], [ [ -122.0392079, 36.9674659 ], [ -122.0392315, 36.9674821 ] ], [ [ -122.0392315, 36.9674821 ], [ -122.0392079, 36.9674659 ] ], [ [ -122.0392315, 36.9674821 ], [ -122.0393709, 36.967571 ] ], [ [ -122.0393709, 36.967571 ], [ -122.0392315, 36.9674821 ] ], [ [ -122.0393709, 36.967571 ], [ -122.0393428, 36.9676439 ] ], [ [ -122.0393428, 36.9676439 ], [ -122.0393709, 36.967571 ] ], [ [ -122.0391145, 36.967324 ], [ -122.0390784, 36.9673463 ] ], [ [ -122.0391145, 36.967324 ], [ -122.039145503473506, 36.967304763098127 ] ], [ [ -122.039029, 36.9673775 ], [ -122.0390784, 36.9673463 ] ], [ [ -122.039029, 36.9673775 ], [ -122.0388387, 36.9674974 ] ], [ [ -122.0373731, 36.9670674 ], [ -122.0373077, 36.9674848 ] ], [ [ -122.0393079, 36.967204 ], [ -122.0393525, 36.9671754 ] ], [ [ -122.0393079, 36.967204 ], [ -122.039145503473506, 36.967304763098127 ] ], [ [ -122.0408229, 36.9668382 ], [ -122.040875, 36.9668664 ] ], [ [ -122.0408229, 36.9668382 ], [ -122.040802, 36.9668269 ] ], [ [ -122.040875, 36.9668664 ], [ -122.0408229, 36.9668382 ] ], [ [ -122.040875, 36.9668664 ], [ -122.0412478, 36.9670743 ] ], [ [ -122.0412478, 36.9670743 ], [ -122.040875, 36.9668664 ] ], [ [ -122.0412478, 36.9670743 ], [ -122.0412647, 36.9670655 ] ], [ [ -122.0412478, 36.9670743 ], [ -122.0412963, 36.9670944 ] ], [ [ -122.0412647, 36.9670655 ], [ -122.0412478, 36.9670743 ] ], [ [ -122.0412647, 36.9670655 ], [ -122.0415441, 36.9667363 ] ], [ [ -122.0415441, 36.9667363 ], [ -122.0412647, 36.9670655 ] ], [ [ -122.0415441, 36.9667363 ], [ -122.0415749, 36.9667001 ] ], [ [ -122.040802, 36.9668269 ], [ -122.040771, 36.9668101 ] ], [ [ -122.040802, 36.9668269 ], [ -122.0408229, 36.9668382 ] ], [ [ -122.040802, 36.9668269 ], [ -122.0408493, 36.9667679 ] ], [ [ -122.040802, 36.9668269 ], [ -122.0407544, 36.9668863 ] ], [ [ -122.0415749, 36.9667001 ], [ -122.0415441, 36.9667363 ] ], [ [ -122.0415749, 36.9667001 ], [ -122.0415973, 36.9666737 ] ], [ [ -122.0415749, 36.9667001 ], [ -122.0416157, 36.9667248 ] ], [ [ -122.0415749, 36.9667001 ], [ -122.0413849, 36.9665852 ] ], [ [ -122.0415973, 36.9666737 ], [ -122.0415749, 36.9667001 ] ], [ [ -122.0415973, 36.9666737 ], [ -122.0418843, 36.9663356 ] ], [ [ -122.0418843, 36.9663356 ], [ -122.0415973, 36.9666737 ] ], [ [ -122.0418843, 36.9663356 ], [ -122.0419024, 36.9663142 ] ], [ [ -122.0413849, 36.9665852 ], [ -122.0415749, 36.9667001 ] ], [ [ -122.0413849, 36.9665852 ], [ -122.0411679, 36.9664687 ] ], [ [ -122.0411679, 36.9664687 ], [ -122.0413849, 36.9665852 ] ], [ [ -122.0411679, 36.9664687 ], [ -122.0411374, 36.9664638 ] ], [ [ -122.0411374, 36.9664638 ], [ -122.0411679, 36.9664687 ] ], [ [ -122.0411374, 36.9664638 ], [ -122.0410988, 36.9664732 ] ], [ [ -122.0410988, 36.9664732 ], [ -122.0411374, 36.9664638 ] ], [ [ -122.0410988, 36.9664732 ], [ -122.0410587, 36.9665117 ] ], [ [ -122.0410587, 36.9665117 ], [ -122.0410988, 36.9664732 ] ], [ [ -122.0410587, 36.9665117 ], [ -122.0409313, 36.9666676 ] ], [ [ -122.0408493, 36.9667679 ], [ -122.0409313, 36.9666676 ] ], [ [ -122.0408493, 36.9667679 ], [ -122.040802, 36.9668269 ] ], [ [ -122.0419024, 36.9663142 ], [ -122.0418843, 36.9663356 ] ], [ [ -122.0419024, 36.9663142 ], [ -122.0419122, 36.9663026 ] ], [ [ -122.0419024, 36.9663142 ], [ -122.0419484, 36.96634 ] ], [ [ -122.0419024, 36.9663142 ], [ -122.0415895, 36.9661395 ] ], [ [ -122.0419122, 36.9663026 ], [ -122.0419024, 36.9663142 ] ], [ [ -122.0419122, 36.9663026 ], [ -122.042286640671108, 36.965861558839791 ] ], [ [ -122.0415895, 36.9661395 ], [ -122.041836849711828, 36.966277601612838 ] ], [ [ -122.0426775, 36.9678537 ], [ -122.042760790553828, 36.96789858419406 ] ], [ [ -122.0426775, 36.9678537 ], [ -122.042595389604514, 36.967807437087416 ] ], [ [ -122.0424812, 36.9677431 ], [ -122.0426775, 36.9678537 ] ], [ [ -122.0424812, 36.9677431 ], [ -122.0423028, 36.967646 ] ], [ [ -122.0423028, 36.967646 ], [ -122.0424812, 36.9677431 ] ], [ [ -122.0423028, 36.967646 ], [ -122.0423186, 36.9676234 ] ], [ [ -122.0423028, 36.967646 ], [ -122.0422248, 36.9676051 ] ], [ [ -122.0423186, 36.9676234 ], [ -122.0423028, 36.967646 ] ], [ [ -122.0423186, 36.9676234 ], [ -122.0424331, 36.9674883 ] ], [ [ -122.0424331, 36.9674883 ], [ -122.0423186, 36.9676234 ] ], [ [ -122.0424331, 36.9674883 ], [ -122.0425708, 36.9673253 ] ], [ [ -122.0425708, 36.9673253 ], [ -122.042529031168698, 36.967374743133639 ] ], [ [ -122.0425708, 36.9673253 ], [ -122.042612986346896, 36.967276085694039 ] ], [ [ -122.0425887, 36.9671273 ], [ -122.042594526888436, 36.967120773884943 ] ], [ [ -122.0425887, 36.9671273 ], [ -122.042580429971707, 36.967131818259361 ] ], [ [ -122.0425682, 36.9671385 ], [ -122.0425887, 36.9671273 ] ], [ [ -122.0425682, 36.9671385 ], [ -122.0425487, 36.9671493 ] ], [ [ -122.0425487, 36.9671493 ], [ -122.0425682, 36.9671385 ] ], [ [ -122.0425487, 36.9671493 ], [ -122.0425277, 36.9671657 ] ], [ [ -122.0425277, 36.9671657 ], [ -122.0425487, 36.9671493 ] ], [ [ -122.0425277, 36.9671657 ], [ -122.0424987, 36.967202 ] ], [ [ -122.0424987, 36.967202 ], [ -122.0425277, 36.9671657 ] ], [ [ -122.0424987, 36.967202 ], [ -122.0424717, 36.9672308 ] ], [ [ -122.0424717, 36.9672308 ], [ -122.0424987, 36.967202 ] ], [ [ -122.0424717, 36.9672308 ], [ -122.0424632, 36.9672492 ] ], [ [ -122.0424632, 36.9672492 ], [ -122.0424717, 36.9672308 ] ], [ [ -122.0424632, 36.9672492 ], [ -122.0424276, 36.9672892 ] ], [ [ -122.0424276, 36.9672892 ], [ -122.0424632, 36.9672492 ] ], [ [ -122.0424276, 36.9672892 ], [ -122.0424016, 36.9673148 ] ], [ [ -122.0424016, 36.9673148 ], [ -122.0424276, 36.9672892 ] ], [ [ -122.0424016, 36.9673148 ], [ -122.042221269689918, 36.967520398525863 ] ], [ [ -122.0421718, 36.9675768 ], [ -122.0424016, 36.9673148 ] ], [ [ -122.0421718, 36.9675768 ], [ -122.0420456, 36.9675075 ] ], [ [ -122.0421718, 36.9675768 ], [ -122.0422248, 36.9676051 ] ], [ [ -122.0420456, 36.9675075 ], [ -122.0421718, 36.9675768 ] ], [ [ -122.0420456, 36.9675075 ], [ -122.0418853, 36.9674212 ] ], [ [ -122.0418853, 36.9674212 ], [ -122.0420456, 36.9675075 ] ], [ [ -122.0418853, 36.9674212 ], [ -122.0415767, 36.9672492 ] ], [ [ -122.0415767, 36.9672492 ], [ -122.0418853, 36.9674212 ] ], [ [ -122.0415767, 36.9672492 ], [ -122.0413775, 36.9671394 ] ], [ [ -122.0413775, 36.9671394 ], [ -122.0415767, 36.9672492 ] ], [ [ -122.0413775, 36.9671394 ], [ -122.0415179, 36.9669726 ] ], [ [ -122.0413775, 36.9671394 ], [ -122.0412963, 36.9670944 ] ], [ [ -122.0415179, 36.9669726 ], [ -122.0413775, 36.9671394 ] ], [ [ -122.0415179, 36.9669726 ], [ -122.0416964, 36.9667779 ] ], [ [ -122.0416964, 36.9667779 ], [ -122.0415179, 36.9669726 ] ], [ [ -122.0416964, 36.9667779 ], [ -122.0418663, 36.9665718 ] ], [ [ -122.0418663, 36.9665718 ], [ -122.0416964, 36.9667779 ] ], [ [ -122.0418663, 36.9665718 ], [ -122.0422228, 36.9661523 ] ], [ [ -122.0422228, 36.9661523 ], [ -122.042119613608833, 36.966273721293398 ] ], [ [ -122.0422228, 36.9661523 ], [ -122.042327721388375, 36.966031840114468 ] ], [ [ -122.0416797, 36.9648203 ], [ -122.041558648650408, 36.964753075520051 ] ], [ [ -122.0416797, 36.9648203 ], [ -122.04176689320893, 36.964725120047355 ] ], [ [ -122.0416797, 36.9648203 ], [ -122.041801654070639, 36.964886465687066 ] ], [ [ -122.039145503473506, 36.967304763098127 ], [ -122.0393079, 36.967204 ] ], [ [ -122.039145503473506, 36.967304763098127 ], [ -122.0391145, 36.967324 ] ] ] } }
]
}
