{
"type": "FeatureCollection",
"name": "20_meder_sb",
"crs": { "type": "name", "properties": { "name": "urn:ogc:def:crs:OGC:1.3:CRS84" } },
"features": [
{ "type": "Feature", "properties": { "type": "lines", "start": "-122.05841, 36.974789" }, "geometry": { "type": "MultiLineString", "coordinates": [ [ [ -122.0544738, 36.97506 ], [ -122.05406391347087, 36.975095688625665 ] ], [ [ -122.0544738, 36.97506 ], [ -122.054882936621411, 36.975019148306586 ] ], [ [ -122.0553321, 36.9749743 ], [ -122.0544738, 36.97506 ] ], [ [ -122.0553321, 36.9749743 ], [ -122.0555681, 36.974955 ] ], [ [ -122.0553321, 36.9749743 ], [ -122.0552977, 36.9749124 ] ], [ [ -122.0555681, 36.974955 ], [ -122.0553321, 36.9749743 ] ], [ [ -122.0555681, 36.974955 ], [ -122.0556593, 36.9749443 ] ], [ [ -122.0555681, 36.974955 ], [ -122.0555536, 36.9748882 ] ], [ [ -122.0555681, 36.974955 ], [ -122.0555711, 36.9750252 ] ], [ [ -122.0556593, 36.9749443 ], [ -122.0555681, 36.974955 ] ], [ [ -122.0556593, 36.9749443 ], [ -122.0557572, 36.9749358 ] ], [ [ -122.0556593, 36.9749443 ], [ -122.0556647, 36.975017 ] ], [ [ -122.0557572, 36.9749358 ], [ -122.0556593, 36.9749443 ] ], [ [ -122.0557572, 36.9749358 ], [ -122.0559905, 36.9749068 ] ], [ [ -122.0557572, 36.9749358 ], [ -122.0557659, 36.9750076 ] ], [ [ -122.0557572, 36.9749358 ], [ -122.0557468, 36.9748699 ] ], [ [ -122.0559905, 36.9749068 ], [ -122.0557572, 36.9749358 ] ], [ [ -122.0559905, 36.9749068 ], [ -122.0559402, 36.9748498 ] ], [ [ -122.0559905, 36.9749068 ], [ -122.0562199, 36.9748854 ] ], [ [ -122.0557112, 36.9755338 ], [ -122.0556117, 36.9755417 ] ], [ [ -122.0557112, 36.9755338 ], [ -122.0557198, 36.9756148 ] ], [ [ -122.0557112, 36.9755338 ], [ -122.0557018, 36.9753747 ] ], [ [ -122.0556117, 36.9755417 ], [ -122.0557112, 36.9755338 ] ], [ [ -122.0556117, 36.9755417 ], [ -122.0550528, 36.9755949 ] ], [ [ -122.0556117, 36.9755417 ], [ -122.0556139, 36.9754894 ] ], [ [ -122.0556117, 36.9755417 ], [ -122.055627, 36.9755901 ] ], [ [ -122.0550528, 36.9755949 ], [ -122.055270045323596, 36.975574221074943 ] ], [ [ -122.0550528, 36.9755949 ], [ -122.054835688149353, 36.97561646337163 ] ], [ [ -122.0550528, 36.9755949 ], [ -122.0550609, 36.9756475 ] ], [ [ -122.0619973, 36.9743363 ], [ -122.061997396239889, 36.974927694173132 ] ], [ [ -122.0619973, 36.9743363 ], [ -122.061444, 36.9743709 ] ], [ [ -122.0619973, 36.9743363 ], [ -122.0621567, 36.9743047 ] ], [ [ -122.0583902, 36.9759506 ], [ -122.0584548, 36.975952 ] ], [ [ -122.0583902, 36.9759506 ], [ -122.0583916, 36.9756968 ] ], [ [ -122.0583902, 36.9759506 ], [ -122.0583854, 36.9763479 ] ], [ [ -122.0584548, 36.975952 ], [ -122.0583902, 36.9759506 ] ], [ [ -122.0584548, 36.975952 ], [ -122.0588034, 36.9759564 ] ], [ [ -122.0588034, 36.9759564 ], [ -122.0584548, 36.975952 ] ], [ [ -122.0588034, 36.9759564 ], [ -122.058979, 36.9759516 ] ], [ [ -122.058979, 36.9759516 ], [ -122.0588034, 36.9759564 ] ], [ [ -122.058979, 36.9759516 ], [ -122.0592613, 36.9759158 ] ], [ [ -122.0592613, 36.9759158 ], [ -122.058979, 36.9759516 ] ], [ [ -122.0592613, 36.9759158 ], [ -122.0593829, 36.9758974 ] ], [ [ -122.0593829, 36.9758974 ], [ -122.0592613, 36.9759158 ] ], [ [ -122.0593829, 36.9758974 ], [ -122.0594982, 36.9758989 ] ], [ [ -122.0594982, 36.9758989 ], [ -122.0593829, 36.9758974 ] ], [ [ -122.0594982, 36.9758989 ], [ -122.0596392, 36.9759243 ] ], [ [ -122.0596392, 36.9759243 ], [ -122.0594982, 36.9758989 ] ], [ [ -122.0596392, 36.9759243 ], [ -122.0597604, 36.9759304 ] ], [ [ -122.0597604, 36.9759304 ], [ -122.0596392, 36.9759243 ] ], [ [ -122.0597604, 36.9759304 ], [ -122.0598725, 36.9759196 ] ], [ [ -122.0598725, 36.9759196 ], [ -122.0597604, 36.9759304 ] ], [ [ -122.0583789, 36.9768144 ], [ -122.0584645, 36.9768182 ] ], [ [ -122.0583789, 36.9768144 ], [ -122.0583815, 36.9766751 ] ], [ [ -122.0583789, 36.9768144 ], [ -122.058378, 36.9768716 ] ], [ [ -122.0584645, 36.9768182 ], [ -122.0583789, 36.9768144 ] ], [ [ -122.0584645, 36.9768182 ], [ -122.0585949, 36.9768233 ] ], [ [ -122.0585949, 36.9768233 ], [ -122.0584645, 36.9768182 ] ], [ [ -122.0585949, 36.9768233 ], [ -122.058729, 36.9768264 ] ], [ [ -122.058729, 36.9768264 ], [ -122.0585949, 36.9768233 ] ], [ [ -122.058729, 36.9768264 ], [ -122.0588678, 36.976835 ] ], [ [ -122.0588678, 36.976835 ], [ -122.058729, 36.9768264 ] ], [ [ -122.0588678, 36.976835 ], [ -122.0589844, 36.976851 ] ], [ [ -122.0589844, 36.976851 ], [ -122.0588678, 36.976835 ] ], [ [ -122.0589844, 36.976851 ], [ -122.0590379, 36.9768583 ] ], [ [ -122.0589844, 36.976851 ], [ -122.0589789, 36.9768937 ] ], [ [ -122.0590379, 36.9768583 ], [ -122.0589844, 36.976851 ] ], [ [ -122.0590379, 36.9768583 ], [ -122.0591351, 36.9768716 ] ], [ [ -122.0590379, 36.9768583 ], [ -122.0590373, 36.9766294 ] ], [ [ -122.0591351, 36.9768716 ], [ -122.0590379, 36.9768583 ] ], [ [ -122.0591351, 36.9768716 ], [ -122.0592789, 36.9768892 ] ], [ [ -122.0592789, 36.9768892 ], [ -122.0591351, 36.9768716 ] ], [ [ -122.0592789, 36.9768892 ], [ -122.0594226, 36.9768921 ] ], [ [ -122.0594226, 36.9768921 ], [ -122.0592789, 36.9768892 ] ], [ [ -122.0594226, 36.9768921 ], [ -122.0596887, 36.9768936 ] ], [ [ -122.0596887, 36.9768936 ], [ -122.0594226, 36.9768921 ] ], [ [ -122.0596887, 36.9768936 ], [ -122.0597379, 36.9768939 ] ], [ [ -122.0596887, 36.9768936 ], [ -122.0596873, 36.9769371 ] ], [ [ -122.0597379, 36.9768939 ], [ -122.0596887, 36.9768936 ] ], [ [ -122.0597379, 36.9768939 ], [ -122.0597533, 36.976894 ] ], [ [ -122.0597379, 36.9768939 ], [ -122.0597348, 36.9767074 ] ], [ [ -122.0597533, 36.976894 ], [ -122.0597379, 36.9768939 ] ], [ [ -122.0597533, 36.976894 ], [ -122.0598495, 36.9768945 ] ], [ [ -122.0598495, 36.9768945 ], [ -122.0597533, 36.976894 ] ], [ [ -122.0598495, 36.9768945 ], [ -122.0599354, 36.9768995 ] ], [ [ -122.0599354, 36.9768995 ], [ -122.0598495, 36.9768945 ] ], [ [ -122.0599354, 36.9768995 ], [ -122.0600142, 36.9769254 ] ], [ [ -122.0600142, 36.9769254 ], [ -122.0599354, 36.9768995 ] ], [ [ -122.0600142, 36.9769254 ], [ -122.0600749, 36.9769659 ] ], [ [ -122.0600749, 36.9769659 ], [ -122.0600142, 36.9769254 ] ], [ [ -122.0600749, 36.9769659 ], [ -122.0601181, 36.9770286 ] ], [ [ -122.0600749, 36.9769659 ], [ -122.0601343, 36.9769014 ] ], [ [ -122.0601181, 36.9770286 ], [ -122.0600749, 36.9769659 ] ], [ [ -122.0601181, 36.9770286 ], [ -122.0601275, 36.9770894 ] ], [ [ -122.0601275, 36.9770894 ], [ -122.060118267899412, 36.977029685987709 ] ], [ [ -122.0601275, 36.9770894 ], [ -122.060119168598831, 36.977149199215894 ] ], [ [ -122.0585809, 36.9781711 ], [ -122.058627695592662, 36.978171654487163 ] ], [ [ -122.0585809, 36.9781711 ], [ -122.058559, 36.9781708 ] ], [ [ -122.0585809, 36.9781711 ], [ -122.058577639412633, 36.978208556991461 ] ], [ [ -122.058559, 36.9781708 ], [ -122.0585809, 36.9781711 ] ], [ [ -122.058559, 36.9781708 ], [ -122.058490359924377, 36.978168424910876 ] ], [ [ -122.058559, 36.9781708 ], [ -122.0585592, 36.9781272 ] ], [ [ -122.0584434, 36.9781668 ], [ -122.058559, 36.9781708 ] ], [ [ -122.0584434, 36.9781668 ], [ -122.0584254, 36.9781661 ] ], [ [ -122.0584254, 36.9781661 ], [ -122.0584434, 36.9781668 ] ], [ [ -122.0584254, 36.9781661 ], [ -122.0583425, 36.9781639 ] ], [ [ -122.0584254, 36.9781661 ], [ -122.0584307, 36.9782523 ] ], [ [ -122.0584254, 36.9781661 ], [ -122.0584239, 36.9780928 ] ], [ [ -122.0583425, 36.9781639 ], [ -122.0584254, 36.9781661 ] ], [ [ -122.0583425, 36.9781639 ], [ -122.058347360195029, 36.977934974361887 ] ], [ [ -122.0583425, 36.9781639 ], [ -122.058335726016963, 36.97839279430795 ] ], [ [ -122.0583978, 36.9746861 ], [ -122.0583965, 36.9747812 ] ], [ [ -122.0583978, 36.9746861 ], [ -122.0583984, 36.9746182 ] ], [ [ -122.0583978, 36.9746861 ], [ -122.0581967, 36.9747065 ] ], [ [ -122.0583978, 36.9746861 ], [ -122.0584815, 36.9746764 ] ], [ [ -122.0583965, 36.9747812 ], [ -122.0583978, 36.9746861 ] ], [ [ -122.0583965, 36.9747812 ], [ -122.058396458644708, 36.97478892753098 ] ], [ [ -122.0583916, 36.9756968 ], [ -122.058396458644708, 36.97478892753098 ] ], [ [ -122.0583916, 36.9756968 ], [ -122.0583902, 36.9759506 ] ], [ [ -122.0583916, 36.9756968 ], [ -122.0580309, 36.9756996 ] ], [ [ -122.0583854, 36.9763479 ], [ -122.0583902, 36.9759506 ] ], [ [ -122.0583854, 36.9763479 ], [ -122.0583815, 36.9766751 ] ], [ [ -122.0583854, 36.9763479 ], [ -122.058048, 36.9763739 ] ], [ [ -122.0583815, 36.9766751 ], [ -122.0583854, 36.9763479 ] ], [ [ -122.0583815, 36.9766751 ], [ -122.0583789, 36.9768144 ] ], [ [ -122.0583815, 36.9766751 ], [ -122.0579068, 36.9767043 ] ], [ [ -122.058378, 36.9768716 ], [ -122.0583789, 36.9768144 ] ], [ [ -122.058378, 36.9768716 ], [ -122.0583611, 36.9772878 ] ], [ [ -122.058378, 36.9768716 ], [ -122.0578448, 36.9769081 ] ], [ [ -122.0583611, 36.9772878 ], [ -122.058378, 36.9768716 ] ], [ [ -122.0583611, 36.9772878 ], [ -122.0583425, 36.9781639 ] ], [ [ -122.0583611, 36.9772878 ], [ -122.0572687, 36.9772802 ] ], [ [ -122.0572687, 36.9772802 ], [ -122.057553752987062, 36.977282183158827 ] ], [ [ -122.0572687, 36.9772802 ], [ -122.0571379, 36.9773163 ] ], [ [ -122.0571379, 36.9773163 ], [ -122.0572687, 36.9772802 ] ], [ [ -122.0584549, 36.9728027 ], [ -122.0584496, 36.9731297 ] ], [ [ -122.0584549, 36.9728027 ], [ -122.0584606, 36.9726073 ] ], [ [ -122.0584549, 36.9728027 ], [ -122.0576874, 36.9728099 ] ], [ [ -122.0584496, 36.9731297 ], [ -122.0584549, 36.9728027 ] ], [ [ -122.0584496, 36.9731297 ], [ -122.058448, 36.9732261 ] ], [ [ -122.0584496, 36.9731297 ], [ -122.0582669, 36.9731297 ] ], [ [ -122.058448, 36.9732261 ], [ -122.0584496, 36.9731297 ] ], [ [ -122.058448, 36.9732261 ], [ -122.0584435, 36.9734515 ] ], [ [ -122.058448, 36.9732261 ], [ -122.057686, 36.9732347 ] ], [ [ -122.0584435, 36.9734515 ], [ -122.058448, 36.9732261 ] ], [ [ -122.0584435, 36.9734515 ], [ -122.058441, 36.9735781 ] ], [ [ -122.0584435, 36.9734515 ], [ -122.0586093, 36.9734664 ] ], [ [ -122.058441, 36.9735781 ], [ -122.0584435, 36.9734515 ] ], [ [ -122.058441, 36.9735781 ], [ -122.058416, 36.9739264 ] ], [ [ -122.058416, 36.9739264 ], [ -122.058441, 36.9735781 ] ], [ [ -122.058416, 36.9739264 ], [ -122.0584151, 36.9739893 ] ], [ [ -122.0584151, 36.9739893 ], [ -122.058416, 36.9739264 ] ], [ [ -122.0584151, 36.9739893 ], [ -122.0584148, 36.9740101 ] ], [ [ -122.0584151, 36.9739893 ], [ -122.0576443, 36.9739786 ] ], [ [ -122.0584148, 36.9740101 ], [ -122.0584151, 36.9739893 ] ], [ [ -122.0584148, 36.9740101 ], [ -122.0584046, 36.9743877 ] ], [ [ -122.0584046, 36.9743877 ], [ -122.0584148, 36.9740101 ] ], [ [ -122.0584046, 36.9743877 ], [ -122.0583984, 36.9746182 ] ], [ [ -122.0584046, 36.9743877 ], [ -122.0585579, 36.9743951 ] ], [ [ -122.0583984, 36.9746182 ], [ -122.0584046, 36.9743877 ] ], [ [ -122.0583984, 36.9746182 ], [ -122.0583978, 36.9746861 ] ], [ [ -122.0583984, 36.9746182 ], [ -122.0583265, 36.9746209 ] ], [ [ -122.0583984, 36.9746182 ], [ -122.0584787, 36.974616 ] ], [ [ -122.0584776, 36.9711958 ], [ -122.0584777044144, 36.971185530097763 ] ], [ [ -122.0584776, 36.9711958 ], [ -122.058477335869924, 36.971206068056908 ] ], [ [ -122.0584776, 36.9711958 ], [ -122.058464930033267, 36.971197259140979 ] ], [ [ -122.058476, 36.971258 ], [ -122.0584776, 36.9711958 ] ], [ [ -122.058476, 36.971258 ], [ -122.058475696360532, 36.971330483080109 ] ], [ [ -122.0584753, 36.9714251 ], [ -122.058476, 36.971258 ] ], [ [ -122.0584753, 36.9714251 ], [ -122.0584751, 36.9714743 ] ], [ [ -122.0584753, 36.9714251 ], [ -122.0583668, 36.9714195 ] ], [ [ -122.0584751, 36.9714743 ], [ -122.0584753, 36.9714251 ] ], [ [ -122.0584751, 36.9714743 ], [ -122.0584755, 36.9715077 ] ], [ [ -122.0584751, 36.9714743 ], [ -122.058115189805193, 36.971475588153879 ] ], [ [ -122.0584755, 36.9715077 ], [ -122.0584751, 36.9714743 ] ], [ [ -122.0584755, 36.9715077 ], [ -122.0584733, 36.9716469 ] ], [ [ -122.0584755, 36.9715077 ], [ -122.05807406886025, 36.971515287107955 ] ], [ [ -122.0584733, 36.9716469 ], [ -122.0584755, 36.9715077 ] ], [ [ -122.0584733, 36.9716469 ], [ -122.058467198982868, 36.972108271406192 ] ], [ [ -122.0584733, 36.9716469 ], [ -122.0584077, 36.971646 ] ], [ [ -122.0584606, 36.9726073 ], [ -122.0584733, 36.9716469 ] ], [ [ -122.0584606, 36.9726073 ], [ -122.0584549, 36.9728027 ] ], [ [ -122.0584606, 36.9726073 ], [ -122.0583203, 36.9726302 ] ], [ [ -122.0576874, 36.9728099 ], [ -122.0584549, 36.9728027 ] ], [ [ -122.0576874, 36.9728099 ], [ -122.057642, 36.9728103 ] ], [ [ -122.0576874, 36.9728099 ], [ -122.0576851, 36.9730195 ] ], [ [ -122.057642, 36.9728103 ], [ -122.0576874, 36.9728099 ] ], [ [ -122.057642, 36.9728103 ], [ -122.0575487, 36.9728205 ] ], [ [ -122.0575487, 36.9728205 ], [ -122.057642, 36.9728103 ] ], [ [ -122.0575487, 36.9728205 ], [ -122.0574921, 36.9728973 ] ], [ [ -122.0574921, 36.9728973 ], [ -122.0575487, 36.9728205 ] ], [ [ -122.0550176, 36.9742328 ], [ -122.055060283047411, 36.974279963588309 ] ], [ [ -122.0550176, 36.9742328 ], [ -122.055041732057603, 36.97417782431048 ] ], [ [ -122.0550176, 36.9742328 ], [ -122.054980335079179, 36.974282832567781 ] ], [ [ -122.0554389, 36.9735086 ], [ -122.055461388584618, 36.973489554001894 ] ], [ [ -122.0554389, 36.9735086 ], [ -122.05542618120505, 36.973532769935915 ] ], [ [ -122.0554088, 36.9735658 ], [ -122.0554389, 36.9735086 ] ], [ [ -122.0554088, 36.9735658 ], [ -122.0553919, 36.9736275 ] ], [ [ -122.0553919, 36.9736275 ], [ -122.0554088, 36.9735658 ] ], [ [ -122.0553919, 36.9736275 ], [ -122.05539895187438, 36.973778892138512 ] ], [ [ -122.0553998, 36.9737971 ], [ -122.0553919, 36.9736275 ] ], [ [ -122.0553998, 36.9737971 ], [ -122.0553967, 36.9739926 ] ], [ [ -122.0553967, 36.9739926 ], [ -122.0553998, 36.9737971 ] ], [ [ -122.0553967, 36.9739926 ], [ -122.0554721, 36.9741445 ] ], [ [ -122.0554721, 36.9741445 ], [ -122.0553967, 36.9739926 ] ], [ [ -122.0554721, 36.9741445 ], [ -122.0555778, 36.9742889 ] ], [ [ -122.0555778, 36.9742889 ], [ -122.0554721, 36.9741445 ] ], [ [ -122.0555778, 36.9742889 ], [ -122.0556379, 36.9743581 ] ], [ [ -122.0556379, 36.9743581 ], [ -122.0555778, 36.9742889 ] ], [ [ -122.0556379, 36.9743581 ], [ -122.0558352, 36.9745854 ] ], [ [ -122.0558352, 36.9745854 ], [ -122.0556379, 36.9743581 ] ], [ [ -122.0558352, 36.9745854 ], [ -122.0559317, 36.9747965 ] ], [ [ -122.0559317, 36.9747965 ], [ -122.0558352, 36.9745854 ] ], [ [ -122.0559317, 36.9747965 ], [ -122.0559402, 36.9748498 ] ], [ [ -122.0559402, 36.9748498 ], [ -122.0559317, 36.9747965 ] ], [ [ -122.0559402, 36.9748498 ], [ -122.0559905, 36.9749068 ] ], [ [ -122.0623802, 36.9740181 ], [ -122.062374099259316, 36.974018791941091 ] ], [ [ -122.0623802, 36.9740181 ], [ -122.062378522829633, 36.974013343113249 ] ], [ [ -122.0623802, 36.9740181 ], [ -122.062382552681228, 36.974022668975138 ] ], [ [ -122.0621395, 36.9740454 ], [ -122.0623802, 36.9740181 ] ], [ [ -122.0621395, 36.9740454 ], [ -122.0620597, 36.9740508 ] ], [ [ -122.0621395, 36.9740454 ], [ -122.062152746938921, 36.97424510530599 ] ], [ [ -122.0620597, 36.9740508 ], [ -122.0621395, 36.9740454 ] ], [ [ -122.0620597, 36.9740508 ], [ -122.0619839, 36.9740293 ] ], [ [ -122.0620597, 36.9740508 ], [ -122.0619928, 36.9741183 ] ], [ [ -122.0619839, 36.9740293 ], [ -122.0620597, 36.9740508 ] ], [ [ -122.0619839, 36.9740293 ], [ -122.0619697, 36.9739656 ] ], [ [ -122.0619839, 36.9740293 ], [ -122.0619274, 36.9740577 ] ], [ [ -122.0619697, 36.9739656 ], [ -122.061971129965443, 36.973972014704096 ] ], [ [ -122.0619697, 36.9739656 ], [ -122.061965998613147, 36.973959799558251 ] ], [ [ -122.0624009, 36.9740583 ], [ -122.062393281044123, 36.97404350376685 ] ], [ [ -122.0624009, 36.9740583 ], [ -122.062406505950264, 36.974073664456292 ] ], [ [ -122.0624306, 36.9741397 ], [ -122.0624009, 36.9740583 ] ], [ [ -122.0624306, 36.9741397 ], [ -122.062439, 36.974189 ] ], [ [ -122.062439, 36.974189 ], [ -122.0624306, 36.9741397 ] ], [ [ -122.062439, 36.974189 ], [ -122.0624326, 36.9742745 ] ], [ [ -122.062439, 36.974189 ], [ -122.0624778, 36.9741852 ] ], [ [ -122.062439, 36.974189 ], [ -122.0624097, 36.9741937 ] ], [ [ -122.0624326, 36.9742745 ], [ -122.062439, 36.974189 ] ], [ [ -122.0624326, 36.9742745 ], [ -122.0624307, 36.9743387 ] ], [ [ -122.0624326, 36.9742745 ], [ -122.0621567, 36.9743047 ] ], [ [ -122.0624326, 36.9742745 ], [ -122.062724932939048, 36.974246317116396 ] ], [ [ -122.0624307, 36.9743387 ], [ -122.0624326, 36.9742745 ] ], [ [ -122.0624307, 36.9743387 ], [ -122.0624617, 36.9743905 ] ], [ [ -122.0624617, 36.9743905 ], [ -122.0624307, 36.9743387 ] ], [ [ -122.0624617, 36.9743905 ], [ -122.0625287, 36.9744606 ] ], [ [ -122.0625287, 36.9744606 ], [ -122.062508814479742, 36.97443979440343 ] ], [ [ -122.0625287, 36.9744606 ], [ -122.062554877725972, 36.974476293611843 ] ], [ [ -122.0606906, 36.974439 ], [ -122.0606502, 36.9742393 ] ], [ [ -122.0606906, 36.974439 ], [ -122.0602549, 36.9744767 ] ], [ [ -122.0606906, 36.974439 ], [ -122.0612231, 36.9743915 ] ], [ [ -122.0606502, 36.9742393 ], [ -122.0606906, 36.974439 ] ], [ [ -122.0606502, 36.9742393 ], [ -122.0607012, 36.9741102 ] ], [ [ -122.0607012, 36.9741102 ], [ -122.0606502, 36.9742393 ] ], [ [ -122.0607012, 36.9741102 ], [ -122.0607166, 36.9740443 ] ], [ [ -122.0607166, 36.9740443 ], [ -122.0607012, 36.9741102 ] ], [ [ -122.0607166, 36.9740443 ], [ -122.0607132, 36.9739634 ] ], [ [ -122.0607132, 36.9739634 ], [ -122.0607166, 36.9740443 ] ], [ [ -122.0607132, 36.9739634 ], [ -122.0607857, 36.973921 ] ], [ [ -122.0607857, 36.973921 ], [ -122.0607132, 36.9739634 ] ], [ [ -122.0612231, 36.9743915 ], [ -122.0612575, 36.9747517 ] ], [ [ -122.0612231, 36.9743915 ], [ -122.0606906, 36.974439 ] ], [ [ -122.0612231, 36.9743915 ], [ -122.061444, 36.9743709 ] ], [ [ -122.0612575, 36.9747517 ], [ -122.0612231, 36.9743915 ] ], [ [ -122.0612575, 36.9747517 ], [ -122.0612743, 36.9752275 ] ], [ [ -122.0612743, 36.9752275 ], [ -122.061260963534068, 36.974849792232639 ] ], [ [ -122.0612743, 36.9752275 ], [ -122.061257, 36.9753083 ] ], [ [ -122.061257, 36.9753083 ], [ -122.0612743, 36.9752275 ] ], [ [ -122.061257, 36.9753083 ], [ -122.0611937, 36.9753906 ] ], [ [ -122.0611937, 36.9753906 ], [ -122.061257, 36.9753083 ] ], [ [ -122.0611937, 36.9753906 ], [ -122.0611213, 36.9754298 ] ], [ [ -122.0611213, 36.9754298 ], [ -122.0611937, 36.9753906 ] ], [ [ -122.0611213, 36.9754298 ], [ -122.06106566304139, 36.975550924653518 ] ], [ [ -122.0599392, 36.9745104 ], [ -122.0602549, 36.9744767 ] ], [ [ -122.0599392, 36.9745104 ], [ -122.0591879, 36.974608 ] ], [ [ -122.0602549, 36.9744767 ], [ -122.0599392, 36.9745104 ] ], [ [ -122.0602549, 36.9744767 ], [ -122.0606906, 36.974439 ] ], [ [ -122.061444, 36.9743709 ], [ -122.0613691, 36.9739682 ] ], [ [ -122.061444, 36.9743709 ], [ -122.0612231, 36.9743915 ] ], [ [ -122.061444, 36.9743709 ], [ -122.0619973, 36.9743363 ] ], [ [ -122.0613691, 36.9739682 ], [ -122.061444, 36.9743709 ] ], [ [ -122.0613691, 36.9739682 ], [ -122.061151, 36.9734524 ] ], [ [ -122.061151, 36.9734524 ], [ -122.061184972046775, 36.973532742878177 ] ], [ [ -122.061151, 36.9734524 ], [ -122.061120415260774, 36.973371185806236 ] ], [ [ -122.0621567, 36.9743047 ], [ -122.0619973, 36.9743363 ] ], [ [ -122.0621567, 36.9743047 ], [ -122.0624326, 36.9742745 ] ], [ [ -122.0621567, 36.9743047 ], [ -122.0621395, 36.9740454 ] ], [ [ -122.0557018, 36.9753747 ], [ -122.0560546, 36.9753522 ] ], [ [ -122.0557018, 36.9753747 ], [ -122.0557112, 36.9755338 ] ], [ [ -122.0557018, 36.9753747 ], [ -122.0556969, 36.9753112 ] ], [ [ -122.0560546, 36.9753522 ], [ -122.0557018, 36.9753747 ] ], [ [ -122.0557198, 36.9756148 ], [ -122.0560691, 36.975604 ] ], [ [ -122.0557198, 36.9756148 ], [ -122.0557445, 36.9758743 ] ], [ [ -122.0557198, 36.9756148 ], [ -122.0557112, 36.9755338 ] ], [ [ -122.0560691, 36.975604 ], [ -122.0557198, 36.9756148 ] ], [ [ -122.0556756, 36.9761286 ], [ -122.0556273885161, 36.976132806742569 ] ], [ [ -122.0556756, 36.9761286 ], [ -122.055723983516998, 36.976125954423885 ] ], [ [ -122.0556756, 36.9761286 ], [ -122.0556736, 36.9761068 ] ], [ [ -122.0556756, 36.9761286 ], [ -122.0556783, 36.9761497 ] ], [ [ -122.0557707, 36.9761234 ], [ -122.0556756, 36.9761286 ] ], [ [ -122.0557707, 36.9761234 ], [ -122.05590321581451, 36.976118369345855 ] ], [ [ -122.0557707, 36.9761234 ], [ -122.0557737, 36.9761638 ] ], [ [ -122.0557707, 36.9761234 ], [ -122.055759544501115, 36.976017337604141 ] ], [ [ -122.0556969, 36.9753112 ], [ -122.0556098, 36.9753197 ] ], [ [ -122.0556969, 36.9753112 ], [ -122.0557018, 36.9753747 ] ], [ [ -122.0556969, 36.9753112 ], [ -122.0556647, 36.975017 ] ], [ [ -122.0556098, 36.9753197 ], [ -122.0556969, 36.9753112 ] ], [ [ -122.0556098, 36.9753197 ], [ -122.054556380056155, 36.975414365891346 ] ], [ [ -122.0556098, 36.9753197 ], [ -122.0556112, 36.9753563 ] ], [ [ -122.0556098, 36.9753197 ], [ -122.0556044, 36.9752781 ] ], [ [ -122.0560802, 36.9758539 ], [ -122.055972929008234, 36.975860418701913 ] ], [ [ -122.0557445, 36.9758743 ], [ -122.0560802, 36.9758539 ] ], [ [ -122.0557445, 36.9758743 ], [ -122.0556572, 36.975882 ] ], [ [ -122.0557445, 36.9758743 ], [ -122.0557707, 36.9761234 ] ], [ [ -122.0557445, 36.9758743 ], [ -122.0557198, 36.9756148 ] ], [ [ -122.0556572, 36.975882 ], [ -122.0557445, 36.9758743 ] ], [ [ -122.0556572, 36.975882 ], [ -122.0553692, 36.9759075 ] ], [ [ -122.0556572, 36.975882 ], [ -122.0556555, 36.9758564 ] ], [ [ -122.0556572, 36.975882 ], [ -122.0556584, 36.9759007 ] ], [ [ -122.0553692, 36.9759075 ], [ -122.055435463306225, 36.975901632936427 ] ], [ [ -122.0583203, 36.9726302 ], [ -122.0584606, 36.9726073 ] ], [ [ -122.0583203, 36.9726302 ], [ -122.0580456, 36.9726665 ] ], [ [ -122.0583203, 36.9726302 ], [ -122.0583285, 36.9726586 ] ], [ [ -122.0583203, 36.9726302 ], [ -122.0583087, 36.97259 ] ], [ [ -122.0580456, 36.9726665 ], [ -122.0583203, 36.9726302 ] ], [ [ -122.0580456, 36.9726665 ], [ -122.0577244, 36.9726657 ] ], [ [ -122.0577244, 36.9726657 ], [ -122.0580456, 36.9726665 ] ], [ [ -122.0581244, 36.972169 ], [ -122.0581376, 36.9721723 ] ], [ [ -122.0581244, 36.972169 ], [ -122.0581132, 36.9721624 ] ], [ [ -122.0581376, 36.9721723 ], [ -122.0581244, 36.972169 ] ], [ [ -122.0581376, 36.9721723 ], [ -122.0581515, 36.9721718 ] ], [ [ -122.0581515, 36.9721718 ], [ -122.0581376, 36.9721723 ] ], [ [ -122.0581515, 36.9721718 ], [ -122.0581644, 36.9721677 ] ], [ [ -122.0581644, 36.9721677 ], [ -122.0581515, 36.9721718 ] ], [ [ -122.0581644, 36.9721677 ], [ -122.0581748, 36.9721604 ] ], [ [ -122.0581748, 36.9721604 ], [ -122.0581644, 36.9721677 ] ], [ [ -122.0581748, 36.9721604 ], [ -122.0581816, 36.9721507 ] ], [ [ -122.0581816, 36.9721507 ], [ -122.0581748, 36.9721604 ] ], [ [ -122.0581816, 36.9721507 ], [ -122.058184, 36.9721398 ] ], [ [ -122.058184, 36.9721398 ], [ -122.0581816, 36.9721507 ] ], [ [ -122.058184, 36.9721398 ], [ -122.0581822, 36.9721301 ] ], [ [ -122.058184, 36.9721398 ], [ -122.058357, 36.9721381 ] ], [ [ -122.0581822, 36.9721301 ], [ -122.058184, 36.9721398 ] ], [ [ -122.0581822, 36.9721301 ], [ -122.0581769, 36.9721213 ] ], [ [ -122.0581769, 36.9721213 ], [ -122.0581822, 36.9721301 ] ], [ [ -122.0581769, 36.9721213 ], [ -122.0581686, 36.9721141 ] ], [ [ -122.0581686, 36.9721141 ], [ -122.0581769, 36.9721213 ] ], [ [ -122.0581686, 36.9721141 ], [ -122.058158, 36.9721092 ] ], [ [ -122.058158, 36.9721092 ], [ -122.0581686, 36.9721141 ] ], [ [ -122.058158, 36.9721092 ], [ -122.0581461, 36.972107 ] ], [ [ -122.0581461, 36.972107 ], [ -122.058158, 36.9721092 ] ], [ [ -122.0581461, 36.972107 ], [ -122.0581338, 36.9721077 ] ], [ [ -122.0581338, 36.9721077 ], [ -122.0581461, 36.972107 ] ], [ [ -122.0581338, 36.9721077 ], [ -122.0581224, 36.9721113 ] ], [ [ -122.0581224, 36.9721113 ], [ -122.0581338, 36.9721077 ] ], [ [ -122.0581224, 36.9721113 ], [ -122.058113, 36.9721173 ] ], [ [ -122.0581224, 36.9721113 ], [ -122.0581386, 36.972002 ] ], [ [ -122.058113, 36.9721173 ], [ -122.0581224, 36.9721113 ] ], [ [ -122.058113, 36.9721173 ], [ -122.0581061, 36.9721252 ] ], [ [ -122.0581061, 36.9721252 ], [ -122.058113, 36.9721173 ] ], [ [ -122.0581061, 36.9721252 ], [ -122.0581024, 36.9721343 ] ], [ [ -122.0581024, 36.9721343 ], [ -122.0581061, 36.9721252 ] ], [ [ -122.0581024, 36.9721343 ], [ -122.0581022, 36.9721439 ] ], [ [ -122.0581022, 36.9721439 ], [ -122.0581024, 36.9721343 ] ], [ [ -122.0581022, 36.9721439 ], [ -122.0581055, 36.9721532 ] ], [ [ -122.0581055, 36.9721532 ], [ -122.0581022, 36.9721439 ] ], [ [ -122.0581055, 36.9721532 ], [ -122.0581132, 36.9721624 ] ], [ [ -122.0581055, 36.9721532 ], [ -122.0580269, 36.9721667 ] ], [ [ -122.0581132, 36.9721624 ], [ -122.0581055, 36.9721532 ] ], [ [ -122.0581132, 36.9721624 ], [ -122.0581244, 36.972169 ] ], [ [ -122.0579197, 36.9716931 ], [ -122.0579228, 36.9717311 ] ], [ [ -122.0579228, 36.9717311 ], [ -122.0579197, 36.9716931 ] ], [ [ -122.0579228, 36.9717311 ], [ -122.0579216, 36.971743 ] ], [ [ -122.0579216, 36.971743 ], [ -122.0579228, 36.9717311 ] ], [ [ -122.0579216, 36.971743 ], [ -122.0579068, 36.9717571 ] ], [ [ -122.0579216, 36.971743 ], [ -122.0579452, 36.9717413 ] ], [ [ -122.0579068, 36.9717571 ], [ -122.0579216, 36.971743 ] ], [ [ -122.0579068, 36.9717571 ], [ -122.0578955, 36.9717755 ] ], [ [ -122.0578955, 36.9717755 ], [ -122.0579068, 36.9717571 ] ], [ [ -122.0578955, 36.9717755 ], [ -122.0579141, 36.971796 ] ], [ [ -122.0579141, 36.971796 ], [ -122.0578955, 36.9717755 ] ], [ [ -122.0579141, 36.971796 ], [ -122.057942, 36.971821 ] ], [ [ -122.057942, 36.971821 ], [ -122.0579141, 36.971796 ] ], [ [ -122.057942, 36.971821 ], [ -122.0579655, 36.9718313 ] ], [ [ -122.0579655, 36.9718313 ], [ -122.057942, 36.971821 ] ], [ [ -122.0579655, 36.9718313 ], [ -122.0579849, 36.9718279 ] ], [ [ -122.0579849, 36.9718279 ], [ -122.0579655, 36.9718313 ] ], [ [ -122.0579849, 36.9718279 ], [ -122.0579971, 36.9718223 ] ], [ [ -122.0579971, 36.9718223 ], [ -122.0579849, 36.9718279 ] ], [ [ -122.0579971, 36.9718223 ], [ -122.0580048, 36.9718296 ] ], [ [ -122.0579971, 36.9718223 ], [ -122.0580069, 36.9718072 ] ], [ [ -122.0580048, 36.9718296 ], [ -122.0579971, 36.9718223 ] ], [ [ -122.0580048, 36.9718296 ], [ -122.0580397, 36.9718639 ] ], [ [ -122.0580397, 36.9718639 ], [ -122.0580048, 36.9718296 ] ], [ [ -122.0580397, 36.9718639 ], [ -122.0581827, 36.9717443 ] ], [ [ -122.0580397, 36.9718639 ], [ -122.058022, 36.9718775 ] ], [ [ -122.0578445, 36.9720095 ], [ -122.0578307, 36.9719934 ] ], [ [ -122.0578445, 36.9720095 ], [ -122.0578334, 36.9720119 ] ], [ [ -122.0578445, 36.9720095 ], [ -122.0578532, 36.9720104 ] ], [ [ -122.0578307, 36.9719934 ], [ -122.0578445, 36.9720095 ] ], [ [ -122.0578307, 36.9719934 ], [ -122.0578081, 36.9719709 ] ], [ [ -122.0578081, 36.9719709 ], [ -122.0578307, 36.9719934 ] ], [ [ -122.0578081, 36.9719709 ], [ -122.0578131, 36.9719532 ] ], [ [ -122.0578081, 36.9719709 ], [ -122.0577924, 36.971978 ] ], [ [ -122.0578131, 36.9719532 ], [ -122.0578081, 36.9719709 ] ], [ [ -122.0578131, 36.9719532 ], [ -122.0578094, 36.9719389 ] ], [ [ -122.0578094, 36.9719389 ], [ -122.0578131, 36.9719532 ] ], [ [ -122.0578094, 36.9719389 ], [ -122.0577568, 36.9718903 ] ], [ [ -122.0577568, 36.9718903 ], [ -122.0578094, 36.9719389 ] ], [ [ -122.0577568, 36.9718903 ], [ -122.0577498, 36.9718773 ] ], [ [ -122.0577568, 36.9718903 ], [ -122.0577393, 36.971889 ] ], [ [ -122.0577498, 36.9718773 ], [ -122.0577568, 36.9718903 ] ], [ [ -122.0577498, 36.9718773 ], [ -122.0577557, 36.9718577 ] ], [ [ -122.0577557, 36.9718577 ], [ -122.0577498, 36.9718773 ] ], [ [ -122.0577557, 36.9718577 ], [ -122.0577504, 36.9718377 ] ], [ [ -122.0577504, 36.9718377 ], [ -122.0577557, 36.9718577 ] ], [ [ -122.058357, 36.9721381 ], [ -122.058184, 36.9721398 ] ], [ [ -122.058357, 36.9721381 ], [ -122.058357, 36.9723277 ] ], [ [ -122.058357, 36.9721381 ], [ -122.0583661, 36.9719132 ] ], [ [ -122.0550609, 36.9756475 ], [ -122.055079525618325, 36.975769109766297 ] ], [ [ -122.0550609, 36.9756475 ], [ -122.0550528, 36.9755949 ] ], [ [ -122.0550609, 36.9756475 ], [ -122.0549095, 36.9756617 ] ], [ [ -122.0550609, 36.9756475 ], [ -122.055212586464478, 36.975633328922804 ] ], [ [ -122.0557737, 36.9761638 ], [ -122.055691988192422, 36.97617113062261 ] ], [ [ -122.0557737, 36.9761638 ], [ -122.055779056675092, 36.976229627585035 ] ], [ [ -122.0557737, 36.9761638 ], [ -122.0557707, 36.9761234 ] ], [ [ -122.0556044, 36.9752781 ], [ -122.0555847, 36.975052 ] ], [ [ -122.0556044, 36.9752781 ], [ -122.0556098, 36.9753197 ] ], [ [ -122.0555847, 36.975052 ], [ -122.0556044, 36.9752781 ] ], [ [ -122.0555847, 36.975052 ], [ -122.0555711, 36.9750252 ] ], [ [ -122.0555711, 36.9750252 ], [ -122.0555847, 36.975052 ] ], [ [ -122.0555711, 36.9750252 ], [ -122.0555129, 36.9750175 ] ], [ [ -122.0555711, 36.9750252 ], [ -122.0555681, 36.974955 ] ], [ [ -122.0555711, 36.9750252 ], [ -122.0556647, 36.975017 ] ], [ [ -122.0555129, 36.9750175 ], [ -122.0555711, 36.9750252 ] ], [ [ -122.0555129, 36.9750175 ], [ -122.054153698789833, 36.975141116259657 ] ], [ [ -122.0552977, 36.9749124 ], [ -122.054112343760039, 36.975018726545038 ] ], [ [ -122.0552977, 36.9749124 ], [ -122.0555536, 36.9748882 ] ], [ [ -122.0552977, 36.9749124 ], [ -122.0552085, 36.9748883 ] ], [ [ -122.0552977, 36.9749124 ], [ -122.0553321, 36.9749743 ] ], [ [ -122.0555536, 36.9748882 ], [ -122.0552977, 36.9749124 ] ], [ [ -122.0555536, 36.9748882 ], [ -122.0557468, 36.9748699 ] ], [ [ -122.0555536, 36.9748882 ], [ -122.0555681, 36.974955 ] ], [ [ -122.0557468, 36.9748699 ], [ -122.0555536, 36.9748882 ] ], [ [ -122.0557468, 36.9748699 ], [ -122.0569462, 36.9747562 ] ], [ [ -122.0557468, 36.9748699 ], [ -122.0557572, 36.9749358 ] ], [ [ -122.0569462, 36.9747562 ], [ -122.0557468, 36.9748699 ] ], [ [ -122.0569462, 36.9747562 ], [ -122.0583003, 36.9746279 ] ], [ [ -122.0583003, 36.9746279 ], [ -122.0569462, 36.9747562 ] ], [ [ -122.0583003, 36.9746279 ], [ -122.0583265, 36.9746209 ] ], [ [ -122.0583265, 36.9746209 ], [ -122.0583003, 36.9746279 ] ], [ [ -122.0583265, 36.9746209 ], [ -122.0583984, 36.9746182 ] ], [ [ -122.0556647, 36.975017 ], [ -122.0555711, 36.9750252 ] ], [ [ -122.0556647, 36.975017 ], [ -122.0557659, 36.9750076 ] ], [ [ -122.0556647, 36.975017 ], [ -122.0556969, 36.9753112 ] ], [ [ -122.0556647, 36.975017 ], [ -122.0556593, 36.9749443 ] ], [ [ -122.0557659, 36.9750076 ], [ -122.0556647, 36.975017 ] ], [ [ -122.0557659, 36.9750076 ], [ -122.0557572, 36.9749358 ] ], [ [ -122.0584787, 36.974616 ], [ -122.0583984, 36.9746182 ] ], [ [ -122.0584787, 36.974616 ], [ -122.0584815, 36.9746764 ] ], [ [ -122.0584815, 36.9746764 ], [ -122.0584787, 36.974616 ] ], [ [ -122.0584815, 36.9746764 ], [ -122.0584787, 36.9747339 ] ], [ [ -122.0584815, 36.9746764 ], [ -122.0583978, 36.9746861 ] ], [ [ -122.0584815, 36.9746764 ], [ -122.0585974, 36.9746661 ] ], [ [ -122.0584787, 36.9747339 ], [ -122.0584815, 36.9746764 ] ], [ [ -122.0584787, 36.9747339 ], [ -122.0584786, 36.9747519 ] ], [ [ -122.0584787, 36.9747339 ], [ -122.0584999, 36.9747304 ] ], [ [ -122.058003, 36.9718922 ], [ -122.057907, 36.971977 ] ], [ [ -122.058003, 36.9718922 ], [ -122.058022, 36.9718775 ] ], [ [ -122.057907, 36.971977 ], [ -122.058003, 36.9718922 ] ], [ [ -122.057907, 36.971977 ], [ -122.057867, 36.9720188 ] ], [ [ -122.057867, 36.9720188 ], [ -122.057907, 36.971977 ] ], [ [ -122.057867, 36.9720188 ], [ -122.057861, 36.9720137 ] ], [ [ -122.057867, 36.9720188 ], [ -122.0578706, 36.9720252 ] ], [ [ -122.0555968, 36.9754952 ], [ -122.05477514310185, 36.975578851300341 ] ], [ [ -122.0555968, 36.9754952 ], [ -122.0556139, 36.9754894 ] ], [ [ -122.0556139, 36.9754894 ], [ -122.0555968, 36.9754952 ] ], [ [ -122.0556139, 36.9754894 ], [ -122.0556214, 36.9754727 ] ], [ [ -122.0556139, 36.9754894 ], [ -122.0556117, 36.9755417 ] ], [ [ -122.0556214, 36.9754727 ], [ -122.0556139, 36.9754894 ] ], [ [ -122.0556214, 36.9754727 ], [ -122.0556112, 36.9753563 ] ], [ [ -122.0556112, 36.9753563 ], [ -122.0556214, 36.9754727 ] ], [ [ -122.0556112, 36.9753563 ], [ -122.0556098, 36.9753197 ] ], [ [ -122.055627, 36.9755901 ], [ -122.0556117, 36.9755417 ] ], [ [ -122.055627, 36.9755901 ], [ -122.055608, 36.9755964 ] ], [ [ -122.055627, 36.9755901 ], [ -122.0556325, 36.9756034 ] ], [ [ -122.0590373, 36.9766294 ], [ -122.0590379, 36.9768583 ] ], [ [ -122.0596873, 36.9769371 ], [ -122.0596887, 36.9768936 ] ], [ [ -122.0596873, 36.9769371 ], [ -122.0596455, 36.9769708 ] ], [ [ -122.0596455, 36.9769708 ], [ -122.0596873, 36.9769371 ] ], [ [ -122.0596455, 36.9769708 ], [ -122.05957, 36.9770274 ] ], [ [ -122.05957, 36.9770274 ], [ -122.0596455, 36.9769708 ] ], [ [ -122.05957, 36.9770274 ], [ -122.0595531, 36.9770754 ] ], [ [ -122.0595531, 36.9770754 ], [ -122.05957, 36.9770274 ] ], [ [ -122.0595531, 36.9770754 ], [ -122.05955, 36.9771332 ] ], [ [ -122.05955, 36.9771332 ], [ -122.0595531, 36.9770754 ] ], [ [ -122.05955, 36.9771332 ], [ -122.0596886, 36.9771357 ] ], [ [ -122.0596886, 36.9771357 ], [ -122.05955, 36.9771332 ] ], [ [ -122.0589789, 36.9768937 ], [ -122.0589844, 36.976851 ] ], [ [ -122.0589789, 36.9768937 ], [ -122.0589692, 36.9769683 ] ], [ [ -122.0589789, 36.9768937 ], [ -122.0590134, 36.9768996 ] ], [ [ -122.0589789, 36.9768937 ], [ -122.0589155, 36.9768835 ] ], [ [ -122.0589692, 36.9769683 ], [ -122.0589789, 36.9768937 ] ], [ [ -122.0589692, 36.9769683 ], [ -122.0589692, 36.9771135 ] ], [ [ -122.0589692, 36.9771135 ], [ -122.0589692, 36.9769683 ] ], [ [ -122.0597348, 36.9767074 ], [ -122.0597379, 36.9768939 ] ], [ [ -122.0601343, 36.9769014 ], [ -122.0600749, 36.9769659 ] ], [ [ -122.0601343, 36.9769014 ], [ -122.0601193, 36.9768923 ] ], [ [ -122.0601343, 36.9769014 ], [ -122.0601522, 36.9769061 ] ], [ [ -122.0601414, 36.9768179 ], [ -122.060133208275232, 36.976821596266056 ] ], [ [ -122.0601414, 36.9768179 ], [ -122.060150646601244, 36.976816550496032 ] ], [ [ -122.0601414, 36.9768179 ], [ -122.060141806829634, 36.976810366637658 ] ], [ [ -122.060125, 36.9768253 ], [ -122.0601414, 36.9768179 ] ], [ [ -122.060125, 36.9768253 ], [ -122.0601125, 36.9768365 ] ], [ [ -122.0601125, 36.9768365 ], [ -122.060125, 36.9768253 ] ], [ [ -122.0601125, 36.9768365 ], [ -122.0601052, 36.9768503 ] ], [ [ -122.0601052, 36.9768503 ], [ -122.0601125, 36.9768365 ] ], [ [ -122.0601052, 36.9768503 ], [ -122.0601039, 36.9768653 ] ], [ [ -122.0601039, 36.9768653 ], [ -122.0601052, 36.9768503 ] ], [ [ -122.0601039, 36.9768653 ], [ -122.0601088, 36.9768798 ] ], [ [ -122.0601088, 36.9768798 ], [ -122.0601039, 36.9768653 ] ], [ [ -122.0601088, 36.9768798 ], [ -122.0601193, 36.9768923 ] ], [ [ -122.0601193, 36.9768923 ], [ -122.0601088, 36.9768798 ] ], [ [ -122.0601193, 36.9768923 ], [ -122.0601343, 36.9769014 ] ], [ [ -122.0601522, 36.9769061 ], [ -122.0601343, 36.9769014 ] ], [ [ -122.0601522, 36.9769061 ], [ -122.0601711, 36.9769059 ] ], [ [ -122.0601711, 36.9769059 ], [ -122.0601522, 36.9769061 ] ], [ [ -122.0601711, 36.9769059 ], [ -122.0601889, 36.9769007 ] ], [ [ -122.0601889, 36.9769007 ], [ -122.0601711, 36.9769059 ] ], [ [ -122.0601889, 36.9769007 ], [ -122.0602036, 36.9768913 ] ], [ [ -122.0602036, 36.9768913 ], [ -122.0601889, 36.9769007 ] ], [ [ -122.0602036, 36.9768913 ], [ -122.0602136, 36.9768785 ] ], [ [ -122.0602136, 36.9768785 ], [ -122.0602036, 36.9768913 ] ], [ [ -122.0602136, 36.9768785 ], [ -122.060218, 36.9768639 ] ], [ [ -122.0602136, 36.9768785 ], [ -122.060259990571879, 36.976878283424035 ] ], [ [ -122.060218, 36.9768639 ], [ -122.0602136, 36.9768785 ] ], [ [ -122.060218, 36.9768639 ], [ -122.0602161, 36.9768489 ] ], [ [ -122.0602161, 36.9768489 ], [ -122.060216997556978, 36.976855985976137 ] ], [ [ -122.0602161, 36.9768489 ], [ -122.060212372475164, 36.976842435811363 ] ], [ [ -122.058048, 36.9763739 ], [ -122.0583854, 36.9763479 ] ], [ [ -122.058048, 36.9763739 ], [ -122.0578336, 36.9764031 ] ], [ [ -122.0578336, 36.9764031 ], [ -122.058048, 36.9763739 ] ], [ [ -122.0578336, 36.9764031 ], [ -122.057798, 36.9764437 ] ], [ [ -122.057798, 36.9764437 ], [ -122.0578336, 36.9764031 ] ], [ [ -122.0579068, 36.9767043 ], [ -122.0583815, 36.9766751 ] ], [ [ -122.0579068, 36.9767043 ], [ -122.0578397, 36.9766564 ] ], [ [ -122.0578397, 36.9766564 ], [ -122.0579068, 36.9767043 ] ], [ [ -122.0578397, 36.9766564 ], [ -122.0578204, 36.976589 ] ], [ [ -122.0578204, 36.976589 ], [ -122.0578397, 36.9766564 ] ], [ [ -122.0578448, 36.9769081 ], [ -122.058378, 36.9768716 ] ], [ [ -122.0578448, 36.9769081 ], [ -122.0578509, 36.9770072 ] ], [ [ -122.0578509, 36.9770072 ], [ -122.0578448, 36.9769081 ] ], [ [ -122.0580309, 36.9756996 ], [ -122.0583916, 36.9756968 ] ], [ [ -122.0580309, 36.9756996 ], [ -122.058007, 36.9757067 ] ], [ [ -122.058007, 36.9757067 ], [ -122.0580309, 36.9756996 ] ], [ [ -122.058007, 36.9757067 ], [ -122.0579937, 36.9757222 ] ], [ [ -122.0579937, 36.9757222 ], [ -122.058007, 36.9757067 ] ], [ [ -122.0579937, 36.9757222 ], [ -122.057992, 36.9757689 ] ], [ [ -122.057992, 36.9757689 ], [ -122.0579937, 36.9757222 ] ], [ [ -122.0591879, 36.974608 ], [ -122.0592209, 36.9747178 ] ], [ [ -122.0591879, 36.974608 ], [ -122.0585974, 36.9746661 ] ], [ [ -122.0591879, 36.974608 ], [ -122.0599392, 36.9745104 ] ], [ [ -122.0592209, 36.9747178 ], [ -122.0591879, 36.974608 ] ], [ [ -122.0592209, 36.9747178 ], [ -122.0592802, 36.9748387 ] ], [ [ -122.0592802, 36.9748387 ], [ -122.0592209, 36.9747178 ] ], [ [ -122.0592802, 36.9748387 ], [ -122.0593917, 36.9748662 ] ], [ [ -122.0592802, 36.9748387 ], [ -122.0593167, 36.9750745 ] ], [ [ -122.0593917, 36.9748662 ], [ -122.0592802, 36.9748387 ] ], [ [ -122.0593917, 36.9748662 ], [ -122.05952, 36.9748443 ] ], [ [ -122.05952, 36.9748443 ], [ -122.0593917, 36.9748662 ] ], [ [ -122.0593167, 36.9750745 ], [ -122.0592802, 36.9748387 ] ], [ [ -122.0593167, 36.9750745 ], [ -122.0593722, 36.975253 ] ], [ [ -122.0593722, 36.975253 ], [ -122.0593167, 36.9750745 ] ], [ [ -122.0593722, 36.975253 ], [ -122.0594169, 36.9753133 ] ], [ [ -122.0594169, 36.9753133 ], [ -122.0593722, 36.975253 ] ], [ [ -122.0594169, 36.9753133 ], [ -122.0595108, 36.9753465 ] ], [ [ -122.0595108, 36.9753465 ], [ -122.0594169, 36.9753133 ] ], [ [ -122.0595108, 36.9753465 ], [ -122.0596156, 36.9753305 ] ], [ [ -122.0596156, 36.9753305 ], [ -122.0595108, 36.9753465 ] ], [ [ -122.057686, 36.9732347 ], [ -122.058448, 36.9732261 ] ], [ [ -122.057686, 36.9732347 ], [ -122.0576553, 36.9733738 ] ], [ [ -122.057686, 36.9732347 ], [ -122.0575366, 36.9732384 ] ], [ [ -122.0576553, 36.9733738 ], [ -122.057686, 36.9732347 ] ], [ [ -122.0576553, 36.9733738 ], [ -122.0575489, 36.9733307 ] ], [ [ -122.0576553, 36.9733738 ], [ -122.0576593, 36.9734523 ] ], [ [ -122.0575489, 36.9733307 ], [ -122.0576553, 36.9733738 ] ], [ [ -122.0575489, 36.9733307 ], [ -122.0575366, 36.9732384 ] ], [ [ -122.0575366, 36.9732384 ], [ -122.0575489, 36.9733307 ] ], [ [ -122.0575366, 36.9732384 ], [ -122.057686, 36.9732347 ] ], [ [ -122.0575366, 36.9732384 ], [ -122.0571654, 36.9733221 ] ], [ [ -122.0584077, 36.971646 ], [ -122.0584733, 36.9716469 ] ], [ [ -122.0584077, 36.971646 ], [ -122.0582976, 36.9716446 ] ], [ [ -122.0584077, 36.971646 ], [ -122.0584098, 36.9716785 ] ], [ [ -122.0584077, 36.971646 ], [ -122.058406, 36.9716195 ] ], [ [ -122.0582976, 36.9716446 ], [ -122.0584077, 36.971646 ] ], [ [ -122.0582976, 36.9716446 ], [ -122.0582129, 36.9717061 ] ], [ [ -122.0582129, 36.9717061 ], [ -122.0582976, 36.9716446 ] ], [ [ -122.0582129, 36.9717061 ], [ -122.0581827, 36.9717443 ] ], [ [ -122.0583668, 36.9714195 ], [ -122.0584753, 36.9714251 ] ], [ [ -122.0583668, 36.9714195 ], [ -122.0583329, 36.9713942 ] ], [ [ -122.0583329, 36.9713942 ], [ -122.0583668, 36.9714195 ] ], [ [ -122.0583329, 36.9713942 ], [ -122.0583237, 36.971361 ] ], [ [ -122.0583237, 36.971361 ], [ -122.0583329, 36.9713942 ] ], [ [ -122.0583237, 36.971361 ], [ -122.0583244, 36.9712896 ] ], [ [ -122.0583244, 36.9712896 ], [ -122.05832430405772, 36.971299386113095 ] ], [ [ -122.0583244, 36.9712896 ], [ -122.05832804503622, 36.971280260826113 ] ], [ [ -122.0562199, 36.9748854 ], [ -122.0559905, 36.9749068 ] ], [ [ -122.0562199, 36.9748854 ], [ -122.0570038, 36.9748163 ] ], [ [ -122.0570038, 36.9748163 ], [ -122.0562199, 36.9748854 ] ], [ [ -122.0570038, 36.9748163 ], [ -122.0581967, 36.9747065 ] ], [ [ -122.0570038, 36.9748163 ], [ -122.0569897, 36.9747075 ] ], [ [ -122.0581967, 36.9747065 ], [ -122.0570038, 36.9748163 ] ], [ [ -122.0581967, 36.9747065 ], [ -122.0583978, 36.9746861 ] ], [ [ -122.0585974, 36.9746661 ], [ -122.0584815, 36.9746764 ] ], [ [ -122.0585974, 36.9746661 ], [ -122.0591879, 36.974608 ] ], [ [ -122.0585974, 36.9746661 ], [ -122.0585579, 36.9743951 ] ], [ [ -122.0571385, 36.9746909 ], [ -122.0569897, 36.9747075 ] ], [ [ -122.0569897, 36.9747075 ], [ -122.0571385, 36.9746909 ] ], [ [ -122.0569897, 36.9747075 ], [ -122.0569407, 36.9747124 ] ], [ [ -122.0569897, 36.9747075 ], [ -122.0570038, 36.9748163 ] ], [ [ -122.0569407, 36.9747124 ], [ -122.0569897, 36.9747075 ] ], [ [ -122.0619928, 36.9741183 ], [ -122.062031193417241, 36.974079562247184 ] ], [ [ -122.0619274, 36.9740577 ], [ -122.061946130072243, 36.974048285238027 ] ], [ [ -122.0619274, 36.9740577 ], [ -122.061905689242352, 36.974061022435485 ] ], [ [ -122.0625486, 36.9742036 ], [ -122.06261411132148, 36.974198431729441 ] ], [ [ -122.0625486, 36.9742036 ], [ -122.0625239, 36.97421 ] ], [ [ -122.0625239, 36.97421 ], [ -122.0625486, 36.9742036 ] ], [ [ -122.0625239, 36.97421 ], [ -122.062507, 36.9741951 ] ], [ [ -122.062507, 36.9741951 ], [ -122.0625239, 36.97421 ] ], [ [ -122.062507, 36.9741951 ], [ -122.0624778, 36.9741852 ] ], [ [ -122.0624778, 36.9741852 ], [ -122.062507, 36.9741951 ] ], [ [ -122.0624778, 36.9741852 ], [ -122.062439, 36.974189 ] ], [ [ -122.0624097, 36.9741937 ], [ -122.062439, 36.974189 ] ], [ [ -122.0624097, 36.9741937 ], [ -122.0623876, 36.9742043 ] ], [ [ -122.0623876, 36.9742043 ], [ -122.0624097, 36.9741937 ] ], [ [ -122.0623876, 36.9742043 ], [ -122.0623761, 36.9742227 ] ], [ [ -122.0623761, 36.9742227 ], [ -122.0623876, 36.9742043 ] ], [ [ -122.0623761, 36.9742227 ], [ -122.062270413148653, 36.974232555603251 ] ], [ [ -122.0549483, 36.9747697 ], [ -122.0548876, 36.9747444 ] ], [ [ -122.0549483, 36.9747697 ], [ -122.0549162, 36.9747421 ] ], [ [ -122.0549483, 36.9747697 ], [ -122.0550351, 36.9748155 ] ], [ [ -122.0548876, 36.9747444 ], [ -122.0549483, 36.9747697 ] ], [ [ -122.0548876, 36.9747444 ], [ -122.054825, 36.9747272 ] ], [ [ -122.054825, 36.9747272 ], [ -122.0548876, 36.9747444 ] ], [ [ -122.0585592, 36.9781272 ], [ -122.058573554006983, 36.978127527053324 ] ], [ [ -122.0585592, 36.9781272 ], [ -122.058544845194774, 36.978126896340662 ] ], [ [ -122.0585592, 36.9781272 ], [ -122.058559147152295, 36.978138720801255 ] ], [ [ -122.0585592, 36.9781272 ], [ -122.058559260318205, 36.978115679222256 ] ], [ [ -122.0585072, 36.9781261 ], [ -122.05851772047906, 36.978126322548597 ] ], [ [ -122.0585072, 36.9781261 ], [ -122.05849668632311, 36.978125723671518 ] ], [ [ -122.0584625, 36.9781245 ], [ -122.0585072, 36.9781261 ] ], [ [ -122.0584625, 36.9781245 ], [ -122.0584432, 36.9781131 ] ], [ [ -122.0584432, 36.9781131 ], [ -122.0584625, 36.9781245 ] ], [ [ -122.0584432, 36.9781131 ], [ -122.0584239, 36.9780928 ] ], [ [ -122.0584239, 36.9780928 ], [ -122.0584432, 36.9781131 ] ], [ [ -122.0584239, 36.9780928 ], [ -122.0584147, 36.9780782 ] ], [ [ -122.0584239, 36.9780928 ], [ -122.0584254, 36.9781661 ] ], [ [ -122.0584147, 36.9780782 ], [ -122.0584239, 36.9780928 ] ], [ [ -122.0584307, 36.9782523 ], [ -122.058426026256086, 36.978176285523482 ] ], [ [ -122.0584307, 36.9782523 ], [ -122.0584589, 36.9782303 ] ], [ [ -122.0584307, 36.9782523 ], [ -122.0584173, 36.9782801 ] ], [ [ -122.0592343, 36.9759849 ], [ -122.059047402078164, 36.976008727623501 ] ], [ [ -122.0592343, 36.9759849 ], [ -122.0592653, 36.9759784 ] ], [ [ -122.0592653, 36.9759784 ], [ -122.0592343, 36.9759849 ] ], [ [ -122.0592653, 36.9759784 ], [ -122.0592739, 36.9759703 ] ], [ [ -122.0592739, 36.9759703 ], [ -122.0592653, 36.9759784 ] ], [ [ -122.0592739, 36.9759703 ], [ -122.0592876, 36.9759585 ] ], [ [ -122.0592876, 36.9759585 ], [ -122.0592739, 36.9759703 ] ], [ [ -122.0592876, 36.9759585 ], [ -122.0593034, 36.975954 ] ], [ [ -122.0593034, 36.975954 ], [ -122.0592876, 36.9759585 ] ], [ [ -122.0593034, 36.975954 ], [ -122.059376, 36.9759467 ] ], [ [ -122.059376, 36.9759467 ], [ -122.0593034, 36.975954 ] ], [ [ -122.059376, 36.9759467 ], [ -122.059468, 36.9759492 ] ], [ [ -122.059468, 36.9759492 ], [ -122.059376, 36.9759467 ] ], [ [ -122.059468, 36.9759492 ], [ -122.0595381, 36.9759593 ] ], [ [ -122.0595381, 36.9759593 ], [ -122.059468, 36.9759492 ] ], [ [ -122.0595381, 36.9759593 ], [ -122.0595824, 36.9759679 ] ], [ [ -122.0595824, 36.9759679 ], [ -122.0595381, 36.9759593 ] ], [ [ -122.0595824, 36.9759679 ], [ -122.0595961, 36.9759833 ] ], [ [ -122.0595961, 36.9759833 ], [ -122.0595824, 36.9759679 ] ], [ [ -122.0595961, 36.9759833 ], [ -122.0596154, 36.9760003 ] ], [ [ -122.0596154, 36.9760003 ], [ -122.0595961, 36.9759833 ] ], [ [ -122.0596154, 36.9760003 ], [ -122.0596566, 36.9760117 ] ], [ [ -122.0596566, 36.9760117 ], [ -122.0596154, 36.9760003 ] ], [ [ -122.0596566, 36.9760117 ], [ -122.0597968, 36.9760397 ] ], [ [ -122.0597968, 36.9760397 ], [ -122.0596566, 36.9760117 ] ], [ [ -122.0597968, 36.9760397 ], [ -122.0598527, 36.9760507 ] ], [ [ -122.0598527, 36.9760507 ], [ -122.0597968, 36.9760397 ] ], [ [ -122.0598527, 36.9760507 ], [ -122.0598822, 36.9760486 ] ], [ [ -122.0598822, 36.9760486 ], [ -122.0598527, 36.9760507 ] ], [ [ -122.0598822, 36.9760486 ], [ -122.0599157, 36.9760401 ] ], [ [ -122.0599157, 36.9760401 ], [ -122.0598822, 36.9760486 ] ], [ [ -122.0599157, 36.9760401 ], [ -122.0599538, 36.9760231 ] ], [ [ -122.0599538, 36.9760231 ], [ -122.0599157, 36.9760401 ] ], [ [ -122.0599538, 36.9760231 ], [ -122.0599808, 36.9760024 ] ], [ [ -122.0599808, 36.9760024 ], [ -122.0599538, 36.9760231 ] ], [ [ -122.0599808, 36.9760024 ], [ -122.059996, 36.9759666 ] ], [ [ -122.059996, 36.9759666 ], [ -122.0599808, 36.9760024 ] ], [ [ -122.059996, 36.9759666 ], [ -122.0599991, 36.9759289 ] ], [ [ -122.0599991, 36.9759289 ], [ -122.059996, 36.9759666 ] ], [ [ -122.0599991, 36.9759289 ], [ -122.0599884, 36.9759005 ] ], [ [ -122.0599884, 36.9759005 ], [ -122.0599991, 36.9759289 ] ], [ [ -122.0599884, 36.9759005 ], [ -122.0599691, 36.97587 ] ], [ [ -122.0599691, 36.97587 ], [ -122.0599884, 36.9759005 ] ], [ [ -122.0599691, 36.97587 ], [ -122.0599376, 36.9758444 ] ], [ [ -122.0599376, 36.9758444 ], [ -122.0599691, 36.97587 ] ], [ [ -122.0599376, 36.9758444 ], [ -122.0599096, 36.9758327 ] ], [ [ -122.0599096, 36.9758327 ], [ -122.0599376, 36.9758444 ] ], [ [ -122.0599096, 36.9758327 ], [ -122.05987, 36.9758249 ] ], [ [ -122.05987, 36.9758249 ], [ -122.0599096, 36.9758327 ] ], [ [ -122.05987, 36.9758249 ], [ -122.0598222, 36.9758278 ] ], [ [ -122.0598222, 36.9758278 ], [ -122.05987, 36.9758249 ] ], [ [ -122.0598222, 36.9758278 ], [ -122.0597897, 36.975844 ] ], [ [ -122.0597897, 36.975844 ], [ -122.0598222, 36.9758278 ] ], [ [ -122.0597897, 36.975844 ], [ -122.0597389, 36.9758777 ] ], [ [ -122.0597389, 36.9758777 ], [ -122.0597897, 36.975844 ] ], [ [ -122.0597389, 36.9758777 ], [ -122.0597119, 36.9758903 ] ], [ [ -122.0597119, 36.9758903 ], [ -122.0597389, 36.9758777 ] ], [ [ -122.0597119, 36.9758903 ], [ -122.059687, 36.9758948 ] ], [ [ -122.059687, 36.9758948 ], [ -122.0597119, 36.9758903 ] ], [ [ -122.059687, 36.9758948 ], [ -122.059656, 36.9758919 ] ], [ [ -122.059656, 36.9758919 ], [ -122.059687, 36.9758948 ] ], [ [ -122.059656, 36.9758919 ], [ -122.0595229, 36.9758635 ] ], [ [ -122.0595229, 36.9758635 ], [ -122.059656, 36.9758919 ] ], [ [ -122.0595229, 36.9758635 ], [ -122.0595087, 36.9758566 ] ], [ [ -122.0595087, 36.9758566 ], [ -122.0595229, 36.9758635 ] ], [ [ -122.0595087, 36.9758566 ], [ -122.059496, 36.9758456 ] ], [ [ -122.059496, 36.9758456 ], [ -122.0595087, 36.9758566 ] ], [ [ -122.059496, 36.9758456 ], [ -122.0594817, 36.9758392 ] ], [ [ -122.0594817, 36.9758392 ], [ -122.059496, 36.9758456 ] ], [ [ -122.0594817, 36.9758392 ], [ -122.0593344, 36.9758379 ] ], [ [ -122.0593344, 36.9758379 ], [ -122.0594817, 36.9758392 ] ], [ [ -122.0593344, 36.9758379 ], [ -122.0593206, 36.9758416 ] ], [ [ -122.0593206, 36.9758416 ], [ -122.0593344, 36.9758379 ] ], [ [ -122.0593206, 36.9758416 ], [ -122.0593029, 36.9758497 ] ], [ [ -122.0593029, 36.9758497 ], [ -122.0593206, 36.9758416 ] ], [ [ -122.0593029, 36.9758497 ], [ -122.0592927, 36.9758611 ] ], [ [ -122.0592927, 36.9758611 ], [ -122.0593029, 36.9758497 ] ], [ [ -122.0592927, 36.9758611 ], [ -122.0592769, 36.9758664 ] ], [ [ -122.0592769, 36.9758664 ], [ -122.0592927, 36.9758611 ] ], [ [ -122.0592769, 36.9758664 ], [ -122.0592256, 36.9758724 ] ], [ [ -122.0592256, 36.9758724 ], [ -122.0592769, 36.9758664 ] ], [ [ -122.0592256, 36.9758724 ], [ -122.0589253, 36.9759102 ] ], [ [ -122.0589253, 36.9759102 ], [ -122.0592256, 36.9758724 ] ], [ [ -122.0589253, 36.9759102 ], [ -122.05891, 36.9759041 ] ], [ [ -122.05891, 36.9759041 ], [ -122.0589253, 36.9759102 ] ], [ [ -122.05891, 36.9759041 ], [ -122.0588943, 36.9758931 ] ], [ [ -122.0588943, 36.9758931 ], [ -122.05891, 36.9759041 ] ], [ [ -122.0588943, 36.9758931 ], [ -122.0588592, 36.9758879 ] ], [ [ -122.0588592, 36.9758879 ], [ -122.0588943, 36.9758931 ] ], [ [ -122.0588592, 36.9758879 ], [ -122.0587505, 36.9758875 ] ], [ [ -122.0587505, 36.9758875 ], [ -122.0588592, 36.9758879 ] ], [ [ -122.0587505, 36.9758875 ], [ -122.0587327, 36.9758944 ] ], [ [ -122.0587327, 36.9758944 ], [ -122.0587505, 36.9758875 ] ], [ [ -122.0587327, 36.9758944 ], [ -122.0587123, 36.9759053 ] ], [ [ -122.0587123, 36.9759053 ], [ -122.0587327, 36.9758944 ] ], [ [ -122.0587123, 36.9759053 ], [ -122.0587027, 36.9759098 ] ], [ [ -122.0587027, 36.9759098 ], [ -122.0587123, 36.9759053 ] ], [ [ -122.0587027, 36.9759098 ], [ -122.0585218, 36.9759078 ] ], [ [ -122.0585218, 36.9759078 ], [ -122.0587027, 36.9759098 ] ], [ [ -122.0585218, 36.9759078 ], [ -122.0584903, 36.9758972 ] ], [ [ -122.0584903, 36.9758972 ], [ -122.0585218, 36.9759078 ] ], [ [ -122.0584903, 36.9758972 ], [ -122.058471, 36.9758842 ] ], [ [ -122.058471, 36.9758842 ], [ -122.0584903, 36.9758972 ] ], [ [ -122.058471, 36.9758842 ], [ -122.0584522, 36.9758599 ] ], [ [ -122.0584522, 36.9758599 ], [ -122.058471, 36.9758842 ] ], [ [ -122.0584522, 36.9758599 ], [ -122.0584496, 36.9758456 ] ], [ [ -122.0584496, 36.9758456 ], [ -122.0584522, 36.9758599 ] ], [ [ -122.0584496, 36.9758456 ], [ -122.0584522, 36.9757218 ] ], [ [ -122.0584522, 36.9757218 ], [ -122.0584496, 36.9758456 ] ], [ [ -122.0584522, 36.9757218 ], [ -122.0584517, 36.9755326 ] ], [ [ -122.0584517, 36.9755326 ], [ -122.0584522, 36.9757218 ] ], [ [ -122.0584517, 36.9755326 ], [ -122.0584547, 36.9753804 ] ], [ [ -122.0584547, 36.9753804 ], [ -122.0584517, 36.9755326 ] ], [ [ -122.0584547, 36.9753804 ], [ -122.0584567, 36.9751673 ] ], [ [ -122.0584567, 36.9751673 ], [ -122.0584547, 36.9753804 ] ], [ [ -122.0584567, 36.9751673 ], [ -122.0584705, 36.9749049 ] ], [ [ -122.0584705, 36.9749049 ], [ -122.0584567, 36.9751673 ] ], [ [ -122.0584705, 36.9749049 ], [ -122.0584786, 36.9747519 ] ], [ [ -122.0584705, 36.9749049 ], [ -122.0586589, 36.9749087 ] ], [ [ -122.0584786, 36.9747519 ], [ -122.0584705, 36.9749049 ] ], [ [ -122.0584786, 36.9747519 ], [ -122.0584787, 36.9747339 ] ], [ [ -122.0584999, 36.9747304 ], [ -122.0584787, 36.9747339 ] ], [ [ -122.0584999, 36.9747304 ], [ -122.0586529, 36.9747166 ] ], [ [ -122.0586529, 36.9747166 ], [ -122.0584999, 36.9747304 ] ], [ [ -122.0586529, 36.9747166 ], [ -122.0589161, 36.974691 ] ], [ [ -122.0589161, 36.974691 ], [ -122.0586529, 36.9747166 ] ], [ [ -122.0585579, 36.9743951 ], [ -122.0585974, 36.9746661 ] ], [ [ -122.0585579, 36.9743951 ], [ -122.0584046, 36.9743877 ] ], [ [ -122.0586093, 36.9734664 ], [ -122.0584435, 36.9734515 ] ], [ [ -122.0586093, 36.9734664 ], [ -122.0586911, 36.9735009 ] ], [ [ -122.0586911, 36.9735009 ], [ -122.0586093, 36.9734664 ] ], [ [ -122.0586911, 36.9735009 ], [ -122.0588569, 36.9736567 ] ], [ [ -122.0588569, 36.9736567 ], [ -122.0586911, 36.9735009 ] ], [ [ -122.0588569, 36.9736567 ], [ -122.0590425, 36.9738143 ] ], [ [ -122.0590425, 36.9738143 ], [ -122.0588569, 36.9736567 ] ], [ [ -122.0590425, 36.9738143 ], [ -122.0591452, 36.9738973 ] ], [ [ -122.0591452, 36.9738973 ], [ -122.0590425, 36.9738143 ] ], [ [ -122.0591452, 36.9738973 ], [ -122.0592106, 36.9739524 ] ], [ [ -122.0592106, 36.9739524 ], [ -122.0591452, 36.9738973 ] ], [ [ -122.0576443, 36.9739786 ], [ -122.0584151, 36.9739893 ] ], [ [ -122.0576593, 36.9734523 ], [ -122.0576553, 36.9733738 ] ], [ [ -122.0576593, 36.9734523 ], [ -122.0576639, 36.973488 ] ], [ [ -122.0576639, 36.973488 ], [ -122.0576593, 36.9734523 ] ], [ [ -122.0576639, 36.973488 ], [ -122.0576809, 36.9735028 ] ], [ [ -122.0576809, 36.9735028 ], [ -122.0576639, 36.973488 ] ], [ [ -122.0571654, 36.9733221 ], [ -122.0575366, 36.9732384 ] ], [ [ -122.0571654, 36.9733221 ], [ -122.057201, 36.9734463 ] ], [ [ -122.057201, 36.9734463 ], [ -122.0571654, 36.9733221 ] ], [ [ -122.0584007, 36.9727889 ], [ -122.0583976, 36.972765 ] ], [ [ -122.0583976, 36.972765 ], [ -122.0584007, 36.9727889 ] ], [ [ -122.0583976, 36.972765 ], [ -122.0583854, 36.9727463 ] ], [ [ -122.0583854, 36.9727463 ], [ -122.0583976, 36.972765 ] ], [ [ -122.0583854, 36.9727463 ], [ -122.0583712, 36.9727435 ] ], [ [ -122.0583712, 36.9727435 ], [ -122.0583854, 36.9727463 ] ], [ [ -122.0583712, 36.9727435 ], [ -122.058358, 36.9727362 ] ], [ [ -122.058358, 36.9727362 ], [ -122.0583712, 36.9727435 ] ], [ [ -122.058358, 36.9727362 ], [ -122.0583473, 36.972724 ] ], [ [ -122.0583473, 36.972724 ], [ -122.058358, 36.9727362 ] ], [ [ -122.0583473, 36.972724 ], [ -122.0583285, 36.9726586 ] ], [ [ -122.0583285, 36.9726586 ], [ -122.0583473, 36.972724 ] ], [ [ -122.0583285, 36.9726586 ], [ -122.0583203, 36.9726302 ] ], [ [ -122.0583087, 36.97259 ], [ -122.0583203, 36.9726302 ] ], [ [ -122.0583087, 36.97259 ], [ -122.058294, 36.9725486 ] ], [ [ -122.058294, 36.9725486 ], [ -122.0583087, 36.97259 ] ], [ [ -122.058294, 36.9725486 ], [ -122.0582909, 36.9725238 ] ], [ [ -122.0582909, 36.9725238 ], [ -122.058294, 36.9725486 ] ], [ [ -122.0582909, 36.9725238 ], [ -122.058296, 36.9725088 ] ], [ [ -122.0582909, 36.9725238 ], [ -122.0581329, 36.9725526 ] ], [ [ -122.058296, 36.9725088 ], [ -122.0582909, 36.9725238 ] ], [ [ -122.058296, 36.9725088 ], [ -122.0583544, 36.9724544 ] ], [ [ -122.0583544, 36.9724544 ], [ -122.058296, 36.9725088 ] ], [ [ -122.0583544, 36.9724544 ], [ -122.0583555, 36.9724455 ] ], [ [ -122.0583555, 36.9724455 ], [ -122.0583544, 36.9724544 ] ], [ [ -122.0583555, 36.9724455 ], [ -122.058357, 36.9723277 ] ], [ [ -122.058357, 36.9723277 ], [ -122.0583555, 36.9724455 ] ], [ [ -122.058357, 36.9723277 ], [ -122.058357, 36.9721381 ] ], [ [ -122.0583661, 36.9719132 ], [ -122.058357, 36.9721381 ] ], [ [ -122.0583661, 36.9719132 ], [ -122.0583639, 36.9718052 ] ], [ [ -122.0583639, 36.9718052 ], [ -122.0583661, 36.9719132 ] ], [ [ -122.0583639, 36.9718052 ], [ -122.0583636, 36.9717922 ] ], [ [ -122.0583639, 36.9718052 ], [ -122.0583468, 36.9717999 ] ], [ [ -122.0583636, 36.9717922 ], [ -122.0583639, 36.9718052 ] ], [ [ -122.0583636, 36.9717922 ], [ -122.0583753, 36.9717764 ] ], [ [ -122.0583753, 36.9717764 ], [ -122.0583636, 36.9717922 ] ], [ [ -122.0583753, 36.9717764 ], [ -122.0584053, 36.9717536 ] ], [ [ -122.0584053, 36.9717536 ], [ -122.0583753, 36.9717764 ] ], [ [ -122.0584053, 36.9717536 ], [ -122.0584098, 36.9717354 ] ], [ [ -122.0584098, 36.9717354 ], [ -122.0584053, 36.9717536 ] ], [ [ -122.0584098, 36.9717354 ], [ -122.0584098, 36.9716785 ] ], [ [ -122.0584098, 36.9716785 ], [ -122.0584098, 36.9717354 ] ], [ [ -122.0584098, 36.9716785 ], [ -122.0584077, 36.971646 ] ], [ [ -122.0583468, 36.9717999 ], [ -122.0583639, 36.9718052 ] ], [ [ -122.0583468, 36.9717999 ], [ -122.0583118, 36.9717967 ] ], [ [ -122.0583118, 36.9717967 ], [ -122.0583468, 36.9717999 ] ], [ [ -122.0583118, 36.9717967 ], [ -122.0582716, 36.9717898 ] ], [ [ -122.0582716, 36.9717898 ], [ -122.0583118, 36.9717967 ] ], [ [ -122.0582716, 36.9717898 ], [ -122.0582498, 36.9717752 ] ], [ [ -122.0582498, 36.9717752 ], [ -122.0582716, 36.9717898 ] ], [ [ -122.0582498, 36.9717752 ], [ -122.0582193, 36.971752 ] ], [ [ -122.0582193, 36.971752 ], [ -122.0582498, 36.9717752 ] ], [ [ -122.0582193, 36.971752 ], [ -122.0581827, 36.9717443 ] ], [ [ -122.0581827, 36.9717443 ], [ -122.0582193, 36.971752 ] ], [ [ -122.0581827, 36.9717443 ], [ -122.0580397, 36.9718639 ] ], [ [ -122.0581827, 36.9717443 ], [ -122.0582129, 36.9717061 ] ], [ [ -122.058022, 36.9718775 ], [ -122.0580397, 36.9718639 ] ], [ [ -122.058022, 36.9718775 ], [ -122.058003, 36.9718922 ] ], [ [ -122.058022, 36.9718775 ], [ -122.0580605, 36.9719087 ] ], [ [ -122.0580269, 36.9721667 ], [ -122.0581055, 36.9721532 ] ], [ [ -122.0580269, 36.9721667 ], [ -122.0580282, 36.9722112 ] ], [ [ -122.0580269, 36.9721667 ], [ -122.0580087, 36.9721482 ] ], [ [ -122.0581386, 36.972002 ], [ -122.0581224, 36.9721113 ] ], [ [ -122.0581386, 36.972002 ], [ -122.0581561, 36.9719961 ] ], [ [ -122.0581386, 36.972002 ], [ -122.0581009, 36.9719753 ] ], [ [ -122.0581561, 36.9719961 ], [ -122.0581386, 36.972002 ] ], [ [ -122.0581561, 36.9719961 ], [ -122.0581682, 36.971975 ] ], [ [ -122.0581682, 36.971975 ], [ -122.0581561, 36.9719961 ] ], [ [ -122.0581682, 36.971975 ], [ -122.0580802, 36.9719 ] ], [ [ -122.0580802, 36.9719 ], [ -122.0581682, 36.971975 ] ], [ [ -122.0580802, 36.9719 ], [ -122.0580605, 36.9719087 ] ], [ [ -122.0580605, 36.9719087 ], [ -122.0580802, 36.9719 ] ], [ [ -122.0580605, 36.9719087 ], [ -122.058022, 36.9718775 ] ], [ [ -122.0580605, 36.9719087 ], [ -122.0580513, 36.9719266 ] ], [ [ -122.0580282, 36.9722112 ], [ -122.0580269, 36.9721667 ] ], [ [ -122.0580282, 36.9722112 ], [ -122.0580211, 36.9722502 ] ], [ [ -122.0580211, 36.9722502 ], [ -122.0580282, 36.9722112 ] ], [ [ -122.0580211, 36.9722502 ], [ -122.0580013, 36.9722672 ] ], [ [ -122.0580211, 36.9722502 ], [ -122.0580598, 36.972281 ] ], [ [ -122.0580013, 36.9722672 ], [ -122.0580211, 36.9722502 ] ], [ [ -122.0580013, 36.9722672 ], [ -122.0579398, 36.9722977 ] ], [ [ -122.0579398, 36.9722977 ], [ -122.0580013, 36.9722672 ] ], [ [ -122.0579398, 36.9722977 ], [ -122.0578967, 36.9723102 ] ], [ [ -122.0578967, 36.9723102 ], [ -122.0579398, 36.9722977 ] ], [ [ -122.0578967, 36.9723102 ], [ -122.0578953, 36.9723197 ] ], [ [ -122.0578967, 36.9723102 ], [ -122.0578886, 36.9722988 ] ], [ [ -122.0578662, 36.9722863 ], [ -122.0578526, 36.9722828 ] ], [ [ -122.0578662, 36.9722863 ], [ -122.0578769, 36.9722905 ] ], [ [ -122.0578526, 36.9722828 ], [ -122.0578662, 36.9722863 ] ], [ [ -122.0578526, 36.9722828 ], [ -122.0578392, 36.9722837 ] ], [ [ -122.0578392, 36.9722837 ], [ -122.0578526, 36.9722828 ] ], [ [ -122.0578392, 36.9722837 ], [ -122.0578283, 36.9722931 ] ], [ [ -122.0578392, 36.9722837 ], [ -122.0578069, 36.9722441 ] ], [ [ -122.0578283, 36.9722931 ], [ -122.0578392, 36.9722837 ] ], [ [ -122.0578283, 36.9722931 ], [ -122.0578201, 36.9723043 ] ], [ [ -122.0578201, 36.9723043 ], [ -122.0578283, 36.9722931 ] ], [ [ -122.0578201, 36.9723043 ], [ -122.0578152, 36.9723135 ] ], [ [ -122.0578152, 36.9723135 ], [ -122.0578201, 36.9723043 ] ], [ [ -122.0578152, 36.9723135 ], [ -122.057813, 36.9723215 ] ], [ [ -122.057813, 36.9723215 ], [ -122.0578152, 36.9723135 ] ], [ [ -122.057813, 36.9723215 ], [ -122.0578157, 36.9723318 ] ], [ [ -122.0578157, 36.9723318 ], [ -122.057813, 36.9723215 ] ], [ [ -122.0578157, 36.9723318 ], [ -122.0578229, 36.9723417 ] ], [ [ -122.0578229, 36.9723417 ], [ -122.0578157, 36.9723318 ] ], [ [ -122.0578229, 36.9723417 ], [ -122.0578347, 36.9723483 ] ], [ [ -122.0578347, 36.9723483 ], [ -122.0578229, 36.9723417 ] ], [ [ -122.0578347, 36.9723483 ], [ -122.0578501, 36.9723522 ] ], [ [ -122.0578501, 36.9723522 ], [ -122.0578347, 36.9723483 ] ], [ [ -122.0578501, 36.9723522 ], [ -122.0578652, 36.9723538 ] ], [ [ -122.0578652, 36.9723538 ], [ -122.0578501, 36.9723522 ] ], [ [ -122.0578652, 36.9723538 ], [ -122.0578793, 36.9723495 ] ], [ [ -122.0578793, 36.9723495 ], [ -122.0578652, 36.9723538 ] ], [ [ -122.0578793, 36.9723495 ], [ -122.057884, 36.9723446 ] ], [ [ -122.057884, 36.9723446 ], [ -122.0578793, 36.9723495 ] ], [ [ -122.057884, 36.9723446 ], [ -122.0578883, 36.9723402 ] ], [ [ -122.057884, 36.9723446 ], [ -122.057985, 36.9724268 ] ], [ [ -122.0578883, 36.9723402 ], [ -122.057884, 36.9723446 ] ], [ [ -122.0578883, 36.9723402 ], [ -122.0578921, 36.9723319 ] ], [ [ -122.0578921, 36.9723319 ], [ -122.0578883, 36.9723402 ] ], [ [ -122.0578921, 36.9723319 ], [ -122.0578953, 36.9723197 ] ], [ [ -122.0578953, 36.9723197 ], [ -122.0578921, 36.9723319 ] ], [ [ -122.0578953, 36.9723197 ], [ -122.0578967, 36.9723102 ] ], [ [ -122.0578886, 36.9722988 ], [ -122.0578967, 36.9723102 ] ], [ [ -122.0578886, 36.9722988 ], [ -122.0578769, 36.9722905 ] ], [ [ -122.0578769, 36.9722905 ], [ -122.0578886, 36.9722988 ] ], [ [ -122.0578769, 36.9722905 ], [ -122.0578662, 36.9722863 ] ], [ [ -122.057985, 36.9724268 ], [ -122.057884, 36.9723446 ] ], [ [ -122.057985, 36.9724268 ], [ -122.0581329, 36.9725526 ] ], [ [ -122.0581329, 36.9725526 ], [ -122.057985, 36.9724268 ] ], [ [ -122.0581329, 36.9725526 ], [ -122.0582909, 36.9725238 ] ], [ [ -122.0581329, 36.9725526 ], [ -122.0580922, 36.9725665 ] ], [ [ -122.0580922, 36.9725665 ], [ -122.0581329, 36.9725526 ] ], [ [ -122.0580922, 36.9725665 ], [ -122.0580109, 36.972577 ] ], [ [ -122.0580109, 36.972577 ], [ -122.0580922, 36.9725665 ] ], [ [ -122.0580109, 36.972577 ], [ -122.0577253, 36.9725742 ] ], [ [ -122.0577253, 36.9725742 ], [ -122.0580109, 36.972577 ] ], [ [ -122.058406, 36.9716195 ], [ -122.0584077, 36.971646 ] ], [ [ -122.0582669, 36.9731297 ], [ -122.0584496, 36.9731297 ] ], [ [ -122.0586589, 36.9749087 ], [ -122.0584705, 36.9749049 ] ], [ [ -122.0576851, 36.9730195 ], [ -122.0576874, 36.9728099 ] ], [ [ -122.0576851, 36.9730195 ], [ -122.0577051, 36.9730441 ] ], [ [ -122.0577051, 36.9730441 ], [ -122.0576851, 36.9730195 ] ], [ [ -122.0549458, 36.9743292 ], [ -122.0550176, 36.9742328 ] ], [ [ -122.0549458, 36.9743292 ], [ -122.0549099, 36.9743866 ] ], [ [ -122.0549099, 36.9743866 ], [ -122.0549458, 36.9743292 ] ], [ [ -122.0549099, 36.9743866 ], [ -122.0548833, 36.9744453 ] ], [ [ -122.0548833, 36.9744453 ], [ -122.0549099, 36.9743866 ] ], [ [ -122.0548833, 36.9744453 ], [ -122.0548596, 36.9745394 ] ], [ [ -122.0548596, 36.9745394 ], [ -122.0548833, 36.9744453 ] ], [ [ -122.0548596, 36.9745394 ], [ -122.0548585, 36.9745734 ] ], [ [ -122.0548585, 36.9745734 ], [ -122.0548596, 36.9745394 ] ], [ [ -122.0548585, 36.9745734 ], [ -122.0548665, 36.9746234 ] ], [ [ -122.0548665, 36.9746234 ], [ -122.0548585, 36.9745734 ] ], [ [ -122.0548665, 36.9746234 ], [ -122.0548956, 36.9746889 ] ], [ [ -122.0548956, 36.9746889 ], [ -122.0548665, 36.9746234 ] ], [ [ -122.0548956, 36.9746889 ], [ -122.0549162, 36.9747421 ] ], [ [ -122.0549162, 36.9747421 ], [ -122.0548956, 36.9746889 ] ], [ [ -122.0549162, 36.9747421 ], [ -122.0549483, 36.9747697 ] ], [ [ -122.0550351, 36.9748155 ], [ -122.0549483, 36.9747697 ] ], [ [ -122.0550351, 36.9748155 ], [ -122.0551249, 36.9748595 ] ], [ [ -122.0551249, 36.9748595 ], [ -122.0550351, 36.9748155 ] ], [ [ -122.0551249, 36.9748595 ], [ -122.0552085, 36.9748883 ] ], [ [ -122.0552085, 36.9748883 ], [ -122.0551249, 36.9748595 ] ], [ [ -122.0552085, 36.9748883 ], [ -122.0552977, 36.9749124 ] ], [ [ -122.0549095, 36.9756617 ], [ -122.054909221358869, 36.975661725058856 ] ], [ [ -122.0549095, 36.9756617 ], [ -122.05490977848963, 36.975661673880104 ] ], [ [ -122.0552236, 36.9756323 ], [ -122.0550609, 36.9756475 ] ], [ [ -122.0552236, 36.9756323 ], [ -122.055533321058078, 36.975603458051197 ] ], [ [ -122.0555522, 36.9756017 ], [ -122.0552236, 36.9756323 ] ], [ [ -122.0555522, 36.9756017 ], [ -122.055608, 36.9755964 ] ], [ [ -122.055608, 36.9755964 ], [ -122.0555522, 36.9756017 ] ], [ [ -122.055608, 36.9755964 ], [ -122.055627, 36.9755901 ] ], [ [ -122.0556325, 36.9756034 ], [ -122.055627, 36.9755901 ] ], [ [ -122.0556325, 36.9756034 ], [ -122.0556363, 36.9756337 ] ], [ [ -122.0556363, 36.9756337 ], [ -122.0556325, 36.9756034 ] ], [ [ -122.0556363, 36.9756337 ], [ -122.0556509, 36.9758148 ] ], [ [ -122.0556509, 36.9758148 ], [ -122.0556363, 36.9756337 ] ], [ [ -122.0556509, 36.9758148 ], [ -122.0556555, 36.9758564 ] ], [ [ -122.0556555, 36.9758564 ], [ -122.0556509, 36.9758148 ] ], [ [ -122.0556555, 36.9758564 ], [ -122.0556572, 36.975882 ] ], [ [ -122.0556584, 36.9759007 ], [ -122.0556572, 36.975882 ] ], [ [ -122.0556584, 36.9759007 ], [ -122.0556719, 36.9760737 ] ], [ [ -122.0556719, 36.9760737 ], [ -122.055664587151298, 36.975979987198109 ] ], [ [ -122.0556719, 36.9760737 ], [ -122.0556736, 36.9761068 ] ], [ [ -122.0556736, 36.9761068 ], [ -122.0556719, 36.9760737 ] ], [ [ -122.0556736, 36.9761068 ], [ -122.0556756, 36.9761286 ] ], [ [ -122.0556783, 36.9761497 ], [ -122.055676047128472, 36.976132094226188 ] ], [ [ -122.0581009, 36.9719753 ], [ -122.0581386, 36.972002 ] ], [ [ -122.0581009, 36.9719753 ], [ -122.0580513, 36.9719365 ] ], [ [ -122.0580513, 36.9719365 ], [ -122.0581009, 36.9719753 ] ], [ [ -122.0580513, 36.9719365 ], [ -122.0580513, 36.9719266 ] ], [ [ -122.0580513, 36.9719266 ], [ -122.0580513, 36.9719365 ] ], [ [ -122.0580513, 36.9719266 ], [ -122.0580605, 36.9719087 ] ], [ [ -122.0578272, 36.9720453 ], [ -122.0577796, 36.9720858 ] ], [ [ -122.0578272, 36.9720453 ], [ -122.0578342, 36.9720491 ] ], [ [ -122.0578272, 36.9720453 ], [ -122.0578222, 36.97204 ] ], [ [ -122.0577796, 36.9720858 ], [ -122.0578272, 36.9720453 ] ], [ [ -122.0577796, 36.9720858 ], [ -122.0577756, 36.972135 ] ], [ [ -122.0577756, 36.972135 ], [ -122.0577796, 36.9720858 ] ], [ [ -122.0577756, 36.972135 ], [ -122.0578069, 36.9722441 ] ], [ [ -122.0578069, 36.9722441 ], [ -122.0577756, 36.972135 ] ], [ [ -122.0578069, 36.9722441 ], [ -122.0578392, 36.9722837 ] ], [ [ -122.0578693, 36.9720384 ], [ -122.0578649, 36.972044 ] ], [ [ -122.0578693, 36.9720384 ], [ -122.0578713, 36.9720318 ] ], [ [ -122.0578649, 36.972044 ], [ -122.0578693, 36.9720384 ] ], [ [ -122.0578649, 36.972044 ], [ -122.057859, 36.9720481 ] ], [ [ -122.057859, 36.9720481 ], [ -122.0578649, 36.972044 ] ], [ [ -122.057859, 36.9720481 ], [ -122.0578422, 36.972051 ] ], [ [ -122.057859, 36.9720481 ], [ -122.0578681, 36.9720554 ] ], [ [ -122.0578422, 36.972051 ], [ -122.057859, 36.9720481 ] ], [ [ -122.0578422, 36.972051 ], [ -122.0578342, 36.9720491 ] ], [ [ -122.0578342, 36.9720491 ], [ -122.0578422, 36.972051 ] ], [ [ -122.0578342, 36.9720491 ], [ -122.0578272, 36.9720453 ] ], [ [ -122.0578222, 36.97204 ], [ -122.0578272, 36.9720453 ] ], [ [ -122.0578222, 36.97204 ], [ -122.0578195, 36.9720333 ] ], [ [ -122.0578195, 36.9720333 ], [ -122.0578222, 36.97204 ] ], [ [ -122.0578195, 36.9720333 ], [ -122.0578197, 36.9720263 ] ], [ [ -122.0578197, 36.9720263 ], [ -122.0578195, 36.9720333 ] ], [ [ -122.0578197, 36.9720263 ], [ -122.0578228, 36.9720198 ] ], [ [ -122.0578228, 36.9720198 ], [ -122.0578197, 36.9720263 ] ], [ [ -122.0578228, 36.9720198 ], [ -122.0578276, 36.972015 ] ], [ [ -122.0578276, 36.972015 ], [ -122.0578228, 36.9720198 ] ], [ [ -122.0578276, 36.972015 ], [ -122.0578334, 36.9720119 ] ], [ [ -122.0578334, 36.9720119 ], [ -122.0578276, 36.972015 ] ], [ [ -122.0578334, 36.9720119 ], [ -122.0578445, 36.9720095 ] ], [ [ -122.0578532, 36.9720104 ], [ -122.0578445, 36.9720095 ] ], [ [ -122.0578532, 36.9720104 ], [ -122.057861, 36.9720137 ] ], [ [ -122.057861, 36.9720137 ], [ -122.0578532, 36.9720104 ] ], [ [ -122.057861, 36.9720137 ], [ -122.057867, 36.9720188 ] ], [ [ -122.0578706, 36.9720252 ], [ -122.057867, 36.9720188 ] ], [ [ -122.0578706, 36.9720252 ], [ -122.0578713, 36.9720318 ] ], [ [ -122.0578713, 36.9720318 ], [ -122.0578706, 36.9720252 ] ], [ [ -122.0578713, 36.9720318 ], [ -122.0578693, 36.9720384 ] ], [ [ -122.0577924, 36.971978 ], [ -122.0578081, 36.9719709 ] ], [ [ -122.0577924, 36.971978 ], [ -122.0577714, 36.9719776 ] ], [ [ -122.0577714, 36.9719776 ], [ -122.0577924, 36.971978 ] ], [ [ -122.0577714, 36.9719776 ], [ -122.0577481, 36.9719584 ] ], [ [ -122.0577481, 36.9719584 ], [ -122.0577714, 36.9719776 ] ], [ [ -122.0577481, 36.9719584 ], [ -122.0577107, 36.97193 ] ], [ [ -122.0577107, 36.97193 ], [ -122.0577481, 36.9719584 ] ], [ [ -122.0577107, 36.97193 ], [ -122.0577061, 36.9719151 ] ], [ [ -122.0577061, 36.9719151 ], [ -122.0577107, 36.97193 ] ], [ [ -122.0577061, 36.9719151 ], [ -122.0577154, 36.9719034 ] ], [ [ -122.0577154, 36.9719034 ], [ -122.0577061, 36.9719151 ] ], [ [ -122.0577154, 36.9719034 ], [ -122.0577393, 36.971889 ] ], [ [ -122.0577393, 36.971889 ], [ -122.0577154, 36.9719034 ] ], [ [ -122.0577393, 36.971889 ], [ -122.0577568, 36.9718903 ] ], [ [ -122.0580087, 36.9721482 ], [ -122.0580269, 36.9721667 ] ], [ [ -122.0580087, 36.9721482 ], [ -122.0579609, 36.972116 ] ], [ [ -122.0579609, 36.972116 ], [ -122.0580087, 36.9721482 ] ], [ [ -122.0579609, 36.972116 ], [ -122.0578926, 36.9720717 ] ], [ [ -122.0578926, 36.9720717 ], [ -122.0579609, 36.972116 ] ], [ [ -122.0578926, 36.9720717 ], [ -122.0578681, 36.9720554 ] ], [ [ -122.0578681, 36.9720554 ], [ -122.0578926, 36.9720717 ] ], [ [ -122.0578681, 36.9720554 ], [ -122.057859, 36.9720481 ] ], [ [ -122.0580598, 36.972281 ], [ -122.0580211, 36.9722502 ] ], [ [ -122.0580598, 36.972281 ], [ -122.0580519, 36.972303 ] ], [ [ -122.0580598, 36.972281 ], [ -122.0580722, 36.9722704 ] ], [ [ -122.0580519, 36.972303 ], [ -122.0580598, 36.972281 ] ], [ [ -122.0580519, 36.972303 ], [ -122.0580713, 36.9723227 ] ], [ [ -122.0580713, 36.9723227 ], [ -122.0580519, 36.972303 ] ], [ [ -122.0580713, 36.9723227 ], [ -122.0581138, 36.9723517 ] ], [ [ -122.0581138, 36.9723517 ], [ -122.0580713, 36.9723227 ] ], [ [ -122.0581138, 36.9723517 ], [ -122.0581341, 36.9723461 ] ], [ [ -122.0581341, 36.9723461 ], [ -122.0581138, 36.9723517 ] ], [ [ -122.0581341, 36.9723461 ], [ -122.0581571, 36.9723319 ] ], [ [ -122.0581571, 36.9723319 ], [ -122.0581341, 36.9723461 ] ], [ [ -122.0581571, 36.9723319 ], [ -122.0581616, 36.9723136 ] ], [ [ -122.0581616, 36.9723136 ], [ -122.0581571, 36.9723319 ] ], [ [ -122.0581616, 36.9723136 ], [ -122.058151, 36.9722938 ] ], [ [ -122.058151, 36.9722938 ], [ -122.0581616, 36.9723136 ] ], [ [ -122.058151, 36.9722938 ], [ -122.0581173, 36.9722761 ] ], [ [ -122.0581173, 36.9722761 ], [ -122.058151, 36.9722938 ] ], [ [ -122.0581173, 36.9722761 ], [ -122.0580943, 36.9722612 ] ], [ [ -122.0580943, 36.9722612 ], [ -122.0581173, 36.9722761 ] ], [ [ -122.0580943, 36.9722612 ], [ -122.0580722, 36.9722704 ] ], [ [ -122.0580943, 36.9722612 ], [ -122.0580961, 36.9722365 ] ], [ [ -122.0580722, 36.9722704 ], [ -122.0580943, 36.9722612 ] ], [ [ -122.0580722, 36.9722704 ], [ -122.0580598, 36.972281 ] ], [ [ -122.0580961, 36.9722365 ], [ -122.0580943, 36.9722612 ] ], [ [ -122.0584891, 36.9782185 ], [ -122.05851103571851, 36.97821842496333 ] ], [ [ -122.0584891, 36.9782185 ], [ -122.058469378517501, 36.978226205744818 ] ], [ [ -122.0584589, 36.9782303 ], [ -122.0584891, 36.9782185 ] ], [ [ -122.0584589, 36.9782303 ], [ -122.0584307, 36.9782523 ] ], [ [ -122.0584173, 36.9782801 ], [ -122.0584307, 36.9782523 ] ], [ [ -122.0584173, 36.9782801 ], [ -122.058415701286378, 36.978326382759384 ] ], [ [ -122.0593239, 36.976958 ], [ -122.0590744, 36.9769382 ] ], [ [ -122.0590744, 36.9769382 ], [ -122.0593239, 36.976958 ] ], [ [ -122.0590744, 36.9769382 ], [ -122.0590295, 36.9769151 ] ], [ [ -122.0590295, 36.9769151 ], [ -122.0590744, 36.9769382 ] ], [ [ -122.0590295, 36.9769151 ], [ -122.0590134, 36.9768996 ] ], [ [ -122.0590134, 36.9768996 ], [ -122.0590295, 36.9769151 ] ], [ [ -122.0590134, 36.9768996 ], [ -122.0589789, 36.9768937 ] ], [ [ -122.0589155, 36.9768835 ], [ -122.0589789, 36.9768937 ] ], [ [ -122.0589155, 36.9768835 ], [ -122.058886, 36.9768996 ] ], [ [ -122.058886, 36.9768996 ], [ -122.0589155, 36.9768835 ] ], [ [ -122.058886, 36.9768996 ], [ -122.0586526, 36.9768862 ] ], [ [ -122.0586526, 36.9768862 ], [ -122.058886, 36.9768996 ] ], [ [ -122.0580069, 36.9718072 ], [ -122.0579971, 36.9718223 ] ], [ [ -122.0580069, 36.9718072 ], [ -122.0580029, 36.9717868 ] ], [ [ -122.0580029, 36.9717868 ], [ -122.0580069, 36.9718072 ] ], [ [ -122.0580029, 36.9717868 ], [ -122.0579452, 36.9717413 ] ], [ [ -122.0579452, 36.9717413 ], [ -122.0580029, 36.9717868 ] ], [ [ -122.0579452, 36.9717413 ], [ -122.0579216, 36.971743 ] ], [ [ -122.058396458644708, 36.97478892753098 ], [ -122.0583965, 36.9747812 ] ], [ [ -122.058396458644708, 36.97478892753098 ], [ -122.0583916, 36.9756968 ] ] ] } }
]
}
