{
"type": "FeatureCollection",
"name": "king",
"crs": { "type": "name", "properties": { "name": "urn:ogc:def:crs:OGC:1.3:CRS84" } },
"features": [
{ "type": "Feature", "properties": { "type": "lines", "start": "-122.043039, 36.968119" }, "geometry": { "type": "MultiLineString", "coordinates": [ [ [ -122.0427072, 36.9685177 ], [ -122.0426282, 36.9684897 ] ], [ [ -122.0427072, 36.9685177 ], [ -122.042604, 36.96863 ] ], [ [ -122.0427072, 36.9685177 ], [ -122.0428489, 36.9683791 ] ], [ [ -122.0426282, 36.9684897 ], [ -122.0427072, 36.9685177 ] ], [ [ -122.0426282, 36.9684897 ], [ -122.0419127, 36.9681018 ] ], [ [ -122.0426282, 36.9684897 ], [ -122.0429407, 36.9681768 ] ], [ [ -122.0426282, 36.9684897 ], [ -122.0418771, 36.9692413 ] ], [ [ -122.0419127, 36.9681018 ], [ -122.0426282, 36.9684897 ] ], [ [ -122.0419127, 36.9681018 ], [ -122.0418573, 36.9681025 ] ], [ [ -122.0418573, 36.9681025 ], [ -122.0419127, 36.9681018 ] ], [ [ -122.0418573, 36.9681025 ], [ -122.0417043, 36.9680324 ] ], [ [ -122.0409591, 36.9701118 ], [ -122.039927406348937, 36.969611815946372 ] ], [ [ -122.0409591, 36.9701118 ], [ -122.0409821, 36.9701286 ] ], [ [ -122.0409821, 36.9701286 ], [ -122.0409591, 36.9701118 ] ], [ [ -122.0409821, 36.9701286 ], [ -122.0410419, 36.9701891 ] ], [ [ -122.0409821, 36.9701286 ], [ -122.0409414, 36.9701662 ] ], [ [ -122.0409821, 36.9701286 ], [ -122.041053, 36.9700577 ] ], [ [ -122.0410419, 36.9701891 ], [ -122.0409821, 36.9701286 ] ], [ [ -122.0410419, 36.9701891 ], [ -122.0410885, 36.9702383 ] ], [ [ -122.0410419, 36.9701891 ], [ -122.04093, 36.9703047 ] ], [ [ -122.0410419, 36.9701891 ], [ -122.0416346, 36.9695893 ] ], [ [ -122.0410885, 36.9702383 ], [ -122.0410419, 36.9701891 ] ], [ [ -122.0410885, 36.9702383 ], [ -122.0410953, 36.9702459 ] ], [ [ -122.0410953, 36.9702459 ], [ -122.0410885, 36.9702383 ] ], [ [ -122.0410953, 36.9702459 ], [ -122.041948786843435, 36.970803251500655 ] ], [ [ -122.0410953, 36.9702459 ], [ -122.0411322, 36.9702148 ] ], [ [ -122.0410953, 36.9702459 ], [ -122.0410622, 36.9702774 ] ], [ [ -122.0426351, 36.9701568 ], [ -122.0426947, 36.9700974 ] ], [ [ -122.0426351, 36.9701568 ], [ -122.041847086317233, 36.969654672836413 ] ], [ [ -122.0426351, 36.9701568 ], [ -122.043421763922581, 36.970660294028178 ] ], [ [ -122.0426947, 36.9700974 ], [ -122.0426351, 36.9701568 ] ], [ [ -122.0426947, 36.9700974 ], [ -122.043385477312398, 36.969409166561192 ] ], [ [ -122.0426947, 36.9700974 ], [ -122.0427748, 36.9701492 ] ], [ [ -122.0426947, 36.9700974 ], [ -122.0426342, 36.9700583 ] ], [ [ -122.0441882, 36.9686094 ], [ -122.0426947, 36.9700974 ] ], [ [ -122.0441882, 36.9686094 ], [ -122.0442357, 36.9685521 ] ], [ [ -122.0441882, 36.9686094 ], [ -122.0442773, 36.9686458 ] ], [ [ -122.0441882, 36.9686094 ], [ -122.0441064, 36.9685799 ] ], [ [ -122.0442357, 36.9685521 ], [ -122.0441882, 36.9686094 ] ], [ [ -122.0442357, 36.9685521 ], [ -122.0442747, 36.9684973 ] ], [ [ -122.0442357, 36.9685521 ], [ -122.0436588, 36.9683467 ] ], [ [ -122.0442357, 36.9685521 ], [ -122.0453902, 36.9689393 ] ], [ [ -122.0442747, 36.9684973 ], [ -122.0442357, 36.9685521 ] ], [ [ -122.0442747, 36.9684973 ], [ -122.0447128, 36.9680113 ] ], [ [ -122.0442747, 36.9684973 ], [ -122.0443389, 36.9685233 ] ], [ [ -122.0442747, 36.9684973 ], [ -122.0441994, 36.9684671 ] ], [ [ -122.0447128, 36.9680113 ], [ -122.0442747, 36.9684973 ] ], [ [ -122.0447128, 36.9680113 ], [ -122.0451478, 36.9675109 ] ], [ [ -122.0447128, 36.9680113 ], [ -122.0446497, 36.9679748 ] ], [ [ -122.0451478, 36.9675109 ], [ -122.0447128, 36.9680113 ] ], [ [ -122.0451478, 36.9675109 ], [ -122.0451926, 36.9674591 ] ], [ [ -122.0451478, 36.9675109 ], [ -122.0450978, 36.9674808 ] ], [ [ -122.0451478, 36.9675109 ], [ -122.0452225, 36.9675572 ] ], [ [ -122.0451926, 36.9674591 ], [ -122.0451478, 36.9675109 ] ], [ [ -122.0451926, 36.9674591 ], [ -122.0452426, 36.9674068 ] ], [ [ -122.0451926, 36.9674591 ], [ -122.0451476, 36.9674279 ] ], [ [ -122.0451926, 36.9674591 ], [ -122.0452632, 36.9675075 ] ], [ [ -122.0452426, 36.9674068 ], [ -122.0451926, 36.9674591 ] ], [ [ -122.0452426, 36.9674068 ], [ -122.0457506, 36.9668704 ] ], [ [ -122.0452426, 36.9674068 ], [ -122.0453163, 36.9674512 ] ], [ [ -122.0452426, 36.9674068 ], [ -122.0451946, 36.967378 ] ], [ [ -122.0457506, 36.9668704 ], [ -122.04537556694325, 36.967266399471733 ] ], [ [ -122.0457506, 36.9668704 ], [ -122.0458249, 36.9668541 ] ], [ [ -122.0457506, 36.9668704 ], [ -122.0458846, 36.9667383 ] ], [ [ -122.0465041, 36.9690937 ], [ -122.046588, 36.9691169 ] ], [ [ -122.0465041, 36.9690937 ], [ -122.046580891856493, 36.968834590867203 ] ], [ [ -122.0465041, 36.9690937 ], [ -122.046417, 36.9692189 ] ], [ [ -122.046588, 36.9691169 ], [ -122.0465041, 36.9690937 ] ], [ [ -122.046588, 36.9691169 ], [ -122.046820829278118, 36.969173228129399 ] ], [ [ -122.046588, 36.9691169 ], [ -122.0465628, 36.9691799 ] ], [ [ -122.046588, 36.9691169 ], [ -122.046625, 36.9690173 ] ], [ [ -122.0421791, 36.9676632 ], [ -122.0422248, 36.9676051 ] ], [ [ -122.0421791, 36.9676632 ], [ -122.0420832, 36.9676092 ] ], [ [ -122.0421791, 36.9676632 ], [ -122.0426156, 36.9679021 ] ], [ [ -122.0422248, 36.9676051 ], [ -122.0421791, 36.9676632 ] ], [ [ -122.0422248, 36.9676051 ], [ -122.0432863, 36.9663732 ] ], [ [ -122.0422248, 36.9676051 ], [ -122.0423028, 36.967646 ] ], [ [ -122.0422248, 36.9676051 ], [ -122.0421718, 36.9675768 ] ], [ [ -122.0432863, 36.9663732 ], [ -122.042431686786202, 36.967365002183776 ] ], [ [ -122.0432863, 36.9663732 ], [ -122.0433309, 36.966322 ] ], [ [ -122.0432863, 36.9663732 ], [ -122.0433497, 36.9664119 ] ], [ [ -122.0432863, 36.9663732 ], [ -122.0432278, 36.9663393 ] ], [ [ -122.0433309, 36.966322 ], [ -122.0432863, 36.9663732 ] ], [ [ -122.0433309, 36.966322 ], [ -122.0433753, 36.9662693 ] ], [ [ -122.0433309, 36.966322 ], [ -122.0432683, 36.9662882 ] ], [ [ -122.0433309, 36.966322 ], [ -122.0433923, 36.9663569 ] ], [ [ -122.0433753, 36.9662693 ], [ -122.0433309, 36.966322 ] ], [ [ -122.0433753, 36.9662693 ], [ -122.0437463, 36.9658333 ] ], [ [ -122.0433753, 36.9662693 ], [ -122.0433099, 36.9662337 ] ], [ [ -122.0433753, 36.9662693 ], [ -122.0434407, 36.9663033 ] ], [ [ -122.0437463, 36.9658333 ], [ -122.0433753, 36.9662693 ] ], [ [ -122.0422335, 36.9657136 ], [ -122.042155116428262, 36.96567062373726 ] ], [ [ -122.0422335, 36.9657136 ], [ -122.042276, 36.9656679 ] ], [ [ -122.0422335, 36.9657136 ], [ -122.0421886, 36.9657637 ] ], [ [ -122.0412478, 36.9671515 ], [ -122.0412963, 36.9670944 ] ], [ [ -122.0412478, 36.9671515 ], [ -122.0407544, 36.9668863 ] ], [ [ -122.0412478, 36.9671515 ], [ -122.0420832, 36.9676092 ] ], [ [ -122.0412963, 36.9670944 ], [ -122.0412478, 36.9671515 ] ], [ [ -122.0412963, 36.9670944 ], [ -122.0416157, 36.9667248 ] ], [ [ -122.0412963, 36.9670944 ], [ -122.0413775, 36.9671394 ] ], [ [ -122.0412963, 36.9670944 ], [ -122.0412478, 36.9670743 ] ], [ [ -122.0416157, 36.9667248 ], [ -122.0412963, 36.9670944 ] ], [ [ -122.0416157, 36.9667248 ], [ -122.0419484, 36.96634 ] ], [ [ -122.0416157, 36.9667248 ], [ -122.0415749, 36.9667001 ] ], [ [ -122.0419484, 36.96634 ], [ -122.0416157, 36.9667248 ] ], [ [ -122.0419484, 36.96634 ], [ -122.0423706, 36.9658664 ] ], [ [ -122.0419484, 36.96634 ], [ -122.0419024, 36.9663142 ] ], [ [ -122.0423706, 36.9658664 ], [ -122.042143488546216, 36.966121160740194 ] ], [ [ -122.0423706, 36.9658664 ], [ -122.0424118, 36.9658188 ] ], [ [ -122.0423706, 36.9658664 ], [ -122.0423125, 36.9658311 ] ], [ [ -122.0423706, 36.9658664 ], [ -122.0424382, 36.965905 ] ], [ [ -122.0424118, 36.9658188 ], [ -122.0423706, 36.9658664 ] ], [ [ -122.0424118, 36.9658188 ], [ -122.042674506674359, 36.965962774912953 ] ], [ [ -122.0424118, 36.9658188 ], [ -122.0424597, 36.9657656 ] ], [ [ -122.0416788, 36.9695454 ], [ -122.0417503, 36.969593 ] ], [ [ -122.0416788, 36.9695454 ], [ -122.0416346, 36.9695893 ] ], [ [ -122.0416788, 36.9695454 ], [ -122.0418793, 36.969351 ] ], [ [ -122.0417503, 36.969593 ], [ -122.0416788, 36.9695454 ] ], [ [ -122.0417503, 36.969593 ], [ -122.0426351, 36.9701568 ] ], [ [ -122.0417503, 36.969593 ], [ -122.0417962, 36.9695341 ] ], [ [ -122.0417503, 36.969593 ], [ -122.0417033, 36.9696303 ] ], [ [ -122.0437391, 36.9674296 ], [ -122.0438133, 36.9674734 ] ], [ [ -122.0437391, 36.9674296 ], [ -122.0431451, 36.9680853 ] ], [ [ -122.0437391, 36.9674296 ], [ -122.0442138, 36.9668844 ] ], [ [ -122.0438133, 36.9674734 ], [ -122.0437391, 36.9674296 ] ], [ [ -122.0438133, 36.9674734 ], [ -122.0442075, 36.967706 ] ], [ [ -122.0438133, 36.9674734 ], [ -122.0437747, 36.9675157 ] ], [ [ -122.0438133, 36.9674734 ], [ -122.0438444, 36.9674393 ] ], [ [ -122.0442075, 36.967706 ], [ -122.0438133, 36.9674734 ] ], [ [ -122.0442075, 36.967706 ], [ -122.0446497, 36.9679748 ] ], [ [ -122.0442075, 36.967706 ], [ -122.0441694, 36.9677505 ] ], [ [ -122.0442075, 36.967706 ], [ -122.0442623, 36.9676775 ] ], [ [ -122.0446497, 36.9679748 ], [ -122.0442075, 36.967706 ] ], [ [ -122.0446497, 36.9679748 ], [ -122.0447128, 36.9680113 ] ], [ [ -122.0446497, 36.9679748 ], [ -122.0446165, 36.9680163 ] ], [ [ -122.0446497, 36.9679748 ], [ -122.0446919, 36.9679319 ] ], [ [ -122.0453261, 36.9690374 ], [ -122.044210514644973, 36.97016827285718 ] ], [ [ -122.0453261, 36.9690374 ], [ -122.0453442, 36.9690101 ] ], [ [ -122.0453442, 36.9690101 ], [ -122.0453261, 36.9690374 ] ], [ [ -122.0453442, 36.9690101 ], [ -122.0453902, 36.9689393 ] ], [ [ -122.0453442, 36.9690101 ], [ -122.0454149, 36.9690392 ] ], [ [ -122.0453442, 36.9690101 ], [ -122.0452577, 36.9689839 ] ], [ [ -122.0453902, 36.9689393 ], [ -122.0453442, 36.9690101 ] ], [ [ -122.0453902, 36.9689393 ], [ -122.0454281, 36.9688857 ] ], [ [ -122.0453902, 36.9689393 ], [ -122.0442357, 36.9685521 ] ], [ [ -122.0453902, 36.9689393 ], [ -122.0455262, 36.9690027 ] ], [ [ -122.0454281, 36.9688857 ], [ -122.0453902, 36.9689393 ] ], [ [ -122.0454281, 36.9688857 ], [ -122.0454747, 36.9688198 ] ], [ [ -122.0454281, 36.9688857 ], [ -122.0454733, 36.9688975 ] ], [ [ -122.0454281, 36.9688857 ], [ -122.0453218, 36.9688578 ] ], [ [ -122.0454747, 36.9688198 ], [ -122.0454281, 36.9688857 ] ], [ [ -122.0454747, 36.9688198 ], [ -122.0460757, 36.9681358 ] ], [ [ -122.0460757, 36.9681358 ], [ -122.04565525683816, 36.968614307691681 ] ], [ [ -122.0460757, 36.9681358 ], [ -122.046118, 36.968087 ] ], [ [ -122.0460757, 36.9681358 ], [ -122.0460254, 36.9680984 ] ], [ [ -122.0460757, 36.9681358 ], [ -122.0461282, 36.9681665 ] ], [ [ -122.046118, 36.968087 ], [ -122.0460757, 36.9681358 ] ], [ [ -122.046118, 36.968087 ], [ -122.045617232285551, 36.967747511358773 ] ], [ [ -122.046118, 36.968087 ], [ -122.0463898, 36.9682467 ] ], [ [ -122.0403023, 36.9709185 ], [ -122.040285566185901, 36.970918993987134 ] ], [ [ -122.0403023, 36.9709185 ], [ -122.040319043617657, 36.970918319127591 ] ], [ [ -122.0403023, 36.9709185 ], [ -122.040292100194733, 36.970929155735256 ] ], [ [ -122.0403023, 36.9709185 ], [ -122.040313713406064, 36.970908668545093 ] ], [ [ -122.0466638, 36.9699582 ], [ -122.046739635050272, 36.970033933666514 ] ], [ [ -122.0466638, 36.9699582 ], [ -122.046582076946876, 36.96988651814447 ] ], [ [ -122.0434691, 36.9682836 ], [ -122.0436588, 36.9683467 ] ], [ [ -122.0434691, 36.9682836 ], [ -122.0433313, 36.9682378 ] ], [ [ -122.0436588, 36.9683467 ], [ -122.0434691, 36.9682836 ] ], [ [ -122.0436588, 36.9683467 ], [ -122.0442357, 36.9685521 ] ], [ [ -122.0436588, 36.9683467 ], [ -122.043696, 36.9683032 ] ], [ [ -122.0455262, 36.9690027 ], [ -122.0453902, 36.9689393 ] ], [ [ -122.0455262, 36.9690027 ], [ -122.0456791, 36.9691078 ] ], [ [ -122.0456791, 36.9691078 ], [ -122.0455262, 36.9690027 ] ], [ [ -122.0456791, 36.9691078 ], [ -122.0460028, 36.9693777 ] ], [ [ -122.0460028, 36.9693777 ], [ -122.0456791, 36.9691078 ] ], [ [ -122.0460028, 36.9693777 ], [ -122.0461643, 36.9695067 ] ], [ [ -122.0461643, 36.9695067 ], [ -122.0460028, 36.9693777 ] ], [ [ -122.0461643, 36.9695067 ], [ -122.0460997, 36.969567 ] ], [ [ -122.0461643, 36.9695067 ], [ -122.0462438, 36.9695492 ] ], [ [ -122.0461643, 36.9695067 ], [ -122.0462805, 36.9695148 ] ], [ [ -122.0461643, 36.9695067 ], [ -122.0462093, 36.9695749 ] ], [ [ -122.0461643, 36.9695067 ], [ -122.0462564, 36.9694091 ] ], [ [ -122.0404319, 36.9709171 ], [ -122.040412561656851, 36.970917308901853 ] ], [ [ -122.0404319, 36.9709171 ], [ -122.040446969843444, 36.97092682647655 ] ], [ [ -122.0404319, 36.9709171 ], [ -122.040419760750822, 36.970929180463472 ] ], [ [ -122.0404319, 36.9709171 ], [ -122.040444525763675, 36.970905344978654 ] ], [ [ -122.0410654, 36.9679744 ], [ -122.0411939, 36.9680401 ] ], [ [ -122.0410654, 36.9679744 ], [ -122.040908, 36.9679173 ] ], [ [ -122.0411939, 36.9680401 ], [ -122.0410654, 36.9679744 ] ], [ [ -122.0411939, 36.9680401 ], [ -122.0412546, 36.9680732 ] ], [ [ -122.0411939, 36.9680401 ], [ -122.0412049, 36.9680264 ] ], [ [ -122.0411939, 36.9680401 ], [ -122.0411834, 36.9680532 ] ], [ [ -122.0460997, 36.969567 ], [ -122.045587870944217, 36.970052564613894 ] ], [ [ -122.0460997, 36.969567 ], [ -122.0461643, 36.9695067 ] ], [ [ -122.0460997, 36.969567 ], [ -122.0461627, 36.9696259 ] ], [ [ -122.0460997, 36.969567 ], [ -122.0460357, 36.969534 ] ], [ [ -122.0462438, 36.9695492 ], [ -122.0461643, 36.9695067 ] ], [ [ -122.0462438, 36.9695492 ], [ -122.0463163, 36.9696115 ] ], [ [ -122.0462438, 36.9695492 ], [ -122.0462805, 36.9695148 ] ], [ [ -122.0462438, 36.9695492 ], [ -122.0462093, 36.9695749 ] ], [ [ -122.0463163, 36.9696115 ], [ -122.0462438, 36.9695492 ] ], [ [ -122.0463163, 36.9696115 ], [ -122.046424, 36.9696818 ] ], [ [ -122.046424, 36.9696818 ], [ -122.0463163, 36.9696115 ] ], [ [ -122.046424, 36.9696818 ], [ -122.0464602, 36.969715 ] ], [ [ -122.0464602, 36.969715 ], [ -122.046424, 36.9696818 ] ], [ [ -122.0464602, 36.969715 ], [ -122.0467399, 36.9699699 ] ], [ [ -122.0464602, 36.969715 ], [ -122.0465043, 36.9696798 ] ], [ [ -122.0464602, 36.969715 ], [ -122.0464644, 36.9697833 ] ], [ [ -122.0467399, 36.9699699 ], [ -122.046701646509888, 36.969935038310226 ] ], [ [ -122.0467399, 36.9699699 ], [ -122.0467865, 36.9699809 ] ], [ [ -122.0467865, 36.9699809 ], [ -122.046777565337933, 36.969978790959601 ] ], [ [ -122.0467865, 36.9699809 ], [ -122.046794335369896, 36.969976860558845 ] ], [ [ -122.0432683, 36.9662882 ], [ -122.0424118, 36.9658188 ] ], [ [ -122.0432683, 36.9662882 ], [ -122.0433309, 36.966322 ] ], [ [ -122.0432683, 36.9662882 ], [ -122.0432278, 36.9663393 ] ], [ [ -122.0432683, 36.9662882 ], [ -122.0433099, 36.9662337 ] ], [ [ -122.0433923, 36.9663569 ], [ -122.0433309, 36.966322 ] ], [ [ -122.0433923, 36.9663569 ], [ -122.0441846, 36.9668109 ] ], [ [ -122.0433923, 36.9663569 ], [ -122.0434407, 36.9663033 ] ], [ [ -122.0433923, 36.9663569 ], [ -122.0433497, 36.9664119 ] ], [ [ -122.0441846, 36.9668109 ], [ -122.0433923, 36.9663569 ] ], [ [ -122.0441846, 36.9668109 ], [ -122.0442474, 36.9668482 ] ], [ [ -122.0441846, 36.9668109 ], [ -122.0441563, 36.9668493 ] ], [ [ -122.0441846, 36.9668109 ], [ -122.0442392, 36.9667486 ] ], [ [ -122.0442474, 36.9668482 ], [ -122.0441846, 36.9668109 ] ], [ [ -122.0442474, 36.9668482 ], [ -122.0443295, 36.9668966 ] ], [ [ -122.0442474, 36.9668482 ], [ -122.0442138, 36.9668844 ] ], [ [ -122.0442474, 36.9668482 ], [ -122.0442997, 36.9667864 ] ], [ [ -122.0424597, 36.9657656 ], [ -122.0424118, 36.9658188 ] ], [ [ -122.0424597, 36.9657656 ], [ -122.042276, 36.9656679 ] ], [ [ -122.0424597, 36.9657656 ], [ -122.042661153790476, 36.965876515689622 ] ], [ [ -122.042276, 36.9656679 ], [ -122.042295944969879, 36.965678507640483 ] ], [ [ -122.042276, 36.9656679 ], [ -122.042261689279798, 36.965683288233258 ] ], [ [ -122.042276, 36.9656679 ], [ -122.042256315401815, 36.9656569837041 ] ], [ [ -122.0455813, 36.9655126 ], [ -122.045760206464749, 36.965626866145335 ] ], [ [ -122.0455813, 36.9655126 ], [ -122.0455119, 36.965465 ] ], [ [ -122.0455813, 36.9655126 ], [ -122.0456261, 36.9654598 ] ], [ [ -122.0455813, 36.9655126 ], [ -122.045541, 36.9655551 ] ], [ [ -122.0455119, 36.965465 ], [ -122.0455813, 36.9655126 ] ], [ [ -122.0455119, 36.965465 ], [ -122.0454654, 36.9654308 ] ], [ [ -122.0455119, 36.965465 ], [ -122.0454725, 36.9655107 ] ], [ [ -122.0455119, 36.965465 ], [ -122.0455569, 36.9654153 ] ], [ [ -122.0454654, 36.9654308 ], [ -122.0455119, 36.965465 ] ], [ [ -122.0454654, 36.9654308 ], [ -122.045265585491578, 36.965293241353628 ] ], [ [ -122.0454654, 36.9654308 ], [ -122.0454261, 36.9654767 ] ], [ [ -122.0454654, 36.9654308 ], [ -122.0455114, 36.9653838 ] ], [ [ -122.0461547, 36.9670994 ], [ -122.046203881778013, 36.96714413448958 ] ], [ [ -122.0461547, 36.9670994 ], [ -122.046112261071656, 36.967050420948908 ] ], [ [ -122.0460366, 36.9669631 ], [ -122.0461547, 36.9670994 ] ], [ [ -122.0460366, 36.9669631 ], [ -122.0459623, 36.9668976 ] ], [ [ -122.0460366, 36.9669631 ], [ -122.0459471, 36.9668034 ] ], [ [ -122.0395528, 36.9671523 ], [ -122.0396306, 36.9672251 ] ], [ [ -122.0395528, 36.9671523 ], [ -122.0394875, 36.9670903 ] ], [ [ -122.0395528, 36.9671523 ], [ -122.0394199, 36.9672328 ] ], [ [ -122.0395528, 36.9671523 ], [ -122.039729553247213, 36.967040432108234 ] ], [ [ -122.0396306, 36.9672251 ], [ -122.0395528, 36.9671523 ] ], [ [ -122.0396306, 36.9672251 ], [ -122.0396639, 36.9672432 ] ], [ [ -122.0396306, 36.9672251 ], [ -122.0397038, 36.9671884 ] ], [ [ -122.0396306, 36.9672251 ], [ -122.0395551, 36.9672598 ] ], [ [ -122.0396639, 36.9672432 ], [ -122.0396306, 36.9672251 ] ], [ [ -122.0396639, 36.9672432 ], [ -122.0398176, 36.9673271 ] ], [ [ -122.0398176, 36.9673271 ], [ -122.0396639, 36.9672432 ] ], [ [ -122.0398176, 36.9673271 ], [ -122.0398514, 36.9673456 ] ], [ [ -122.0398176, 36.9673271 ], [ -122.039781, 36.9673775 ] ], [ [ -122.0398514, 36.9673456 ], [ -122.0398176, 36.9673271 ] ], [ [ -122.0398514, 36.9673456 ], [ -122.040338765980991, 36.96760930161966 ] ], [ [ -122.040908, 36.9679173 ], [ -122.0398514, 36.9673456 ] ], [ [ -122.040908, 36.9679173 ], [ -122.0410654, 36.9679744 ] ], [ [ -122.0417043, 36.9680324 ], [ -122.0418573, 36.9681025 ] ], [ [ -122.0417043, 36.9680324 ], [ -122.0415305, 36.9679637 ] ], [ [ -122.0417043, 36.9680324 ], [ -122.0420243, 36.9676755 ] ], [ [ -122.0415305, 36.9679637 ], [ -122.0417043, 36.9680324 ] ], [ [ -122.0415305, 36.9679637 ], [ -122.041418, 36.9679609 ] ], [ [ -122.041418, 36.9679609 ], [ -122.0415305, 36.9679637 ] ], [ [ -122.041418, 36.9679609 ], [ -122.041312, 36.967974 ] ], [ [ -122.041312, 36.967974 ], [ -122.041418, 36.9679609 ] ], [ [ -122.041312, 36.967974 ], [ -122.041214, 36.9679931 ] ], [ [ -122.041214, 36.9679931 ], [ -122.041312, 36.967974 ] ], [ [ -122.041214, 36.9679931 ], [ -122.0412195, 36.9679728 ] ], [ [ -122.041214, 36.9679931 ], [ -122.0412049, 36.9680264 ] ], [ [ -122.043696, 36.9683032 ], [ -122.0436588, 36.9683467 ] ], [ [ -122.043696, 36.9683032 ], [ -122.0441694, 36.9677505 ] ], [ [ -122.043696, 36.9683032 ], [ -122.0437881, 36.96834 ] ], [ [ -122.043696, 36.9683032 ], [ -122.0436228, 36.9682799 ] ], [ [ -122.0441694, 36.9677505 ], [ -122.043696, 36.9683032 ] ], [ [ -122.0441694, 36.9677505 ], [ -122.0442075, 36.967706 ] ], [ [ -122.0441694, 36.9677505 ], [ -122.0446165, 36.9680163 ] ], [ [ -122.0441694, 36.9677505 ], [ -122.0437747, 36.9675157 ] ], [ [ -122.0442623, 36.9676775 ], [ -122.0442075, 36.967706 ] ], [ [ -122.0442623, 36.9676775 ], [ -122.0446907, 36.9672072 ] ], [ [ -122.0442623, 36.9676775 ], [ -122.0438444, 36.9674393 ] ], [ [ -122.0442623, 36.9676775 ], [ -122.0446919, 36.9679319 ] ], [ [ -122.0446907, 36.9672072 ], [ -122.0442623, 36.9676775 ] ], [ [ -122.0446907, 36.9672072 ], [ -122.044742, 36.9671579 ] ], [ [ -122.0446907, 36.9672072 ], [ -122.0450978, 36.9674808 ] ], [ [ -122.0446907, 36.9672072 ], [ -122.044292, 36.9669367 ] ], [ [ -122.044742, 36.9671579 ], [ -122.0446907, 36.9672072 ] ], [ [ -122.044742, 36.9671579 ], [ -122.0443295, 36.9668966 ] ], [ [ -122.044742, 36.9671579 ], [ -122.0451476, 36.9674279 ] ], [ [ -122.0454284, 36.966424 ], [ -122.045815135185791, 36.965991524122245 ] ], [ [ -122.0454284, 36.966424 ], [ -122.0457896, 36.9666575 ] ], [ [ -122.0454284, 36.966424 ], [ -122.0450165, 36.9661427 ] ], [ [ -122.0458249, 36.9668541 ], [ -122.0457506, 36.9668704 ] ], [ [ -122.0458249, 36.9668541 ], [ -122.0459027, 36.9668648 ] ], [ [ -122.0459027, 36.9668648 ], [ -122.0458249, 36.9668541 ] ], [ [ -122.0459027, 36.9668648 ], [ -122.0459623, 36.9668976 ] ], [ [ -122.0459623, 36.9668976 ], [ -122.0459027, 36.9668648 ] ], [ [ -122.0459623, 36.9668976 ], [ -122.0460366, 36.9669631 ] ], [ [ -122.0420832, 36.9676092 ], [ -122.0420243, 36.9676755 ] ], [ [ -122.0420832, 36.9676092 ], [ -122.0412478, 36.9671515 ] ], [ [ -122.0420832, 36.9676092 ], [ -122.0421791, 36.9676632 ] ], [ [ -122.0420243, 36.9676755 ], [ -122.0420832, 36.9676092 ] ], [ [ -122.0420243, 36.9676755 ], [ -122.0417043, 36.9680324 ] ], [ [ -122.0420243, 36.9676755 ], [ -122.0405436, 36.9668655 ] ], [ [ -122.0420243, 36.9676755 ], [ -122.0429407, 36.9681768 ] ], [ [ -122.0458846, 36.9667383 ], [ -122.0457896, 36.9666575 ] ], [ [ -122.0458846, 36.9667383 ], [ -122.0459471, 36.9668034 ] ], [ [ -122.0458846, 36.9667383 ], [ -122.0457506, 36.9668704 ] ], [ [ -122.0458846, 36.9667383 ], [ -122.0460676, 36.9664745 ] ], [ [ -122.0457896, 36.9666575 ], [ -122.0458846, 36.9667383 ] ], [ [ -122.0457896, 36.9666575 ], [ -122.045580021372743, 36.966522016585088 ] ], [ [ -122.0450165, 36.9661427 ], [ -122.0454284, 36.966424 ] ], [ [ -122.0450165, 36.9661427 ], [ -122.0449472, 36.9660939 ] ], [ [ -122.0450165, 36.9661427 ], [ -122.0450591, 36.9660965 ] ], [ [ -122.0450165, 36.9661427 ], [ -122.0449752, 36.9661921 ] ], [ [ -122.0449472, 36.9660939 ], [ -122.0450165, 36.9661427 ] ], [ [ -122.0449472, 36.9660939 ], [ -122.0448707, 36.9660465 ] ], [ [ -122.0449472, 36.9660939 ], [ -122.0449038, 36.9661447 ] ], [ [ -122.0449472, 36.9660939 ], [ -122.0449942, 36.9660437 ] ], [ [ -122.0448707, 36.9660465 ], [ -122.0449472, 36.9660939 ] ], [ [ -122.0448707, 36.9660465 ], [ -122.0445507, 36.9658294 ] ], [ [ -122.0448707, 36.9660465 ], [ -122.044825, 36.9660962 ] ], [ [ -122.0448707, 36.9660465 ], [ -122.0449322, 36.9659979 ] ], [ [ -122.0445507, 36.9658294 ], [ -122.0448707, 36.9660465 ] ], [ [ -122.0445507, 36.9658294 ], [ -122.043926115348754, 36.965401116431259 ] ], [ [ -122.0445507, 36.9658294 ], [ -122.0446013, 36.9657745 ] ], [ [ -122.0452225, 36.9675572 ], [ -122.0452632, 36.9675075 ] ], [ [ -122.0452225, 36.9675572 ], [ -122.0451478, 36.9675109 ] ], [ [ -122.0452225, 36.9675572 ], [ -122.0460254, 36.9680984 ] ], [ [ -122.0452225, 36.9675572 ], [ -122.0443389, 36.9685233 ] ], [ [ -122.0452632, 36.9675075 ], [ -122.0452225, 36.9675572 ] ], [ [ -122.0452632, 36.9675075 ], [ -122.0453163, 36.9674512 ] ], [ [ -122.0452632, 36.9675075 ], [ -122.0451926, 36.9674591 ] ], [ [ -122.0452632, 36.9675075 ], [ -122.046118, 36.968087 ] ], [ [ -122.0453163, 36.9674512 ], [ -122.0452632, 36.9675075 ] ], [ [ -122.0453163, 36.9674512 ], [ -122.0452426, 36.9674068 ] ], [ [ -122.0453163, 36.9674512 ], [ -122.046379020514465, 36.968171369713552 ] ], [ [ -122.0453163, 36.9674512 ], [ -122.0457102, 36.9670225 ] ], [ [ -122.0451946, 36.967378 ], [ -122.0452426, 36.9674068 ] ], [ [ -122.0451946, 36.967378 ], [ -122.0451476, 36.9674279 ] ], [ [ -122.0451946, 36.967378 ], [ -122.0443819, 36.966839 ] ], [ [ -122.0451946, 36.967378 ], [ -122.0457867, 36.9667335 ] ], [ [ -122.0451476, 36.9674279 ], [ -122.0451946, 36.967378 ] ], [ [ -122.0451476, 36.9674279 ], [ -122.0450978, 36.9674808 ] ], [ [ -122.0451476, 36.9674279 ], [ -122.044742, 36.9671579 ] ], [ [ -122.0451476, 36.9674279 ], [ -122.0451926, 36.9674591 ] ], [ [ -122.0450978, 36.9674808 ], [ -122.0451476, 36.9674279 ] ], [ [ -122.0450978, 36.9674808 ], [ -122.0451478, 36.9675109 ] ], [ [ -122.0450978, 36.9674808 ], [ -122.0446907, 36.9672072 ] ], [ [ -122.0450978, 36.9674808 ], [ -122.0446919, 36.9679319 ] ], [ [ -122.0460254, 36.9680984 ], [ -122.0460757, 36.9681358 ] ], [ [ -122.0460254, 36.9680984 ], [ -122.045519221942087, 36.967757207367114 ] ], [ [ -122.0461282, 36.9681665 ], [ -122.0460757, 36.9681358 ] ], [ [ -122.0461282, 36.9681665 ], [ -122.0465855, 36.96846 ] ], [ [ -122.044292, 36.9669367 ], [ -122.0442138, 36.9668844 ] ], [ [ -122.044292, 36.9669367 ], [ -122.0443295, 36.9668966 ] ], [ [ -122.044292, 36.9669367 ], [ -122.0446907, 36.9672072 ] ], [ [ -122.044292, 36.9669367 ], [ -122.0438444, 36.9674393 ] ], [ [ -122.0442138, 36.9668844 ], [ -122.044292, 36.9669367 ] ], [ [ -122.0442138, 36.9668844 ], [ -122.0441563, 36.9668493 ] ], [ [ -122.0442138, 36.9668844 ], [ -122.0437391, 36.9674296 ] ], [ [ -122.0442138, 36.9668844 ], [ -122.0442474, 36.9668482 ] ], [ [ -122.0441563, 36.9668493 ], [ -122.0442138, 36.9668844 ] ], [ [ -122.0441563, 36.9668493 ], [ -122.0441846, 36.9668109 ] ], [ [ -122.0441563, 36.9668493 ], [ -122.0433497, 36.9664119 ] ], [ [ -122.0441563, 36.9668493 ], [ -122.0441187, 36.9668898 ] ], [ [ -122.0442392, 36.9667486 ], [ -122.0441846, 36.9668109 ] ], [ [ -122.0442392, 36.9667486 ], [ -122.0442997, 36.9667864 ] ], [ [ -122.0442392, 36.9667486 ], [ -122.0448377, 36.966104 ] ], [ [ -122.0442392, 36.9667486 ], [ -122.0434407, 36.9663033 ] ], [ [ -122.0442997, 36.9667864 ], [ -122.0442392, 36.9667486 ] ], [ [ -122.0442997, 36.9667864 ], [ -122.0443819, 36.966839 ] ], [ [ -122.0442997, 36.9667864 ], [ -122.0442474, 36.9668482 ] ], [ [ -122.0442997, 36.9667864 ], [ -122.0449038, 36.9661447 ] ], [ [ -122.0443819, 36.966839 ], [ -122.0442997, 36.9667864 ] ], [ [ -122.0443819, 36.966839 ], [ -122.0443295, 36.9668966 ] ], [ [ -122.0443819, 36.966839 ], [ -122.0451946, 36.967378 ] ], [ [ -122.0443819, 36.966839 ], [ -122.0449752, 36.9661921 ] ], [ [ -122.0443295, 36.9668966 ], [ -122.0443819, 36.966839 ] ], [ [ -122.0443295, 36.9668966 ], [ -122.044292, 36.9669367 ] ], [ [ -122.0443295, 36.9668966 ], [ -122.0442474, 36.9668482 ] ], [ [ -122.0443295, 36.9668966 ], [ -122.044742, 36.9671579 ] ], [ [ -122.0433497, 36.9664119 ], [ -122.0432863, 36.9663732 ] ], [ [ -122.0433497, 36.9664119 ], [ -122.0433923, 36.9663569 ] ], [ [ -122.0433497, 36.9664119 ], [ -122.0441563, 36.9668493 ] ], [ [ -122.0433497, 36.9664119 ], [ -122.0432551, 36.9665235 ] ], [ [ -122.0432278, 36.9663393 ], [ -122.0432863, 36.9663732 ] ], [ [ -122.0432278, 36.9663393 ], [ -122.0432683, 36.9662882 ] ], [ [ -122.0432278, 36.9663393 ], [ -122.0424382, 36.965905 ] ], [ [ -122.0432278, 36.9663393 ], [ -122.0432267, 36.966351 ] ], [ [ -122.0433099, 36.9662337 ], [ -122.0432683, 36.9662882 ] ], [ [ -122.0433099, 36.9662337 ], [ -122.0433753, 36.9662693 ] ], [ [ -122.0433099, 36.9662337 ], [ -122.0424597, 36.9657656 ] ], [ [ -122.0434407, 36.9663033 ], [ -122.0433753, 36.9662693 ] ], [ [ -122.0434407, 36.9663033 ], [ -122.0433923, 36.9663569 ] ], [ [ -122.0434407, 36.9663033 ], [ -122.0442392, 36.9667486 ] ], [ [ -122.0434407, 36.9663033 ], [ -122.0436917, 36.9660079 ] ], [ [ -122.0423125, 36.9658311 ], [ -122.0423706, 36.9658664 ] ], [ [ -122.0423125, 36.9658311 ], [ -122.0421886, 36.9657637 ] ], [ [ -122.0423125, 36.9658311 ], [ -122.042131474554765, 36.966044323825699 ] ], [ [ -122.0424382, 36.965905 ], [ -122.0423706, 36.9658664 ] ], [ [ -122.0424382, 36.965905 ], [ -122.042828612247988, 36.966119736625252 ] ], [ [ -122.0424382, 36.965905 ], [ -122.0422228, 36.9661523 ] ], [ [ -122.0446165, 36.9680163 ], [ -122.0446497, 36.9679748 ] ], [ [ -122.0446165, 36.9680163 ], [ -122.0441694, 36.9677505 ] ], [ [ -122.0446165, 36.9680163 ], [ -122.0441994, 36.9684671 ] ], [ [ -122.0446919, 36.9679319 ], [ -122.0446497, 36.9679748 ] ], [ [ -122.0446919, 36.9679319 ], [ -122.0442623, 36.9676775 ] ], [ [ -122.0446919, 36.9679319 ], [ -122.0450978, 36.9674808 ] ], [ [ -122.0449752, 36.9661921 ], [ -122.0449038, 36.9661447 ] ], [ [ -122.0449752, 36.9661921 ], [ -122.0450165, 36.9661427 ] ], [ [ -122.0449752, 36.9661921 ], [ -122.0443819, 36.966839 ] ], [ [ -122.0449752, 36.9661921 ], [ -122.0453083, 36.9664198 ] ], [ [ -122.0449038, 36.9661447 ], [ -122.0449752, 36.9661921 ] ], [ [ -122.0449038, 36.9661447 ], [ -122.0448377, 36.966104 ] ], [ [ -122.0449038, 36.9661447 ], [ -122.0442997, 36.9667864 ] ], [ [ -122.0449038, 36.9661447 ], [ -122.0449472, 36.9660939 ] ], [ [ -122.0448377, 36.966104 ], [ -122.0449038, 36.9661447 ] ], [ [ -122.0448377, 36.966104 ], [ -122.044825, 36.9660962 ] ], [ [ -122.0448377, 36.966104 ], [ -122.0442392, 36.9667486 ] ], [ [ -122.044825, 36.9660962 ], [ -122.0448377, 36.966104 ] ], [ [ -122.044825, 36.9660962 ], [ -122.0448707, 36.9660465 ] ], [ [ -122.044825, 36.9660962 ], [ -122.043824343486278, 36.965408391369394 ] ], [ [ -122.0449322, 36.9659979 ], [ -122.0448707, 36.9660465 ] ], [ [ -122.0449322, 36.9659979 ], [ -122.0449942, 36.9660437 ] ], [ [ -122.0449322, 36.9659979 ], [ -122.0453904, 36.9654883 ] ], [ [ -122.0449322, 36.9659979 ], [ -122.0446013, 36.9657745 ] ], [ [ -122.0449942, 36.9660437 ], [ -122.0449322, 36.9659979 ] ], [ [ -122.0449942, 36.9660437 ], [ -122.0450591, 36.9660965 ] ], [ [ -122.0449942, 36.9660437 ], [ -122.0449472, 36.9660939 ] ], [ [ -122.0449942, 36.9660437 ], [ -122.0454725, 36.9655107 ] ], [ [ -122.0450591, 36.9660965 ], [ -122.0449942, 36.9660437 ] ], [ [ -122.0450591, 36.9660965 ], [ -122.0450165, 36.9661427 ] ], [ [ -122.0450591, 36.9660965 ], [ -122.0450764, 36.9660927 ] ], [ [ -122.0456261, 36.9654598 ], [ -122.0455813, 36.9655126 ] ], [ [ -122.0456261, 36.9654598 ], [ -122.0455569, 36.9654153 ] ], [ [ -122.0456261, 36.9654598 ], [ -122.045653, 36.9654519 ] ], [ [ -122.045541, 36.9655551 ], [ -122.0455813, 36.9655126 ] ], [ [ -122.045541, 36.9655551 ], [ -122.0454725, 36.9655107 ] ], [ [ -122.045541, 36.9655551 ], [ -122.0455393, 36.9655774 ] ], [ [ -122.0454725, 36.9655107 ], [ -122.045541, 36.9655551 ] ], [ [ -122.0454725, 36.9655107 ], [ -122.0454261, 36.9654767 ] ], [ [ -122.0454725, 36.9655107 ], [ -122.045255059930625, 36.965753007248544 ] ], [ [ -122.0454725, 36.9655107 ], [ -122.0455119, 36.965465 ] ], [ [ -122.0454261, 36.9654767 ], [ -122.0454725, 36.9655107 ] ], [ [ -122.0454261, 36.9654767 ], [ -122.0454654, 36.9654308 ] ], [ [ -122.0454261, 36.9654767 ], [ -122.0453904, 36.9654883 ] ], [ [ -122.0454261, 36.9654767 ], [ -122.045169207252172, 36.965307087800468 ] ], [ [ -122.0455114, 36.9653838 ], [ -122.0454654, 36.9654308 ] ], [ [ -122.0455114, 36.9653838 ], [ -122.0455569, 36.9654153 ] ], [ [ -122.0455114, 36.9653838 ], [ -122.045365292729613, 36.96528785212363 ] ], [ [ -122.0455114, 36.9653838 ], [ -122.045621841562081, 36.965260927384307 ] ], [ [ -122.0455569, 36.9654153 ], [ -122.0455114, 36.9653838 ] ], [ [ -122.0455569, 36.9654153 ], [ -122.0456261, 36.9654598 ] ], [ [ -122.0455569, 36.9654153 ], [ -122.0455119, 36.965465 ] ], [ [ -122.0455569, 36.9654153 ], [ -122.045692433583724, 36.96526988395118 ] ], [ [ -122.0465628, 36.9691799 ], [ -122.046588, 36.9691169 ] ], [ [ -122.0465628, 36.9691799 ], [ -122.0465075, 36.969255 ] ], [ [ -122.046625, 36.9690173 ], [ -122.046592533007058, 36.969104697635061 ] ], [ [ -122.046625, 36.9690173 ], [ -122.0466143, 36.9689697 ] ], [ [ -122.046625, 36.9690173 ], [ -122.0466548, 36.9690686 ] ], [ [ -122.0465855, 36.96846 ], [ -122.046595824346156, 36.96839707065201 ] ], [ [ -122.0465855, 36.96846 ], [ -122.046523727035932, 36.968420353455166 ] ], [ [ -122.0465855, 36.96846 ], [ -122.0465948, 36.9684706 ] ], [ [ -122.0466002, 36.9683704 ], [ -122.046592648042207, 36.968416430980874 ] ], [ [ -122.0466002, 36.9683704 ], [ -122.046607139039182, 36.968324306944545 ] ], [ [ -122.0466002, 36.9683704 ], [ -122.046553526506059, 36.968342959357415 ] ], [ [ -122.0466002, 36.9683704 ], [ -122.046651355669027, 36.96839209493433 ] ], [ [ -122.0403594, 36.9667821 ], [ -122.0404171, 36.9667048 ] ], [ [ -122.0403594, 36.9667821 ], [ -122.0399735, 36.9670212 ] ], [ [ -122.0403594, 36.9667821 ], [ -122.0404105, 36.9667927 ] ], [ [ -122.0404171, 36.9667048 ], [ -122.0403594, 36.9667821 ] ], [ [ -122.0404171, 36.9667048 ], [ -122.0404775, 36.9666293 ] ], [ [ -122.0404171, 36.9667048 ], [ -122.0403284, 36.9666329 ] ], [ [ -122.0404171, 36.9667048 ], [ -122.0406043, 36.9668055 ] ], [ [ -122.0404775, 36.9666293 ], [ -122.0404171, 36.9667048 ] ], [ [ -122.0404775, 36.9666293 ], [ -122.0404057, 36.9665566 ] ], [ [ -122.0404775, 36.9666293 ], [ -122.0404815, 36.9666118 ] ], [ [ -122.0404775, 36.9666293 ], [ -122.0404852, 36.9666459 ] ], [ [ -122.0404057, 36.9665566 ], [ -122.0404775, 36.9666293 ] ], [ [ -122.0404057, 36.9665566 ], [ -122.0402943, 36.9664752 ] ], [ [ -122.0404057, 36.9665566 ], [ -122.0403284, 36.9666329 ] ], [ [ -122.0404057, 36.9665566 ], [ -122.0405147, 36.9664264 ] ], [ [ -122.0402943, 36.9664752 ], [ -122.0404057, 36.9665566 ] ], [ [ -122.0402943, 36.9664752 ], [ -122.0402246, 36.9665283 ] ], [ [ -122.0402943, 36.9664752 ], [ -122.0400378, 36.9663119 ] ], [ [ -122.0402943, 36.9664752 ], [ -122.0403262, 36.9664685 ] ], [ [ -122.0402246, 36.9665283 ], [ -122.0402943, 36.9664752 ] ], [ [ -122.0402246, 36.9665283 ], [ -122.0401697, 36.9665831 ] ], [ [ -122.0402246, 36.9665283 ], [ -122.0399831, 36.9663681 ] ], [ [ -122.0402246, 36.9665283 ], [ -122.0403284, 36.9666329 ] ], [ [ -122.0401697, 36.9665831 ], [ -122.0402246, 36.9665283 ] ], [ [ -122.0401697, 36.9665831 ], [ -122.039441110533389, 36.966099249897084 ] ], [ [ -122.0401697, 36.9665831 ], [ -122.0401937, 36.9666075 ] ], [ [ -122.0409087, 36.9659555 ], [ -122.0409762, 36.9658779 ] ], [ [ -122.0409087, 36.9659555 ], [ -122.040788505350775, 36.966099518771415 ] ], [ [ -122.0409762, 36.9658779 ], [ -122.040920066980263, 36.965942432182693 ] ], [ [ -122.0409762, 36.9658779 ], [ -122.041032315483719, 36.965813358034502 ] ], [ [ -122.0409762, 36.9658779 ], [ -122.041057209837433, 36.965922258054839 ] ], [ [ -122.039584, 36.9661029 ], [ -122.039428492231977, 36.965999632491027 ] ], [ [ -122.039584, 36.9661029 ], [ -122.039739466937931, 36.96620620732029 ] ], [ [ -122.039753, 36.9662152 ], [ -122.039584, 36.9661029 ] ], [ [ -122.039753, 36.9662152 ], [ -122.0399831, 36.9663681 ] ], [ [ -122.0399831, 36.9663681 ], [ -122.039753, 36.9662152 ] ], [ [ -122.0399831, 36.9663681 ], [ -122.0400378, 36.9663119 ] ], [ [ -122.0399831, 36.9663681 ], [ -122.0402246, 36.9665283 ] ], [ [ -122.0406827, 36.9705485 ], [ -122.0406073, 36.9705123 ] ], [ [ -122.0406827, 36.9705485 ], [ -122.0404098, 36.9708259 ] ], [ [ -122.0406827, 36.9705485 ], [ -122.04093, 36.9703047 ] ], [ [ -122.0406073, 36.9705123 ], [ -122.0406827, 36.9705485 ] ], [ [ -122.0406073, 36.9705123 ], [ -122.04006520466865, 36.970256779094008 ] ], [ [ -122.0406073, 36.9705123 ], [ -122.0403464, 36.9707826 ] ], [ [ -122.0406073, 36.9705123 ], [ -122.0409414, 36.9701662 ] ], [ [ -122.0446013, 36.9657745 ], [ -122.045038783071391, 36.965299093261301 ] ], [ [ -122.0446013, 36.9657745 ], [ -122.0445507, 36.9658294 ] ], [ [ -122.0446013, 36.9657745 ], [ -122.0449322, 36.9659979 ] ], [ [ -122.0446013, 36.9657745 ], [ -122.044037764374934, 36.965394023441817 ] ], [ [ -122.0463898, 36.9682467 ], [ -122.046132671311184, 36.968095620339938 ] ], [ [ -122.0463898, 36.9682467 ], [ -122.0466002, 36.9683704 ] ], [ [ -122.0463898, 36.9682467 ], [ -122.0464271, 36.9682039 ] ], [ [ -122.0465358, 36.9696525 ], [ -122.0465043, 36.9696798 ] ], [ [ -122.0465358, 36.9696525 ], [ -122.0467731, 36.9697709 ] ], [ [ -122.0465358, 36.9696525 ], [ -122.0462805, 36.9695148 ] ], [ [ -122.0465043, 36.9696798 ], [ -122.0465358, 36.9696525 ] ], [ [ -122.0465043, 36.9696798 ], [ -122.0464602, 36.969715 ] ], [ [ -122.0464644, 36.9697833 ], [ -122.0464602, 36.969715 ] ], [ [ -122.0464644, 36.9697833 ], [ -122.04660056838118, 36.97009912708215 ] ], [ [ -122.0464644, 36.9697833 ], [ -122.0462093, 36.9695749 ] ], [ [ -122.0464644, 36.9697833 ], [ -122.0466638, 36.9699582 ] ], [ [ -122.0408709, 36.9661486 ], [ -122.0412087, 36.9663293 ] ], [ [ -122.0408709, 36.9661486 ], [ -122.0407856, 36.966103 ] ], [ [ -122.0408709, 36.9661486 ], [ -122.0410624, 36.9659251 ] ], [ [ -122.0408709, 36.9661486 ], [ -122.0408042, 36.9662265 ] ], [ [ -122.0412087, 36.9663293 ], [ -122.041117755595465, 36.966280650935758 ] ], [ [ -122.0412087, 36.9663293 ], [ -122.041272000402159, 36.966257800063879 ] ], [ [ -122.0410624, 36.9659251 ], [ -122.0409762, 36.9658779 ] ], [ [ -122.0410624, 36.9659251 ], [ -122.0410734, 36.9659311 ] ], [ [ -122.0410624, 36.9659251 ], [ -122.0411541, 36.965818 ] ], [ [ -122.0410624, 36.9659251 ], [ -122.040961967699772, 36.96604231472115 ] ], [ [ -122.0410734, 36.9659311 ], [ -122.0410624, 36.9659251 ] ], [ [ -122.0410734, 36.9659311 ], [ -122.041208735829869, 36.966005384241676 ] ], [ [ -122.0407856, 36.966103 ], [ -122.0408709, 36.9661486 ] ], [ [ -122.0407856, 36.966103 ], [ -122.040541685094169, 36.966394185236425 ] ], [ [ -122.0407856, 36.966103 ], [ -122.0409087, 36.9659555 ] ], [ [ -122.0394199, 36.9672328 ], [ -122.039379711692305, 36.967198574349233 ] ], [ [ -122.0394199, 36.9672328 ], [ -122.039373659807993, 36.967261689742934 ] ], [ [ -122.0394199, 36.9672328 ], [ -122.039466673454271, 36.967204468449445 ] ], [ [ -122.040102, 36.9662459 ], [ -122.0400378, 36.9663119 ] ], [ [ -122.040102, 36.9662459 ], [ -122.0401302, 36.966261 ] ], [ [ -122.040102, 36.9662459 ], [ -122.0401302, 36.966261 ] ], [ [ -122.0400378, 36.9663119 ], [ -122.040102, 36.9662459 ] ], [ [ -122.0400378, 36.9663119 ], [ -122.0399831, 36.9663681 ] ], [ [ -122.0400378, 36.9663119 ], [ -122.0398416, 36.9661978 ] ], [ [ -122.0400378, 36.9663119 ], [ -122.0402943, 36.9664752 ] ], [ [ -122.0402446, 36.9663222 ], [ -122.04045000165948, 36.966080585134904 ] ], [ [ -122.0402446, 36.9663222 ], [ -122.0401302, 36.966261 ] ], [ [ -122.0401302, 36.966261 ], [ -122.040414967558618, 36.965929280641241 ] ], [ [ -122.0401302, 36.966261 ], [ -122.040102, 36.9662459 ] ], [ [ -122.0401302, 36.966261 ], [ -122.040102, 36.9662459 ] ], [ [ -122.0401302, 36.966261 ], [ -122.0402446, 36.9663222 ] ], [ [ -122.0421886, 36.9657637 ], [ -122.0423125, 36.9658311 ] ], [ [ -122.0421886, 36.9657637 ], [ -122.042046416743261, 36.965686266864878 ] ], [ [ -122.0421886, 36.9657637 ], [ -122.0422335, 36.9657136 ] ], [ [ -122.0411541, 36.965818 ], [ -122.041141323688834, 36.965811195871495 ] ], [ [ -122.0411541, 36.965818 ], [ -122.041166862534467, 36.965824820779098 ] ], [ [ -122.0411541, 36.965818 ], [ -122.041162785237049, 36.965807859449335 ] ], [ [ -122.0411541, 36.965818 ], [ -122.041145416662474, 36.96582814160795 ] ], [ [ -122.0405147, 36.9664264 ], [ -122.0405969, 36.9664717 ] ], [ [ -122.0405147, 36.9664264 ], [ -122.0404057, 36.9665566 ] ], [ [ -122.0405147, 36.9664264 ], [ -122.0407856, 36.966103 ] ], [ [ -122.0405969, 36.9664717 ], [ -122.0405147, 36.9664264 ] ], [ [ -122.0405969, 36.9664717 ], [ -122.0409313, 36.9666676 ] ], [ [ -122.0405969, 36.9664717 ], [ -122.0408042, 36.9662265 ] ], [ [ -122.0405969, 36.9664717 ], [ -122.0404908, 36.9665972 ] ], [ [ -122.0409313, 36.9666676 ], [ -122.0405969, 36.9664717 ] ], [ [ -122.0409313, 36.9666676 ], [ -122.0410587, 36.9665117 ] ], [ [ -122.0409313, 36.9666676 ], [ -122.0408493, 36.9667679 ] ], [ [ -122.0398589, 36.9669565 ], [ -122.0399735, 36.9670212 ] ], [ [ -122.0398589, 36.9669565 ], [ -122.0397315, 36.9670392 ] ], [ [ -122.0398589, 36.9669565 ], [ -122.0402276, 36.9667171 ] ], [ [ -122.0399735, 36.9670212 ], [ -122.0398589, 36.9669565 ] ], [ [ -122.0399735, 36.9670212 ], [ -122.0401635, 36.9671285 ] ], [ [ -122.0399735, 36.9670212 ], [ -122.0397038, 36.9671884 ] ], [ [ -122.0399735, 36.9670212 ], [ -122.0403594, 36.9667821 ] ], [ [ -122.0401635, 36.9671285 ], [ -122.0399735, 36.9670212 ] ], [ [ -122.0401635, 36.9671285 ], [ -122.0403289, 36.967078 ] ], [ [ -122.0403289, 36.967078 ], [ -122.0401635, 36.9671285 ] ], [ [ -122.0403289, 36.967078 ], [ -122.0405436, 36.9668655 ] ], [ [ -122.0405436, 36.9668655 ], [ -122.0403289, 36.967078 ] ], [ [ -122.0405436, 36.9668655 ], [ -122.0406043, 36.9668055 ] ], [ [ -122.0405436, 36.9668655 ], [ -122.0404105, 36.9667927 ] ], [ [ -122.0405436, 36.9668655 ], [ -122.041748385662828, 36.967524564217527 ] ], [ [ -122.0406043, 36.9668055 ], [ -122.0405436, 36.9668655 ] ], [ [ -122.0406043, 36.9668055 ], [ -122.0404171, 36.9667048 ] ], [ [ -122.0406043, 36.9668055 ], [ -122.0406959, 36.9668548 ] ], [ [ -122.0459471, 36.9668034 ], [ -122.0460366, 36.9669631 ] ], [ [ -122.0459471, 36.9668034 ], [ -122.0458846, 36.9667383 ] ], [ [ -122.0459471, 36.9668034 ], [ -122.0460811, 36.9667051 ] ], [ [ -122.0460676, 36.9664745 ], [ -122.046052371425219, 36.96649645244824 ] ], [ [ -122.0460676, 36.9664745 ], [ -122.046079775206081, 36.966451352951232 ] ], [ [ -122.0430767, 36.9681514 ], [ -122.0431451, 36.9680853 ] ], [ [ -122.0430767, 36.9681514 ], [ -122.0430167, 36.9682143 ] ], [ [ -122.0430767, 36.9681514 ], [ -122.0431685, 36.9681798 ] ], [ [ -122.0430767, 36.9681514 ], [ -122.043033003291995, 36.968134564703909 ] ], [ [ -122.0431451, 36.9680853 ], [ -122.0430767, 36.9681514 ] ], [ [ -122.0431451, 36.9680853 ], [ -122.0437391, 36.9674296 ] ], [ [ -122.0431451, 36.9680853 ], [ -122.0430605, 36.9680538 ] ], [ [ -122.0431451, 36.9680853 ], [ -122.0432059, 36.9681143 ] ], [ [ -122.0394673, 36.9670771 ], [ -122.039391383176891, 36.967027496145775 ] ], [ [ -122.0394673, 36.9670771 ], [ -122.0394875, 36.9670903 ] ], [ [ -122.0394875, 36.9670903 ], [ -122.0394673, 36.9670771 ] ], [ [ -122.0394875, 36.9670903 ], [ -122.0395528, 36.9671523 ] ], [ [ -122.0394875, 36.9670903 ], [ -122.0395407, 36.9670594 ] ], [ [ -122.0394875, 36.9670903 ], [ -122.0394452, 36.9671188 ] ], [ [ -122.0395425, 36.965999 ], [ -122.039541696099448, 36.96599844696771 ] ], [ [ -122.0395425, 36.965999 ], [ -122.03954332760604, 36.965999530039817 ] ], [ [ -122.0395425, 36.965999 ], [ -122.039543558888226, 36.965999001735881 ] ], [ [ -122.039587, 36.9660275 ], [ -122.0395425, 36.965999 ] ], [ [ -122.039587, 36.9660275 ], [ -122.0396284, 36.9660351 ] ], [ [ -122.0396284, 36.9660351 ], [ -122.039587, 36.9660275 ] ], [ [ -122.0396284, 36.9660351 ], [ -122.039705187928135, 36.966087083247253 ] ], [ [ -122.0397869, 36.9661424 ], [ -122.0396284, 36.9660351 ] ], [ [ -122.0397869, 36.9661424 ], [ -122.0398233, 36.9661671 ] ], [ [ -122.0397869, 36.9661424 ], [ -122.0397865, 36.9659994 ] ], [ [ -122.0398233, 36.9661671 ], [ -122.0397869, 36.9661424 ] ], [ [ -122.0398233, 36.9661671 ], [ -122.0398416, 36.9661978 ] ], [ [ -122.0398416, 36.9661978 ], [ -122.0398233, 36.9661671 ] ], [ [ -122.0398416, 36.9661978 ], [ -122.0400378, 36.9663119 ] ], [ [ -122.0465075, 36.969255 ], [ -122.0465628, 36.9691799 ] ], [ [ -122.0465075, 36.969255 ], [ -122.0464069, 36.9693697 ] ], [ [ -122.0464069, 36.9693697 ], [ -122.0465075, 36.969255 ] ], [ [ -122.0464069, 36.9693697 ], [ -122.0463579, 36.9694466 ] ], [ [ -122.0463579, 36.9694466 ], [ -122.0464069, 36.9693697 ] ], [ [ -122.0463579, 36.9694466 ], [ -122.0462564, 36.9694091 ] ], [ [ -122.0463579, 36.9694466 ], [ -122.0462805, 36.9695148 ] ], [ [ -122.046192, 36.9693852 ], [ -122.0462564, 36.9694091 ] ], [ [ -122.046192, 36.9693852 ], [ -122.0462324, 36.9693538 ] ], [ [ -122.046192, 36.9693852 ], [ -122.0461485, 36.969383 ] ], [ [ -122.0462564, 36.9694091 ], [ -122.046192, 36.9693852 ] ], [ [ -122.0462564, 36.9694091 ], [ -122.0463579, 36.9694466 ] ], [ [ -122.0462564, 36.9694091 ], [ -122.0461643, 36.9695067 ] ], [ [ -122.0462564, 36.9694091 ], [ -122.0462749, 36.9693895 ] ], [ [ -122.0462805, 36.9695148 ], [ -122.0463579, 36.9694466 ] ], [ [ -122.0462805, 36.9695148 ], [ -122.0462438, 36.9695492 ] ], [ [ -122.0462805, 36.9695148 ], [ -122.0465358, 36.9696525 ] ], [ [ -122.0462805, 36.9695148 ], [ -122.0461643, 36.9695067 ] ], [ [ -122.0462093, 36.9695749 ], [ -122.0462438, 36.9695492 ] ], [ [ -122.0462093, 36.9695749 ], [ -122.0461627, 36.9696259 ] ], [ [ -122.0462093, 36.9695749 ], [ -122.0461643, 36.9695067 ] ], [ [ -122.0462093, 36.9695749 ], [ -122.0464644, 36.9697833 ] ], [ [ -122.0461627, 36.9696259 ], [ -122.0462093, 36.9695749 ] ], [ [ -122.0461627, 36.9696259 ], [ -122.0460997, 36.969567 ] ], [ [ -122.0460357, 36.969534 ], [ -122.0460997, 36.969567 ] ], [ [ -122.0460357, 36.969534 ], [ -122.0460142, 36.9694811 ] ], [ [ -122.0403284, 36.9666329 ], [ -122.0404171, 36.9667048 ] ], [ [ -122.0403284, 36.9666329 ], [ -122.0404057, 36.9665566 ] ], [ [ -122.0403284, 36.9666329 ], [ -122.0402246, 36.9665283 ] ], [ [ -122.0403284, 36.9666329 ], [ -122.0402276, 36.9667171 ] ], [ [ -122.0406959, 36.9668548 ], [ -122.0406043, 36.9668055 ] ], [ [ -122.0406959, 36.9668548 ], [ -122.0407024, 36.9668583 ] ], [ [ -122.0407024, 36.9668583 ], [ -122.0406959, 36.9668548 ] ], [ [ -122.0407024, 36.9668583 ], [ -122.0407544, 36.9668863 ] ], [ [ -122.0397315, 36.9670392 ], [ -122.0398589, 36.9669565 ] ], [ [ -122.0397315, 36.9670392 ], [ -122.0395528, 36.9671523 ] ], [ [ -122.0402276, 36.9667171 ], [ -122.0398589, 36.9669565 ] ], [ [ -122.0402276, 36.9667171 ], [ -122.0403284, 36.9666329 ] ], [ [ -122.0398808, 36.9682876 ], [ -122.039690745911344, 36.968184710768959 ] ], [ [ -122.0398808, 36.9682876 ], [ -122.040069950192873, 36.968391557274714 ] ], [ [ -122.0404332, 36.9685912 ], [ -122.0398808, 36.9682876 ] ], [ [ -122.0404332, 36.9685912 ], [ -122.041183683131621, 36.968988095908735 ] ], [ [ -122.0418039, 36.9693161 ], [ -122.0404332, 36.9685912 ] ], [ [ -122.0418039, 36.9693161 ], [ -122.0418793, 36.969351 ] ], [ [ -122.0418039, 36.9693161 ], [ -122.0418549, 36.9692635 ] ], [ [ -122.0418039, 36.9693161 ], [ -122.0417596, 36.9693612 ] ], [ [ -122.0418793, 36.969351 ], [ -122.0418039, 36.9693161 ] ], [ [ -122.0418793, 36.969351 ], [ -122.0416788, 36.9695454 ] ], [ [ -122.0418793, 36.969351 ], [ -122.0419459, 36.969287 ] ], [ [ -122.0467731, 36.9697709 ], [ -122.046908036973178, 36.969857803483386 ] ], [ [ -122.0467731, 36.9697709 ], [ -122.046626164819855, 36.969697587208898 ] ], [ [ -122.0428489, 36.9683791 ], [ -122.0430167, 36.9682143 ] ], [ [ -122.0428489, 36.9683791 ], [ -122.0427072, 36.9685177 ] ], [ [ -122.0430167, 36.9682143 ], [ -122.0428489, 36.9683791 ] ], [ [ -122.0430167, 36.9682143 ], [ -122.0430767, 36.9681514 ] ], [ [ -122.0430167, 36.9682143 ], [ -122.0430781, 36.9682376 ] ], [ [ -122.0430167, 36.9682143 ], [ -122.0429558, 36.9681863 ] ], [ [ -122.0404098, 36.9708259 ], [ -122.0403023, 36.9709185 ] ], [ [ -122.0404098, 36.9708259 ], [ -122.040517895637521, 36.970716021913354 ] ], [ [ -122.0404098, 36.9708259 ], [ -122.0404639, 36.9708639 ] ], [ [ -122.0404098, 36.9708259 ], [ -122.0403464, 36.9707826 ] ], [ [ -122.04093, 36.9703047 ], [ -122.0406827, 36.9705485 ] ], [ [ -122.04093, 36.9703047 ], [ -122.0410419, 36.9701891 ] ], [ [ -122.0416346, 36.9695893 ], [ -122.0410419, 36.9701891 ] ], [ [ -122.0416346, 36.9695893 ], [ -122.0416788, 36.9695454 ] ], [ [ -122.0416346, 36.9695893 ], [ -122.0417033, 36.9696303 ] ], [ [ -122.0416346, 36.9695893 ], [ -122.0415756, 36.9695425 ] ], [ [ -122.0419459, 36.969287 ], [ -122.0418793, 36.969351 ] ], [ [ -122.0419459, 36.969287 ], [ -122.042604, 36.96863 ] ], [ [ -122.0419459, 36.969287 ], [ -122.041992, 36.9693222 ] ], [ [ -122.0419459, 36.969287 ], [ -122.0418931, 36.9692524 ] ], [ [ -122.042604, 36.96863 ], [ -122.0419459, 36.969287 ] ], [ [ -122.042604, 36.96863 ], [ -122.0427072, 36.9685177 ] ], [ [ -122.0431685, 36.9681798 ], [ -122.0430767, 36.9681514 ] ], [ [ -122.0431685, 36.9681798 ], [ -122.0433313, 36.9682378 ] ], [ [ -122.0431685, 36.9681798 ], [ -122.0432139, 36.9681276 ] ], [ [ -122.0431685, 36.9681798 ], [ -122.0431173, 36.9682364 ] ], [ [ -122.0433313, 36.9682378 ], [ -122.0431685, 36.9681798 ] ], [ [ -122.0433313, 36.9682378 ], [ -122.0434691, 36.9682836 ] ], [ [ -122.0426156, 36.9679021 ], [ -122.0427045, 36.9679507 ] ], [ [ -122.0426156, 36.9679021 ], [ -122.0421791, 36.9676632 ] ], [ [ -122.0427045, 36.9679507 ], [ -122.0426156, 36.9679021 ] ], [ [ -122.0427045, 36.9679507 ], [ -122.0429952, 36.96812 ] ], [ [ -122.0429952, 36.96812 ], [ -122.0427045, 36.9679507 ] ], [ [ -122.0429952, 36.96812 ], [ -122.043033003291995, 36.968134564703909 ] ], [ [ -122.0429952, 36.96812 ], [ -122.042952, 36.968172 ] ], [ [ -122.0429952, 36.96812 ], [ -122.0430483, 36.9680629 ] ], [ [ -122.0407544, 36.9668863 ], [ -122.0407024, 36.9668583 ] ], [ [ -122.0407544, 36.9668863 ], [ -122.0412478, 36.9671515 ] ], [ [ -122.0407544, 36.9668863 ], [ -122.040802, 36.9668269 ] ], [ [ -122.0397865, 36.9659994 ], [ -122.039786790954381, 36.966103416193342 ] ], [ [ -122.0397865, 36.9659994 ], [ -122.0397872, 36.9659925 ] ], [ [ -122.0397865, 36.9659994 ], [ -122.03965687345675, 36.965999187497466 ] ], [ [ -122.0397872, 36.9659925 ], [ -122.0397865, 36.9659994 ] ], [ [ -122.0402439, 36.9708659 ], [ -122.040210779771741, 36.970902862174739 ] ], [ [ -122.0402439, 36.9708659 ], [ -122.040195500093631, 36.9708421458635 ] ], [ [ -122.0402439, 36.9708659 ], [ -122.04028376180662, 36.970833504990331 ] ], [ [ -122.0404725, 36.9708793 ], [ -122.0404319, 36.9709171 ] ], [ [ -122.0404725, 36.9708793 ], [ -122.0404639, 36.9708639 ] ], [ [ -122.0404639, 36.9708639 ], [ -122.0404725, 36.9708793 ] ], [ [ -122.0404639, 36.9708639 ], [ -122.0404098, 36.9708259 ] ], [ [ -122.0404639, 36.9708639 ], [ -122.0404902, 36.9708618 ] ], [ [ -122.0403464, 36.9707826 ], [ -122.0404098, 36.9708259 ] ], [ [ -122.0403464, 36.9707826 ], [ -122.0402439, 36.9708659 ] ], [ [ -122.0403464, 36.9707826 ], [ -122.040470470828708, 36.970654059007288 ] ], [ [ -122.0411322, 36.9702148 ], [ -122.0410953, 36.9702459 ] ], [ [ -122.0410622, 36.9702774 ], [ -122.0410953, 36.9702459 ] ], [ [ -122.0410622, 36.9702774 ], [ -122.0410423, 36.970309 ] ], [ [ -122.0409414, 36.9701662 ], [ -122.0409821, 36.9701286 ] ], [ [ -122.0409414, 36.9701662 ], [ -122.0406073, 36.9705123 ] ], [ [ -122.0409414, 36.9701662 ], [ -122.039934254134465, 36.969681670271051 ] ], [ [ -122.041053, 36.9700577 ], [ -122.0409821, 36.9701286 ] ], [ [ -122.041053, 36.9700577 ], [ -122.0415756, 36.9695425 ] ], [ [ -122.041053, 36.9700577 ], [ -122.0404072, 36.9697513 ] ], [ [ -122.0417962, 36.9695341 ], [ -122.0417503, 36.969593 ] ], [ [ -122.0417962, 36.9695341 ], [ -122.0418058, 36.9695271 ] ], [ [ -122.0417033, 36.9696303 ], [ -122.0417503, 36.969593 ] ], [ [ -122.0417033, 36.9696303 ], [ -122.0416346, 36.9695893 ] ], [ [ -122.0417033, 36.9696303 ], [ -122.0417042, 36.9696509 ] ], [ [ -122.0415756, 36.9695425 ], [ -122.0416346, 36.9695893 ] ], [ [ -122.0415756, 36.9695425 ], [ -122.0417596, 36.9693612 ] ], [ [ -122.0415756, 36.9695425 ], [ -122.041053, 36.9700577 ] ], [ [ -122.0401937, 36.9666075 ], [ -122.0401697, 36.9665831 ] ], [ [ -122.0401937, 36.9666075 ], [ -122.0401959, 36.9666207 ] ], [ [ -122.0401959, 36.9666207 ], [ -122.0401937, 36.9666075 ] ], [ [ -122.0401959, 36.9666207 ], [ -122.040083, 36.9667303 ] ], [ [ -122.040083, 36.9667303 ], [ -122.0401959, 36.9666207 ] ], [ [ -122.040083, 36.9667303 ], [ -122.0395407, 36.9670594 ] ], [ [ -122.0395407, 36.9670594 ], [ -122.039587182101513, 36.967031191887131 ] ], [ [ -122.0395407, 36.9670594 ], [ -122.03949586284196, 36.967029526849117 ] ], [ [ -122.0395407, 36.9670594 ], [ -122.039493491186306, 36.967086820156837 ] ], [ [ -122.0394452, 36.9671188 ], [ -122.039392251950545, 36.967083650824875 ] ], [ [ -122.0394452, 36.9671188 ], [ -122.039390824204375, 36.967152516891197 ] ], [ [ -122.0394452, 36.9671188 ], [ -122.0394875, 36.9670903 ] ], [ [ -122.0403262, 36.9664685 ], [ -122.040852879291222, 36.96584889865602 ] ], [ [ -122.0403262, 36.9664685 ], [ -122.0402943, 36.9664752 ] ], [ [ -122.0412195, 36.9679728 ], [ -122.041214, 36.9679931 ] ], [ [ -122.0412195, 36.9679728 ], [ -122.0412006, 36.9679268 ] ], [ [ -122.0412006, 36.9679268 ], [ -122.0412195, 36.9679728 ] ], [ [ -122.0412006, 36.9679268 ], [ -122.0411593, 36.967898 ] ], [ [ -122.0411593, 36.967898 ], [ -122.0412006, 36.9679268 ] ], [ [ -122.0411593, 36.967898 ], [ -122.0410957, 36.9678828 ] ], [ [ -122.0410957, 36.9678828 ], [ -122.0411593, 36.967898 ] ], [ [ -122.0410957, 36.9678828 ], [ -122.0410416, 36.9678932 ] ], [ [ -122.0410416, 36.9678932 ], [ -122.0410957, 36.9678828 ] ], [ [ -122.0410416, 36.9678932 ], [ -122.040996, 36.9679035 ] ], [ [ -122.040996, 36.9679035 ], [ -122.0410416, 36.9678932 ] ], [ [ -122.040996, 36.9679035 ], [ -122.0397038, 36.9671884 ] ], [ [ -122.0397038, 36.9671884 ], [ -122.040046165554543, 36.967377864175866 ] ], [ [ -122.0397038, 36.9671884 ], [ -122.0399735, 36.9670212 ] ], [ [ -122.0397038, 36.9671884 ], [ -122.0396306, 36.9672251 ] ], [ [ -122.0404105, 36.9667927 ], [ -122.0403594, 36.9667821 ] ], [ [ -122.0404105, 36.9667927 ], [ -122.0405436, 36.9668655 ] ], [ [ -122.0429407, 36.9681768 ], [ -122.0420243, 36.9676755 ] ], [ [ -122.0429407, 36.9681768 ], [ -122.0426282, 36.9684897 ] ], [ [ -122.0429407, 36.9681768 ], [ -122.042952, 36.968172 ] ], [ [ -122.0418771, 36.9692413 ], [ -122.0426282, 36.9684897 ] ], [ [ -122.0418771, 36.9692413 ], [ -122.0418549, 36.9692635 ] ], [ [ -122.0418771, 36.9692413 ], [ -122.0418931, 36.9692524 ] ], [ [ -122.0418549, 36.9692635 ], [ -122.0418771, 36.9692413 ] ], [ [ -122.0418549, 36.9692635 ], [ -122.0405403, 36.9685897 ] ], [ [ -122.0418549, 36.9692635 ], [ -122.0418039, 36.9693161 ] ], [ [ -122.0405403, 36.9685897 ], [ -122.041436647049153, 36.969049123886897 ] ], [ [ -122.0405403, 36.9685897 ], [ -122.039662110254838, 36.96810823841308 ] ], [ [ -122.0412546, 36.9680732 ], [ -122.0411939, 36.9680401 ] ], [ [ -122.0412546, 36.9680732 ], [ -122.0417302, 36.9683391 ] ], [ [ -122.0417302, 36.9683391 ], [ -122.0412546, 36.9680732 ] ], [ [ -122.0417302, 36.9683391 ], [ -122.041807, 36.9683801 ] ], [ [ -122.041807, 36.9683801 ], [ -122.0417302, 36.9683391 ] ], [ [ -122.041807, 36.9683801 ], [ -122.0418412, 36.9684101 ] ], [ [ -122.0418412, 36.9684101 ], [ -122.041807, 36.9683801 ] ], [ [ -122.0418412, 36.9684101 ], [ -122.0418647, 36.9685885 ] ], [ [ -122.0412049, 36.9680264 ], [ -122.0411939, 36.9680401 ] ], [ [ -122.0412049, 36.9680264 ], [ -122.041214, 36.9679931 ] ], [ [ -122.0395551, 36.9672598 ], [ -122.0396306, 36.9672251 ] ], [ [ -122.0395551, 36.9672598 ], [ -122.0395228, 36.9672729 ] ], [ [ -122.0395551, 36.9672598 ], [ -122.0395827, 36.967268 ] ], [ [ -122.0417596, 36.9693612 ], [ -122.0418039, 36.9693161 ] ], [ [ -122.0417596, 36.9693612 ], [ -122.0404096, 36.96866 ] ], [ [ -122.0417596, 36.9693612 ], [ -122.0415756, 36.9695425 ] ], [ [ -122.0466143, 36.9689697 ], [ -122.046623774777117, 36.969011849475727 ] ], [ [ -122.0466143, 36.9689697 ], [ -122.046626723632272, 36.968928046656863 ] ], [ [ -122.0466548, 36.9690686 ], [ -122.046636583397458, 36.969037240546612 ] ], [ [ -122.0466548, 36.9690686 ], [ -122.046693863644848, 36.969083248866816 ] ], [ [ -122.046602, 36.9684937 ], [ -122.046594274958736, 36.968519667987138 ] ], [ [ -122.046602, 36.9684937 ], [ -122.0465948, 36.9684706 ] ], [ [ -122.0465948, 36.9684706 ], [ -122.046602, 36.9684937 ] ], [ [ -122.0465948, 36.9684706 ], [ -122.0465855, 36.96846 ] ], [ [ -122.0466072, 36.9682435 ], [ -122.046622428223401, 36.968210746558618 ] ], [ [ -122.0466072, 36.9682435 ], [ -122.04657, 36.96826 ] ], [ [ -122.04657, 36.96826 ], [ -122.0466072, 36.9682435 ] ], [ [ -122.04657, 36.96826 ], [ -122.0465245, 36.9682617 ] ], [ [ -122.0465245, 36.9682617 ], [ -122.04657, 36.96826 ] ], [ [ -122.0465245, 36.9682617 ], [ -122.0465007, 36.9682534 ] ], [ [ -122.0465007, 36.9682534 ], [ -122.0465245, 36.9682617 ] ], [ [ -122.0465007, 36.9682534 ], [ -122.0464534, 36.9682215 ] ], [ [ -122.0464534, 36.9682215 ], [ -122.0465007, 36.9682534 ] ], [ [ -122.0464534, 36.9682215 ], [ -122.0464271, 36.9682039 ] ], [ [ -122.0453083, 36.9664198 ], [ -122.0449752, 36.9661921 ] ], [ [ -122.0454808, 36.9665337 ], [ -122.045579364766539, 36.966598078033186 ] ], [ [ -122.0457867, 36.9667335 ], [ -122.0454808, 36.9665337 ] ], [ [ -122.0457867, 36.9667335 ], [ -122.045477242523901, 36.967070344018481 ] ], [ [ -122.0450764, 36.9660927 ], [ -122.0450591, 36.9660965 ] ], [ [ -122.0450764, 36.9660927 ], [ -122.0455393, 36.9655774 ] ], [ [ -122.0455393, 36.9655774 ], [ -122.045350393323304, 36.96578769079823 ] ], [ [ -122.0455393, 36.9655774 ], [ -122.045541, 36.9655551 ] ], [ [ -122.0453904, 36.9654883 ], [ -122.0454261, 36.9654767 ] ], [ [ -122.0453904, 36.9654883 ], [ -122.045173214609804, 36.965729848832055 ] ], [ [ -122.045653, 36.9654519 ], [ -122.045723296318414, 36.965373453239927 ] ], [ [ -122.045653, 36.9654519 ], [ -122.0456261, 36.9654598 ] ], [ [ -122.0408042, 36.9662265 ], [ -122.0408709, 36.9661486 ] ], [ [ -122.0408042, 36.9662265 ], [ -122.0405969, 36.9664717 ] ], [ [ -122.0404908, 36.9665972 ], [ -122.0405969, 36.9664717 ] ], [ [ -122.0404908, 36.9665972 ], [ -122.0404815, 36.9666118 ] ], [ [ -122.0404815, 36.9666118 ], [ -122.0404908, 36.9665972 ] ], [ [ -122.0404815, 36.9666118 ], [ -122.0404775, 36.9666293 ] ], [ [ -122.0404852, 36.9666459 ], [ -122.0404775, 36.9666293 ] ], [ [ -122.0404852, 36.9666459 ], [ -122.0404982, 36.9666624 ] ], [ [ -122.0404982, 36.9666624 ], [ -122.0404852, 36.9666459 ] ], [ [ -122.0404982, 36.9666624 ], [ -122.040771, 36.9668101 ] ], [ [ -122.040771, 36.9668101 ], [ -122.0404982, 36.9666624 ] ], [ [ -122.040771, 36.9668101 ], [ -122.040802, 36.9668269 ] ], [ [ -122.0436917, 36.9660079 ], [ -122.0434407, 36.9663033 ] ], [ [ -122.0438444, 36.9674393 ], [ -122.044292, 36.9669367 ] ], [ [ -122.0438444, 36.9674393 ], [ -122.0442623, 36.9676775 ] ], [ [ -122.0438444, 36.9674393 ], [ -122.0438133, 36.9674734 ] ], [ [ -122.0437747, 36.9675157 ], [ -122.0441694, 36.9677505 ] ], [ [ -122.0437747, 36.9675157 ], [ -122.0432285, 36.9681177 ] ], [ [ -122.0437747, 36.9675157 ], [ -122.0438133, 36.9674734 ] ], [ [ -122.0432285, 36.9681177 ], [ -122.0437747, 36.9675157 ] ], [ [ -122.0432285, 36.9681177 ], [ -122.0432139, 36.9681276 ] ], [ [ -122.0441994, 36.9684671 ], [ -122.0446165, 36.9680163 ] ], [ [ -122.0441994, 36.9684671 ], [ -122.0442747, 36.9684973 ] ], [ [ -122.0441994, 36.9684671 ], [ -122.0441407, 36.9684476 ] ], [ [ -122.0443389, 36.9685233 ], [ -122.0452225, 36.9675572 ] ], [ [ -122.0443389, 36.9685233 ], [ -122.0453218, 36.9688578 ] ], [ [ -122.0443389, 36.9685233 ], [ -122.0442747, 36.9684973 ] ], [ [ -122.0418647, 36.9685885 ], [ -122.0418412, 36.9684101 ] ], [ [ -122.0454149, 36.9690392 ], [ -122.0453442, 36.9690101 ] ], [ [ -122.0454149, 36.9690392 ], [ -122.0454488, 36.9690513 ] ], [ [ -122.0452577, 36.9689839 ], [ -122.0453442, 36.9690101 ] ], [ [ -122.0452577, 36.9689839 ], [ -122.0445375, 36.9687379 ] ], [ [ -122.0452577, 36.9689839 ], [ -122.0452389, 36.9690047 ] ], [ [ -122.0462749, 36.9693895 ], [ -122.0462564, 36.9694091 ] ], [ [ -122.0462749, 36.9693895 ], [ -122.0463192, 36.9693425 ] ], [ [ -122.0463192, 36.9693425 ], [ -122.0462749, 36.9693895 ] ], [ [ -122.0463192, 36.9693425 ], [ -122.046417, 36.9692189 ] ], [ [ -122.046417, 36.9692189 ], [ -122.0463192, 36.9693425 ] ], [ [ -122.046417, 36.9692189 ], [ -122.0465041, 36.9690937 ] ], [ [ -122.0445375, 36.9687379 ], [ -122.0452577, 36.9689839 ] ], [ [ -122.0445375, 36.9687379 ], [ -122.0442773, 36.9686458 ] ], [ [ -122.0442773, 36.9686458 ], [ -122.0445375, 36.9687379 ] ], [ [ -122.0442773, 36.9686458 ], [ -122.0441882, 36.9686094 ] ], [ [ -122.0442773, 36.9686458 ], [ -122.0442693, 36.9686583 ] ], [ [ -122.0454488, 36.9690513 ], [ -122.0454149, 36.9690392 ] ], [ [ -122.0454488, 36.9690513 ], [ -122.0454596, 36.9690552 ] ], [ [ -122.0454488, 36.9690513 ], [ -122.0454327, 36.9690541 ] ], [ [ -122.0454596, 36.9690552 ], [ -122.0454488, 36.9690513 ] ], [ [ -122.0454596, 36.9690552 ], [ -122.0456013, 36.9691402 ] ], [ [ -122.0456013, 36.9691402 ], [ -122.0454596, 36.9690552 ] ], [ [ -122.0456013, 36.9691402 ], [ -122.0458216, 36.9693211 ] ], [ [ -122.0458216, 36.9693211 ], [ -122.0456013, 36.9691402 ] ], [ [ -122.0458216, 36.9693211 ], [ -122.0459449, 36.9694171 ] ], [ [ -122.0459449, 36.9694171 ], [ -122.0458216, 36.9693211 ] ], [ [ -122.0459449, 36.9694171 ], [ -122.0460142, 36.9694811 ] ], [ [ -122.0460142, 36.9694811 ], [ -122.0459449, 36.9694171 ] ], [ [ -122.0460142, 36.9694811 ], [ -122.0460357, 36.969534 ] ], [ [ -122.0462324, 36.9693538 ], [ -122.046192, 36.9693852 ] ], [ [ -122.0461485, 36.969383 ], [ -122.046192, 36.9693852 ] ], [ [ -122.0461485, 36.969383 ], [ -122.046011, 36.9693 ] ], [ [ -122.046011, 36.9693 ], [ -122.0461485, 36.969383 ] ], [ [ -122.046011, 36.9693 ], [ -122.045825, 36.969156 ] ], [ [ -122.045825, 36.969156 ], [ -122.046011, 36.9693 ] ], [ [ -122.045825, 36.969156 ], [ -122.0456451, 36.9690181 ] ], [ [ -122.0456451, 36.9690181 ], [ -122.045825, 36.969156 ] ], [ [ -122.0456451, 36.9690181 ], [ -122.0455257, 36.9689289 ] ], [ [ -122.0455257, 36.9689289 ], [ -122.0456451, 36.9690181 ] ], [ [ -122.0455257, 36.9689289 ], [ -122.0454733, 36.9688975 ] ], [ [ -122.0454733, 36.9688975 ], [ -122.0455257, 36.9689289 ] ], [ [ -122.0454733, 36.9688975 ], [ -122.0454281, 36.9688857 ] ], [ [ -122.0466314, 36.9681514 ], [ -122.046630435605962, 36.968159708625542 ] ], [ [ -122.0466314, 36.9681514 ], [ -122.046632374029869, 36.968143092098188 ] ], [ [ -122.0466314, 36.9681514 ], [ -122.046641774015754, 36.968151983114616 ] ], [ [ -122.0466314, 36.9681514 ], [ -122.046621780947447, 36.968148228500795 ] ], [ [ -122.0464271, 36.9682039 ], [ -122.0464534, 36.9682215 ] ], [ [ -122.0464271, 36.9682039 ], [ -122.0464012, 36.9681864 ] ], [ [ -122.0464271, 36.9682039 ], [ -122.0464735, 36.96816 ] ], [ [ -122.0464271, 36.9682039 ], [ -122.0463898, 36.9682467 ] ], [ [ -122.0464012, 36.9681864 ], [ -122.0464271, 36.9682039 ] ], [ [ -122.0464012, 36.9681864 ], [ -122.046233315399462, 36.968072630290052 ] ], [ [ -122.0457102, 36.9670225 ], [ -122.0453163, 36.9674512 ] ], [ [ -122.0465762, 36.9681332 ], [ -122.0466314, 36.9681514 ] ], [ [ -122.0465762, 36.9681332 ], [ -122.0465203, 36.9681356 ] ], [ [ -122.0465203, 36.9681356 ], [ -122.0465762, 36.9681332 ] ], [ [ -122.0465203, 36.9681356 ], [ -122.0464735, 36.96816 ] ], [ [ -122.0464735, 36.96816 ], [ -122.0465203, 36.9681356 ] ], [ [ -122.0464735, 36.96816 ], [ -122.0464271, 36.9682039 ] ], [ [ -122.0453218, 36.9688578 ], [ -122.0454281, 36.9688857 ] ], [ [ -122.0453218, 36.9688578 ], [ -122.0443389, 36.9685233 ] ], [ [ -122.0460811, 36.9667051 ], [ -122.045989878415739, 36.966772018520395 ] ], [ [ -122.0460811, 36.9667051 ], [ -122.046184777832124, 36.966651110091568 ] ], [ [ -122.0413547, 36.970326 ], [ -122.042057187361209, 36.970780556376006 ] ], [ [ -122.0413547, 36.970326 ], [ -122.0411662, 36.9702065 ] ], [ [ -122.0411662, 36.9702065 ], [ -122.0413547, 36.970326 ] ], [ [ -122.0411662, 36.9702065 ], [ -122.0411565, 36.9701995 ] ], [ [ -122.0411565, 36.9701995 ], [ -122.0411662, 36.9702065 ] ], [ [ -122.0411565, 36.9701995 ], [ -122.0415458, 36.9698078 ] ], [ [ -122.0415458, 36.9698078 ], [ -122.0411565, 36.9701995 ] ], [ [ -122.0415458, 36.9698078 ], [ -122.0417042, 36.9696509 ] ], [ [ -122.0417042, 36.9696509 ], [ -122.0415458, 36.9698078 ] ], [ [ -122.0417042, 36.9696509 ], [ -122.041997, 36.9698397 ] ], [ [ -122.0417042, 36.9696509 ], [ -122.0417033, 36.9696303 ] ], [ [ -122.041997, 36.9698397 ], [ -122.0417042, 36.9696509 ] ], [ [ -122.041997, 36.9698397 ], [ -122.0426226, 36.9702426 ] ], [ [ -122.0426226, 36.9702426 ], [ -122.041997, 36.9698397 ] ], [ [ -122.0426226, 36.9702426 ], [ -122.0432632, 36.9706561 ] ], [ [ -122.0432632, 36.9706561 ], [ -122.04323842709492, 36.97064010937207 ] ], [ [ -122.0432632, 36.9706561 ], [ -122.043287972511308, 36.970672091147435 ] ], [ [ -122.0413246, 36.9704978 ], [ -122.041816944216521, 36.970816463742771 ] ], [ [ -122.0413246, 36.9704978 ], [ -122.0410485, 36.9703281 ] ], [ [ -122.0410485, 36.9703281 ], [ -122.0413246, 36.9704978 ] ], [ [ -122.0410485, 36.9703281 ], [ -122.0410423, 36.970309 ] ], [ [ -122.0410423, 36.970309 ], [ -122.0410485, 36.9703281 ] ], [ [ -122.0410423, 36.970309 ], [ -122.0410622, 36.9702774 ] ], [ [ -122.0410423, 36.970309 ], [ -122.0410158, 36.9703338 ] ], [ [ -122.0410158, 36.9703338 ], [ -122.0410423, 36.970309 ] ], [ [ -122.0410158, 36.9703338 ], [ -122.040807, 36.9705487 ] ], [ [ -122.040807, 36.9705487 ], [ -122.0410158, 36.9703338 ] ], [ [ -122.040807, 36.9705487 ], [ -122.0404902, 36.9708618 ] ], [ [ -122.0404902, 36.9708618 ], [ -122.040567105209647, 36.970785792988828 ] ], [ [ -122.0404902, 36.9708618 ], [ -122.0404639, 36.9708639 ] ], [ [ -122.0454327, 36.9690541 ], [ -122.0454488, 36.9690513 ] ], [ [ -122.0454327, 36.9690541 ], [ -122.045414, 36.9690733 ] ], [ [ -122.045414, 36.9690733 ], [ -122.0454327, 36.9690541 ] ], [ [ -122.045414, 36.9690733 ], [ -122.0451717, 36.9693228 ] ], [ [ -122.0451717, 36.9693228 ], [ -122.045414, 36.9690733 ] ], [ [ -122.0451717, 36.9693228 ], [ -122.0450415, 36.9694543 ] ], [ [ -122.0450415, 36.9694543 ], [ -122.0451717, 36.9693228 ] ], [ [ -122.0450415, 36.9694543 ], [ -122.0447415, 36.9697584 ] ], [ [ -122.0447415, 36.9697584 ], [ -122.0450415, 36.9694543 ] ], [ [ -122.0447415, 36.9697584 ], [ -122.044381073353151, 36.970128862392798 ] ], [ [ -122.0452389, 36.9690047 ], [ -122.0452577, 36.9689839 ] ], [ [ -122.0452389, 36.9690047 ], [ -122.0450532, 36.9691969 ] ], [ [ -122.0450532, 36.9691969 ], [ -122.0452389, 36.9690047 ] ], [ [ -122.0450532, 36.9691969 ], [ -122.0448174, 36.9694384 ] ], [ [ -122.0448174, 36.9694384 ], [ -122.0450532, 36.9691969 ] ], [ [ -122.0448174, 36.9694384 ], [ -122.0445039, 36.9697589 ] ], [ [ -122.0445039, 36.9697589 ], [ -122.0448174, 36.9694384 ] ], [ [ -122.0445039, 36.9697589 ], [ -122.0442354, 36.9700317 ] ], [ [ -122.0442354, 36.9700317 ], [ -122.044402749142606, 36.969861670778016 ] ], [ [ -122.0442354, 36.9700317 ], [ -122.044068204920933, 36.970201827129806 ] ], [ [ -122.0432909, 36.9704873 ], [ -122.043552195227605, 36.970651863114391 ] ], [ [ -122.0432909, 36.9704873 ], [ -122.043033538283936, 36.970318794117475 ] ], [ [ -122.0428408, 36.9701926 ], [ -122.0432909, 36.9704873 ] ], [ [ -122.0428408, 36.9701926 ], [ -122.0427748, 36.9701492 ] ], [ [ -122.0427748, 36.9701492 ], [ -122.0428408, 36.9701926 ] ], [ [ -122.0427748, 36.9701492 ], [ -122.0426947, 36.9700974 ] ], [ [ -122.0427748, 36.9701492 ], [ -122.0430951, 36.9698311 ] ], [ [ -122.0426342, 36.9700583 ], [ -122.0426947, 36.9700974 ] ], [ [ -122.0426342, 36.9700583 ], [ -122.0420271, 36.9696693 ] ], [ [ -122.0426342, 36.9700583 ], [ -122.0426421, 36.9700403 ] ], [ [ -122.0420271, 36.9696693 ], [ -122.0426342, 36.9700583 ] ], [ [ -122.0420271, 36.9696693 ], [ -122.0418219, 36.9695375 ] ], [ [ -122.0418219, 36.9695375 ], [ -122.0420271, 36.9696693 ] ], [ [ -122.0418219, 36.9695375 ], [ -122.0418058, 36.9695271 ] ], [ [ -122.0418219, 36.9695375 ], [ -122.0420179, 36.9693369 ] ], [ [ -122.0418058, 36.9695271 ], [ -122.0418219, 36.9695375 ] ], [ [ -122.0418058, 36.9695271 ], [ -122.0417962, 36.9695341 ] ], [ [ -122.0430781, 36.9682376 ], [ -122.0430167, 36.9682143 ] ], [ [ -122.0430781, 36.9682376 ], [ -122.0431017, 36.9682369 ] ], [ [ -122.0429558, 36.9681863 ], [ -122.0430167, 36.9682143 ] ], [ [ -122.0429558, 36.9681863 ], [ -122.042952, 36.968172 ] ], [ [ -122.042952, 36.968172 ], [ -122.0429558, 36.9681863 ] ], [ [ -122.042952, 36.968172 ], [ -122.0429952, 36.96812 ] ], [ [ -122.042952, 36.968172 ], [ -122.0429407, 36.9681768 ] ], [ [ -122.0430483, 36.9680629 ], [ -122.0429952, 36.96812 ] ], [ [ -122.0430483, 36.9680629 ], [ -122.0430605, 36.9680538 ] ], [ [ -122.0430605, 36.9680538 ], [ -122.0430483, 36.9680629 ] ], [ [ -122.0430605, 36.9680538 ], [ -122.0431451, 36.9680853 ] ], [ [ -122.0430605, 36.9680538 ], [ -122.0430297, 36.9680453 ] ], [ [ -122.0430605, 36.9680538 ], [ -122.0431544, 36.9679501 ] ], [ [ -122.0432059, 36.9681143 ], [ -122.0431451, 36.9680853 ] ], [ [ -122.0432059, 36.9681143 ], [ -122.0432139, 36.9681276 ] ], [ [ -122.0432139, 36.9681276 ], [ -122.0432059, 36.9681143 ] ], [ [ -122.0432139, 36.9681276 ], [ -122.0431685, 36.9681798 ] ], [ [ -122.0432139, 36.9681276 ], [ -122.0432285, 36.9681177 ] ], [ [ -122.0432139, 36.9681276 ], [ -122.0432426, 36.9681345 ] ], [ [ -122.0431173, 36.9682364 ], [ -122.0431685, 36.9681798 ] ], [ [ -122.0431173, 36.9682364 ], [ -122.0431017, 36.9682369 ] ], [ [ -122.0431017, 36.9682369 ], [ -122.0431173, 36.9682364 ] ], [ [ -122.0431017, 36.9682369 ], [ -122.0430781, 36.9682376 ] ], [ [ -122.0431017, 36.9682369 ], [ -122.0431229, 36.9682508 ] ], [ [ -122.0431017, 36.9682369 ], [ -122.0430983, 36.968248 ] ], [ [ -122.0441064, 36.9685799 ], [ -122.0435183, 36.9683913 ] ], [ [ -122.0441064, 36.9685799 ], [ -122.0441882, 36.9686094 ] ], [ [ -122.0441064, 36.9685799 ], [ -122.0438251, 36.9688718 ] ], [ [ -122.0435183, 36.9683913 ], [ -122.0441064, 36.9685799 ] ], [ [ -122.0435183, 36.9683913 ], [ -122.043358, 36.9683297 ] ], [ [ -122.043358, 36.9683297 ], [ -122.0435183, 36.9683913 ] ], [ [ -122.043358, 36.9683297 ], [ -122.0432314, 36.9682868 ] ], [ [ -122.0432314, 36.9682868 ], [ -122.043358, 36.9683297 ] ], [ [ -122.0432314, 36.9682868 ], [ -122.0431229, 36.9682508 ] ], [ [ -122.0431229, 36.9682508 ], [ -122.0432314, 36.9682868 ] ], [ [ -122.0431229, 36.9682508 ], [ -122.0431017, 36.9682369 ] ], [ [ -122.0430983, 36.968248 ], [ -122.0431017, 36.9682369 ] ], [ [ -122.0430983, 36.968248 ], [ -122.0429748, 36.9683805 ] ], [ [ -122.0429748, 36.9683805 ], [ -122.0430983, 36.968248 ] ], [ [ -122.0429748, 36.9683805 ], [ -122.042768, 36.9685888 ] ], [ [ -122.042768, 36.9685888 ], [ -122.0429748, 36.9683805 ] ], [ [ -122.042768, 36.9685888 ], [ -122.0425243, 36.9688315 ] ], [ [ -122.0425243, 36.9688315 ], [ -122.042768, 36.9685888 ] ], [ [ -122.0425243, 36.9688315 ], [ -122.0423837, 36.9689672 ] ], [ [ -122.0423837, 36.9689672 ], [ -122.0425243, 36.9688315 ] ], [ [ -122.0423837, 36.9689672 ], [ -122.0420541, 36.9692988 ] ], [ [ -122.0420541, 36.9692988 ], [ -122.0423837, 36.9689672 ] ], [ [ -122.0420541, 36.9692988 ], [ -122.0420179, 36.9693369 ] ], [ [ -122.0420179, 36.9693369 ], [ -122.0420541, 36.9692988 ] ], [ [ -122.0420179, 36.9693369 ], [ -122.0418219, 36.9695375 ] ], [ [ -122.0420179, 36.9693369 ], [ -122.041992, 36.9693222 ] ], [ [ -122.041992, 36.9693222 ], [ -122.0420179, 36.9693369 ] ], [ [ -122.041992, 36.9693222 ], [ -122.0419459, 36.969287 ] ], [ [ -122.0418931, 36.9692524 ], [ -122.0419459, 36.969287 ] ], [ [ -122.0418931, 36.9692524 ], [ -122.0418771, 36.9692413 ] ], [ [ -122.0397463, 36.9682881 ], [ -122.039703805301855, 36.968264678935391 ] ], [ [ -122.0397463, 36.9682881 ], [ -122.039788559262718, 36.968311793984327 ] ], [ [ -122.0404096, 36.96866 ], [ -122.0397463, 36.9682881 ] ], [ [ -122.0404096, 36.96866 ], [ -122.041132171216219, 36.969035308842081 ] ], [ [ -122.0404072, 36.9697513 ], [ -122.040923160863443, 36.969996097783458 ] ], [ [ -122.0404072, 36.9697513 ], [ -122.039893565160526, 36.969503375523438 ] ], [ [ -122.0398066, 36.9673916 ], [ -122.040229295996014, 36.967624854683322 ] ], [ [ -122.0398066, 36.9673916 ], [ -122.039781, 36.9673775 ] ], [ [ -122.0410579, 36.9680821 ], [ -122.0398066, 36.9673916 ] ], [ [ -122.0410579, 36.9680821 ], [ -122.0411284, 36.9680821 ] ], [ [ -122.0411284, 36.9680821 ], [ -122.0410579, 36.9680821 ] ], [ [ -122.0411284, 36.9680821 ], [ -122.0411834, 36.9680532 ] ], [ [ -122.0411834, 36.9680532 ], [ -122.0411284, 36.9680821 ] ], [ [ -122.0411834, 36.9680532 ], [ -122.0411939, 36.9680401 ] ], [ [ -122.0397378, 36.9673537 ], [ -122.039781, 36.9673775 ] ], [ [ -122.0397378, 36.9673537 ], [ -122.0395827, 36.967268 ] ], [ [ -122.039781, 36.9673775 ], [ -122.0397378, 36.9673537 ] ], [ [ -122.039781, 36.9673775 ], [ -122.0398066, 36.9673916 ] ], [ [ -122.039781, 36.9673775 ], [ -122.0398176, 36.9673271 ] ], [ [ -122.039781, 36.9673775 ], [ -122.0397436, 36.9674289 ] ], [ [ -122.0397436, 36.9674289 ], [ -122.039781, 36.9673775 ] ], [ [ -122.0397436, 36.9674289 ], [ -122.0396769, 36.9675127 ] ], [ [ -122.0396769, 36.9675127 ], [ -122.0397436, 36.9674289 ] ], [ [ -122.0395228, 36.9672729 ], [ -122.039358812243108, 36.967373441032848 ] ], [ [ -122.0395228, 36.9672729 ], [ -122.0395551, 36.9672598 ] ], [ [ -122.0395827, 36.967268 ], [ -122.0395551, 36.9672598 ] ], [ [ -122.0395827, 36.967268 ], [ -122.0397378, 36.9673537 ] ], [ [ -122.0408229, 36.9668382 ], [ -122.040875, 36.9668664 ] ], [ [ -122.0408229, 36.9668382 ], [ -122.040802, 36.9668269 ] ], [ [ -122.040875, 36.9668664 ], [ -122.0408229, 36.9668382 ] ], [ [ -122.040875, 36.9668664 ], [ -122.0412478, 36.9670743 ] ], [ [ -122.0412478, 36.9670743 ], [ -122.040875, 36.9668664 ] ], [ [ -122.0412478, 36.9670743 ], [ -122.0412647, 36.9670655 ] ], [ [ -122.0412478, 36.9670743 ], [ -122.0412963, 36.9670944 ] ], [ [ -122.0412647, 36.9670655 ], [ -122.0412478, 36.9670743 ] ], [ [ -122.0412647, 36.9670655 ], [ -122.0415441, 36.9667363 ] ], [ [ -122.0415441, 36.9667363 ], [ -122.0412647, 36.9670655 ] ], [ [ -122.0415441, 36.9667363 ], [ -122.0415749, 36.9667001 ] ], [ [ -122.040802, 36.9668269 ], [ -122.040771, 36.9668101 ] ], [ [ -122.040802, 36.9668269 ], [ -122.0408229, 36.9668382 ] ], [ [ -122.040802, 36.9668269 ], [ -122.0408493, 36.9667679 ] ], [ [ -122.040802, 36.9668269 ], [ -122.0407544, 36.9668863 ] ], [ [ -122.0415749, 36.9667001 ], [ -122.0415441, 36.9667363 ] ], [ [ -122.0415749, 36.9667001 ], [ -122.0415973, 36.9666737 ] ], [ [ -122.0415749, 36.9667001 ], [ -122.0416157, 36.9667248 ] ], [ [ -122.0415749, 36.9667001 ], [ -122.0413849, 36.9665852 ] ], [ [ -122.0415973, 36.9666737 ], [ -122.0415749, 36.9667001 ] ], [ [ -122.0415973, 36.9666737 ], [ -122.0418843, 36.9663356 ] ], [ [ -122.0418843, 36.9663356 ], [ -122.0415973, 36.9666737 ] ], [ [ -122.0418843, 36.9663356 ], [ -122.0419024, 36.9663142 ] ], [ [ -122.0413849, 36.9665852 ], [ -122.0415749, 36.9667001 ] ], [ [ -122.0413849, 36.9665852 ], [ -122.0411679, 36.9664687 ] ], [ [ -122.0411679, 36.9664687 ], [ -122.0413849, 36.9665852 ] ], [ [ -122.0411679, 36.9664687 ], [ -122.0411374, 36.9664638 ] ], [ [ -122.0411374, 36.9664638 ], [ -122.0411679, 36.9664687 ] ], [ [ -122.0411374, 36.9664638 ], [ -122.0410988, 36.9664732 ] ], [ [ -122.0410988, 36.9664732 ], [ -122.0411374, 36.9664638 ] ], [ [ -122.0410988, 36.9664732 ], [ -122.0410587, 36.9665117 ] ], [ [ -122.0410587, 36.9665117 ], [ -122.0410988, 36.9664732 ] ], [ [ -122.0410587, 36.9665117 ], [ -122.0409313, 36.9666676 ] ], [ [ -122.0408493, 36.9667679 ], [ -122.0409313, 36.9666676 ] ], [ [ -122.0408493, 36.9667679 ], [ -122.040802, 36.9668269 ] ], [ [ -122.0419024, 36.9663142 ], [ -122.0418843, 36.9663356 ] ], [ [ -122.0419024, 36.9663142 ], [ -122.0419122, 36.9663026 ] ], [ [ -122.0419024, 36.9663142 ], [ -122.0419484, 36.96634 ] ], [ [ -122.0419024, 36.9663142 ], [ -122.0415895, 36.9661395 ] ], [ [ -122.0419122, 36.9663026 ], [ -122.0419024, 36.9663142 ] ], [ [ -122.0419122, 36.9663026 ], [ -122.0423125, 36.9658311 ] ], [ [ -122.0415895, 36.9661395 ], [ -122.0419024, 36.9663142 ] ], [ [ -122.0441407, 36.9684476 ], [ -122.0441994, 36.9684671 ] ], [ [ -122.0441407, 36.9684476 ], [ -122.0440097, 36.9684043 ] ], [ [ -122.0440097, 36.9684043 ], [ -122.0441407, 36.9684476 ] ], [ [ -122.0440097, 36.9684043 ], [ -122.0439171, 36.9683823 ] ], [ [ -122.0439171, 36.9683823 ], [ -122.0440097, 36.9684043 ] ], [ [ -122.0439171, 36.9683823 ], [ -122.0437881, 36.96834 ] ], [ [ -122.0437881, 36.96834 ], [ -122.0439171, 36.9683823 ] ], [ [ -122.0437881, 36.96834 ], [ -122.043696, 36.9683032 ] ], [ [ -122.0436228, 36.9682799 ], [ -122.043696, 36.9683032 ] ], [ [ -122.0436228, 36.9682799 ], [ -122.0435301, 36.9682492 ] ], [ [ -122.0435301, 36.9682492 ], [ -122.0436228, 36.9682799 ] ], [ [ -122.0435301, 36.9682492 ], [ -122.0434638, 36.9682176 ] ], [ [ -122.0434638, 36.9682176 ], [ -122.0435301, 36.9682492 ] ], [ [ -122.0434638, 36.9682176 ], [ -122.0433773, 36.9681773 ] ], [ [ -122.0433773, 36.9681773 ], [ -122.0434638, 36.9682176 ] ], [ [ -122.0433773, 36.9681773 ], [ -122.0432426, 36.9681345 ] ], [ [ -122.0432426, 36.9681345 ], [ -122.0433773, 36.9681773 ] ], [ [ -122.0432426, 36.9681345 ], [ -122.0432139, 36.9681276 ] ], [ [ -122.0430297, 36.9680453 ], [ -122.0430605, 36.9680538 ] ], [ [ -122.0430297, 36.9680453 ], [ -122.0429668, 36.9680096 ] ], [ [ -122.0429668, 36.9680096 ], [ -122.0430297, 36.9680453 ] ], [ [ -122.0429668, 36.9680096 ], [ -122.0426775, 36.9678537 ] ], [ [ -122.0426775, 36.9678537 ], [ -122.0429668, 36.9680096 ] ], [ [ -122.0426775, 36.9678537 ], [ -122.0424812, 36.9677431 ] ], [ [ -122.0424812, 36.9677431 ], [ -122.0426775, 36.9678537 ] ], [ [ -122.0424812, 36.9677431 ], [ -122.0423028, 36.967646 ] ], [ [ -122.0423028, 36.967646 ], [ -122.0424812, 36.9677431 ] ], [ [ -122.0423028, 36.967646 ], [ -122.0423186, 36.9676234 ] ], [ [ -122.0423028, 36.967646 ], [ -122.0422248, 36.9676051 ] ], [ [ -122.0423186, 36.9676234 ], [ -122.0423028, 36.967646 ] ], [ [ -122.0423186, 36.9676234 ], [ -122.0424331, 36.9674883 ] ], [ [ -122.0424331, 36.9674883 ], [ -122.0423186, 36.9676234 ] ], [ [ -122.0424331, 36.9674883 ], [ -122.0425708, 36.9673253 ] ], [ [ -122.0425708, 36.9673253 ], [ -122.0424331, 36.9674883 ] ], [ [ -122.0425708, 36.9673253 ], [ -122.0427977, 36.9670606 ] ], [ [ -122.0427977, 36.9670606 ], [ -122.0425708, 36.9673253 ] ], [ [ -122.0427977, 36.9670606 ], [ -122.0429405, 36.9668985 ] ], [ [ -122.0429405, 36.9668985 ], [ -122.0427977, 36.9670606 ] ], [ [ -122.0429405, 36.9668985 ], [ -122.0431271, 36.9666688 ] ], [ [ -122.0431271, 36.9666688 ], [ -122.0429405, 36.9668985 ] ], [ [ -122.0431271, 36.9666688 ], [ -122.0432551, 36.9665235 ] ], [ [ -122.0432551, 36.9665235 ], [ -122.0431271, 36.9666688 ] ], [ [ -122.0432551, 36.9665235 ], [ -122.0433497, 36.9664119 ] ], [ [ -122.0432267, 36.966351 ], [ -122.0432278, 36.9663393 ] ], [ [ -122.0432267, 36.966351 ], [ -122.0430939, 36.9664972 ] ], [ [ -122.0430939, 36.9664972 ], [ -122.0432267, 36.966351 ] ], [ [ -122.0430939, 36.9664972 ], [ -122.0428634, 36.9667676 ] ], [ [ -122.0428634, 36.9667676 ], [ -122.0430939, 36.9664972 ] ], [ [ -122.0428634, 36.9667676 ], [ -122.0426252, 36.9670501 ] ], [ [ -122.0426252, 36.9670501 ], [ -122.0428634, 36.9667676 ] ], [ [ -122.0426252, 36.9670501 ], [ -122.0426252, 36.9670721 ] ], [ [ -122.0426252, 36.9670721 ], [ -122.0426252, 36.9670501 ] ], [ [ -122.0426252, 36.9670721 ], [ -122.0426222, 36.9670861 ] ], [ [ -122.0426222, 36.9670861 ], [ -122.0426252, 36.9670721 ] ], [ [ -122.0426222, 36.9670861 ], [ -122.0426137, 36.9670993 ] ], [ [ -122.0426137, 36.9670993 ], [ -122.0426222, 36.9670861 ] ], [ [ -122.0426137, 36.9670993 ], [ -122.0425887, 36.9671273 ] ], [ [ -122.0425887, 36.9671273 ], [ -122.0426137, 36.9670993 ] ], [ [ -122.0425887, 36.9671273 ], [ -122.0425682, 36.9671385 ] ], [ [ -122.0425682, 36.9671385 ], [ -122.0425887, 36.9671273 ] ], [ [ -122.0425682, 36.9671385 ], [ -122.0425487, 36.9671493 ] ], [ [ -122.0425487, 36.9671493 ], [ -122.0425682, 36.9671385 ] ], [ [ -122.0425487, 36.9671493 ], [ -122.0425277, 36.9671657 ] ], [ [ -122.0425277, 36.9671657 ], [ -122.0425487, 36.9671493 ] ], [ [ -122.0425277, 36.9671657 ], [ -122.0424987, 36.967202 ] ], [ [ -122.0424987, 36.967202 ], [ -122.0425277, 36.9671657 ] ], [ [ -122.0424987, 36.967202 ], [ -122.0424717, 36.9672308 ] ], [ [ -122.0424717, 36.9672308 ], [ -122.0424987, 36.967202 ] ], [ [ -122.0424717, 36.9672308 ], [ -122.0424632, 36.9672492 ] ], [ [ -122.0424632, 36.9672492 ], [ -122.0424717, 36.9672308 ] ], [ [ -122.0424632, 36.9672492 ], [ -122.0424276, 36.9672892 ] ], [ [ -122.0424276, 36.9672892 ], [ -122.0424632, 36.9672492 ] ], [ [ -122.0424276, 36.9672892 ], [ -122.0424016, 36.9673148 ] ], [ [ -122.0424016, 36.9673148 ], [ -122.0424276, 36.9672892 ] ], [ [ -122.0424016, 36.9673148 ], [ -122.0421718, 36.9675768 ] ], [ [ -122.0421718, 36.9675768 ], [ -122.0424016, 36.9673148 ] ], [ [ -122.0421718, 36.9675768 ], [ -122.0420456, 36.9675075 ] ], [ [ -122.0421718, 36.9675768 ], [ -122.0422248, 36.9676051 ] ], [ [ -122.0420456, 36.9675075 ], [ -122.0421718, 36.9675768 ] ], [ [ -122.0420456, 36.9675075 ], [ -122.0418853, 36.9674212 ] ], [ [ -122.0418853, 36.9674212 ], [ -122.0420456, 36.9675075 ] ], [ [ -122.0418853, 36.9674212 ], [ -122.0415767, 36.9672492 ] ], [ [ -122.0415767, 36.9672492 ], [ -122.0418853, 36.9674212 ] ], [ [ -122.0415767, 36.9672492 ], [ -122.0413775, 36.9671394 ] ], [ [ -122.0413775, 36.9671394 ], [ -122.0415767, 36.9672492 ] ], [ [ -122.0413775, 36.9671394 ], [ -122.0415179, 36.9669726 ] ], [ [ -122.0413775, 36.9671394 ], [ -122.0412963, 36.9670944 ] ], [ [ -122.0415179, 36.9669726 ], [ -122.0413775, 36.9671394 ] ], [ [ -122.0415179, 36.9669726 ], [ -122.0416964, 36.9667779 ] ], [ [ -122.0416964, 36.9667779 ], [ -122.0415179, 36.9669726 ] ], [ [ -122.0416964, 36.9667779 ], [ -122.0418663, 36.9665718 ] ], [ [ -122.0418663, 36.9665718 ], [ -122.0416964, 36.9667779 ] ], [ [ -122.0418663, 36.9665718 ], [ -122.0422228, 36.9661523 ] ], [ [ -122.0422228, 36.9661523 ], [ -122.0418663, 36.9665718 ] ], [ [ -122.0422228, 36.9661523 ], [ -122.0424382, 36.965905 ] ], [ [ -122.0431544, 36.9679501 ], [ -122.0430605, 36.9680538 ] ], [ [ -122.0431544, 36.9679501 ], [ -122.0433006, 36.967784 ] ], [ [ -122.0433006, 36.967784 ], [ -122.0431544, 36.9679501 ] ], [ [ -122.0433006, 36.967784 ], [ -122.0434528, 36.9676195 ] ], [ [ -122.0434528, 36.9676195 ], [ -122.0433006, 36.967784 ] ], [ [ -122.0434528, 36.9676195 ], [ -122.0435769, 36.9674848 ] ], [ [ -122.0435769, 36.9674848 ], [ -122.0434528, 36.9676195 ] ], [ [ -122.0435769, 36.9674848 ], [ -122.0437261, 36.9673241 ] ], [ [ -122.0437261, 36.9673241 ], [ -122.0435769, 36.9674848 ] ], [ [ -122.0437261, 36.9673241 ], [ -122.0439534, 36.9670771 ] ], [ [ -122.0439534, 36.9670771 ], [ -122.0437261, 36.9673241 ] ], [ [ -122.0439534, 36.9670771 ], [ -122.0441187, 36.9668898 ] ], [ [ -122.0441187, 36.9668898 ], [ -122.0439534, 36.9670771 ] ], [ [ -122.0441187, 36.9668898 ], [ -122.0441563, 36.9668493 ] ], [ [ -122.0442693, 36.9686583 ], [ -122.0442773, 36.9686458 ] ], [ [ -122.0442693, 36.9686583 ], [ -122.0440631, 36.9688647 ] ], [ [ -122.0440631, 36.9688647 ], [ -122.0442693, 36.9686583 ] ], [ [ -122.0440631, 36.9688647 ], [ -122.0436198, 36.9693087 ] ], [ [ -122.0436198, 36.9693087 ], [ -122.0440631, 36.9688647 ] ], [ [ -122.0436198, 36.9693087 ], [ -122.0430951, 36.9698311 ] ], [ [ -122.0430951, 36.9698311 ], [ -122.0436198, 36.9693087 ] ], [ [ -122.0430951, 36.9698311 ], [ -122.0427748, 36.9701492 ] ], [ [ -122.0426421, 36.9700403 ], [ -122.0426342, 36.9700583 ] ], [ [ -122.0426421, 36.9700403 ], [ -122.0430075, 36.9696819 ] ], [ [ -122.0430075, 36.9696819 ], [ -122.0426421, 36.9700403 ] ], [ [ -122.0430075, 36.9696819 ], [ -122.043488, 36.9691991 ] ], [ [ -122.043488, 36.9691991 ], [ -122.0430075, 36.9696819 ] ], [ [ -122.043488, 36.9691991 ], [ -122.0438251, 36.9688718 ] ], [ [ -122.0438251, 36.9688718 ], [ -122.043488, 36.9691991 ] ], [ [ -122.0438251, 36.9688718 ], [ -122.0441064, 36.9685799 ] ], [ [ -122.043033003291995, 36.968134564703909 ], [ -122.0429952, 36.96812 ] ], [ [ -122.043033003291995, 36.968134564703909 ], [ -122.0430767, 36.9681514 ] ] ] } }
]
}
