{
"type": "FeatureCollection",
"name": "walnut_california",
"crs": { "type": "name", "properties": { "name": "urn:ogc:def:crs:OGC:1.3:CRS84" } },
"features": [
{ "type": "Feature", "properties": { "type": "lines", "start": "-122.034005, 36.972065" }, "geometry": { "type": "MultiLineString", "coordinates": [ [ [ -122.0304703, 36.9717987 ], [ -122.0304495, 36.9718035 ] ], [ [ -122.0304703, 36.9717987 ], [ -122.0304555, 36.9717427 ] ], [ [ -122.0304703, 36.9717987 ], [ -122.0304898, 36.9718668 ] ], [ [ -122.0304703, 36.9717987 ], [ -122.030512, 36.9717905 ] ], [ [ -122.0304495, 36.9718035 ], [ -122.0304703, 36.9717987 ] ], [ [ -122.0304495, 36.9718035 ], [ -122.0303797, 36.9718157 ] ], [ [ -122.0304495, 36.9718035 ], [ -122.0304314, 36.9717466 ] ], [ [ -122.0304495, 36.9718035 ], [ -122.0304659, 36.9718717 ] ], [ [ -122.0303797, 36.9718157 ], [ -122.0304495, 36.9718035 ] ], [ [ -122.0303797, 36.9718157 ], [ -122.029689848170804, 36.971948810210996 ] ], [ [ -122.0303797, 36.9718157 ], [ -122.030364, 36.9717572 ] ], [ [ -122.0303797, 36.9718157 ], [ -122.0303935, 36.9718849 ] ], [ [ -122.0321943, 36.9715986 ], [ -122.0321743, 36.9716345 ] ], [ [ -122.0321943, 36.9715986 ], [ -122.0320979, 36.9715659 ] ], [ [ -122.0321943, 36.9715986 ], [ -122.032579, 36.9717578 ] ], [ [ -122.0321743, 36.9716345 ], [ -122.0321943, 36.9715986 ] ], [ [ -122.0321743, 36.9716345 ], [ -122.0321504, 36.9717065 ] ], [ [ -122.0321743, 36.9716345 ], [ -122.0325346, 36.9717777 ] ], [ [ -122.0321743, 36.9716345 ], [ -122.0321084, 36.9716084 ] ], [ [ -122.0321504, 36.9717065 ], [ -122.0321743, 36.9716345 ] ], [ [ -122.0321504, 36.9717065 ], [ -122.0321048, 36.9717939 ] ], [ [ -122.0321048, 36.9717939 ], [ -122.0321504, 36.9717065 ] ], [ [ -122.0321048, 36.9717939 ], [ -122.0320279, 36.9718704 ] ], [ [ -122.0320279, 36.9718704 ], [ -122.0321048, 36.9717939 ] ], [ [ -122.0320279, 36.9718704 ], [ -122.0318919, 36.9719355 ] ], [ [ -122.0318919, 36.9719355 ], [ -122.0320279, 36.9718704 ] ], [ [ -122.0318919, 36.9719355 ], [ -122.0306499, 36.9721663 ] ], [ [ -122.0306499, 36.9721663 ], [ -122.031419572920626, 36.972023272214109 ] ], [ [ -122.0306499, 36.9721663 ], [ -122.0306035, 36.9721702 ] ], [ [ -122.0306499, 36.9721663 ], [ -122.0305808, 36.9718511 ] ], [ [ -122.0306499, 36.9721663 ], [ -122.0307277, 36.9725306 ] ], [ [ -122.0306035, 36.9721702 ], [ -122.0306499, 36.9721663 ] ], [ [ -122.0306035, 36.9721702 ], [ -122.0305636, 36.9721755 ] ], [ [ -122.0306035, 36.9721702 ], [ -122.0306922, 36.9725398 ] ], [ [ -122.0306035, 36.9721702 ], [ -122.0305306, 36.9718607 ] ], [ [ -122.0305636, 36.9721755 ], [ -122.0306035, 36.9721702 ] ], [ [ -122.0305636, 36.9721755 ], [ -122.0305395, 36.9721788 ] ], [ [ -122.0305636, 36.9721755 ], [ -122.0304898, 36.9718668 ] ], [ [ -122.0305636, 36.9721755 ], [ -122.0306523, 36.9725494 ] ], [ [ -122.0305395, 36.9721788 ], [ -122.0305636, 36.9721755 ] ], [ [ -122.0305395, 36.9721788 ], [ -122.0304659, 36.9718717 ] ], [ [ -122.0305395, 36.9721788 ], [ -122.0306333, 36.9725551 ] ], [ [ -122.0348052, 36.9734135 ], [ -122.0347403, 36.9733927 ] ], [ [ -122.0348052, 36.9734135 ], [ -122.0346367, 36.9736842 ] ], [ [ -122.0348052, 36.9734135 ], [ -122.0350617, 36.9730228 ] ], [ [ -122.0347403, 36.9733927 ], [ -122.0348052, 36.9734135 ] ], [ [ -122.0347403, 36.9733927 ], [ -122.0340416, 36.9731694 ] ], [ [ -122.0347403, 36.9733927 ], [ -122.0347161, 36.9734314 ] ], [ [ -122.0347403, 36.9733927 ], [ -122.034756, 36.9733675 ] ], [ [ -122.0340416, 36.9731694 ], [ -122.0347403, 36.9733927 ] ], [ [ -122.0340416, 36.9731694 ], [ -122.0332895, 36.9729699 ] ], [ [ -122.0332895, 36.9729699 ], [ -122.0340416, 36.9731694 ] ], [ [ -122.0332895, 36.9729699 ], [ -122.0332528, 36.9729602 ] ], [ [ -122.0332528, 36.9729602 ], [ -122.0332895, 36.9729699 ] ], [ [ -122.0332528, 36.9729602 ], [ -122.0331966, 36.9729498 ] ], [ [ -122.0331966, 36.9729498 ], [ -122.0332528, 36.9729602 ] ], [ [ -122.0331966, 36.9729498 ], [ -122.0332266, 36.972869 ] ], [ [ -122.0331966, 36.9729498 ], [ -122.0331588, 36.9729377 ] ], [ [ -122.031324, 36.9737262 ], [ -122.0312782, 36.9738288 ] ], [ [ -122.031324, 36.9737262 ], [ -122.0312706, 36.9737369 ] ], [ [ -122.031324, 36.9737262 ], [ -122.03138191237106, 36.973584582052204 ] ], [ [ -122.0312782, 36.9738288 ], [ -122.031295036900417, 36.973791082402144 ] ], [ [ -122.0312782, 36.9738288 ], [ -122.031262850374645, 36.973866923940847 ] ], [ [ -122.0369372, 36.9727735 ], [ -122.0369914, 36.9727069 ] ], [ [ -122.0369372, 36.9727735 ], [ -122.0358428, 36.9724996 ] ], [ [ -122.0369372, 36.9727735 ], [ -122.0381019, 36.9730369 ] ], [ [ -122.0369914, 36.9727069 ], [ -122.0369372, 36.9727735 ] ], [ [ -122.0369914, 36.9727069 ], [ -122.0370033, 36.9726922 ] ], [ [ -122.0369914, 36.9727069 ], [ -122.0370641, 36.9727261 ] ], [ [ -122.0369914, 36.9727069 ], [ -122.0369036, 36.9726837 ] ], [ [ -122.0370033, 36.9726922 ], [ -122.0369914, 36.9727069 ] ], [ [ -122.0370033, 36.9726922 ], [ -122.0375809, 36.9719819 ] ], [ [ -122.0375809, 36.9719819 ], [ -122.037443037192162, 36.972151435928673 ] ], [ [ -122.0375809, 36.9719819 ], [ -122.0376281, 36.9719267 ] ], [ [ -122.0375809, 36.9719819 ], [ -122.0376686, 36.972017 ] ], [ [ -122.0375809, 36.9719819 ], [ -122.037495, 36.9719476 ] ], [ [ -122.0376281, 36.9719267 ], [ -122.0375809, 36.9719819 ] ], [ [ -122.0376281, 36.9719267 ], [ -122.0376669, 36.9718782 ] ], [ [ -122.0376281, 36.9719267 ], [ -122.0375519, 36.9718962 ] ], [ [ -122.0376281, 36.9719267 ], [ -122.0377139, 36.9719684 ] ], [ [ -122.0376669, 36.9718782 ], [ -122.0376281, 36.9719267 ] ], [ [ -122.0376669, 36.9718782 ], [ -122.037721683876001, 36.971813939397066 ] ], [ [ -122.0376669, 36.9718782 ], [ -122.0376014, 36.9718477 ] ], [ [ -122.0376669, 36.9718782 ], [ -122.037750927162833, 36.971917137072026 ] ], [ [ -122.0346674, 36.9697991 ], [ -122.0346144, 36.9697914 ] ], [ [ -122.0346674, 36.9697991 ], [ -122.0347114, 36.9696223 ] ], [ [ -122.0346674, 36.9697991 ], [ -122.0346505, 36.9698673 ] ], [ [ -122.0346144, 36.9697914 ], [ -122.0346674, 36.9697991 ] ], [ [ -122.0346144, 36.9697914 ], [ -122.0338463, 36.9696794 ] ], [ [ -122.0346144, 36.9697914 ], [ -122.034601, 36.9698594 ] ], [ [ -122.0346144, 36.9697914 ], [ -122.0346241, 36.9697462 ] ], [ [ -122.0338463, 36.9696794 ], [ -122.0346144, 36.9697914 ] ], [ [ -122.0338463, 36.9696794 ], [ -122.0339245, 36.9692289 ] ], [ [ -122.0338463, 36.9696794 ], [ -122.0337415, 36.9700627 ] ], [ [ -122.0345044, 36.9706305 ], [ -122.0353675, 36.9709799 ] ], [ [ -122.0345044, 36.9706305 ], [ -122.0345534, 36.970286 ] ], [ [ -122.0345044, 36.9706305 ], [ -122.0344395, 36.9708783 ] ], [ [ -122.0353675, 36.9709799 ], [ -122.0345044, 36.9706305 ] ], [ [ -122.0353675, 36.9709799 ], [ -122.0355354, 36.9710485 ] ], [ [ -122.0353675, 36.9709799 ], [ -122.0353962, 36.9709402 ] ], [ [ -122.0355354, 36.9710485 ], [ -122.0353675, 36.9709799 ] ], [ [ -122.0355354, 36.9710485 ], [ -122.0360909, 36.9712755 ] ], [ [ -122.0355354, 36.9710485 ], [ -122.0355639, 36.9710107 ] ], [ [ -122.0360909, 36.9712755 ], [ -122.0355354, 36.9710485 ] ], [ [ -122.0360909, 36.9712755 ], [ -122.036188, 36.9713156 ] ], [ [ -122.0360909, 36.9712755 ], [ -122.0360572, 36.9713269 ] ], [ [ -122.0360909, 36.9712755 ], [ -122.0361126, 36.971242 ] ], [ [ -122.036188, 36.9713156 ], [ -122.0360909, 36.9712755 ] ], [ [ -122.036188, 36.9713156 ], [ -122.0362769, 36.9713526 ] ], [ [ -122.036188, 36.9713156 ], [ -122.0358609, 36.9718003 ] ], [ [ -122.036188, 36.9713156 ], [ -122.0364759, 36.970872 ] ], [ [ -122.0362769, 36.9713526 ], [ -122.036188, 36.9713156 ] ], [ [ -122.0362769, 36.9713526 ], [ -122.0365882, 36.9714853 ] ], [ [ -122.0362769, 36.9713526 ], [ -122.0362396, 36.9714169 ] ], [ [ -122.0362769, 36.9713526 ], [ -122.0363106, 36.9712969 ] ], [ [ -122.0365882, 36.9714853 ], [ -122.0362769, 36.9713526 ] ], [ [ -122.0365882, 36.9714853 ], [ -122.037463829009937, 36.971858648511144 ] ], [ [ -122.0365882, 36.9714853 ], [ -122.036538, 36.971539 ] ], [ [ -122.0375519, 36.9718962 ], [ -122.037340423783533, 36.971806031298804 ] ], [ [ -122.0375519, 36.9718962 ], [ -122.0376281, 36.9719267 ] ], [ [ -122.0375519, 36.9718962 ], [ -122.037495, 36.9719476 ] ], [ [ -122.0375519, 36.9718962 ], [ -122.0376014, 36.9718477 ] ], [ [ -122.0377139, 36.9719684 ], [ -122.0376281, 36.9719267 ] ], [ [ -122.0377139, 36.9719684 ], [ -122.037809260294637, 36.972009530443017 ] ], [ [ -122.0377139, 36.9719684 ], [ -122.0377543, 36.9719187 ] ], [ [ -122.0377139, 36.9719684 ], [ -122.0376686, 36.972017 ] ], [ [ -122.0335631, 36.9707934 ], [ -122.0336423, 36.9708085 ] ], [ [ -122.0335631, 36.9707934 ], [ -122.0335749, 36.9707435 ] ], [ [ -122.0336423, 36.9708085 ], [ -122.0335631, 36.9707934 ] ], [ [ -122.0336423, 36.9708085 ], [ -122.0343352, 36.9709261 ] ], [ [ -122.0336423, 36.9708085 ], [ -122.0336277, 36.9708797 ] ], [ [ -122.0336423, 36.9708085 ], [ -122.033657, 36.970756 ] ], [ [ -122.0343352, 36.9709261 ], [ -122.0336423, 36.9708085 ] ], [ [ -122.0343352, 36.9709261 ], [ -122.0344174, 36.9709459 ] ], [ [ -122.0343352, 36.9709261 ], [ -122.0343168, 36.9709873 ] ], [ [ -122.0343352, 36.9709261 ], [ -122.0343658, 36.9708739 ] ], [ [ -122.0344174, 36.9709459 ], [ -122.0343352, 36.9709261 ] ], [ [ -122.0344174, 36.9709459 ], [ -122.0344395, 36.9708783 ] ], [ [ -122.0344174, 36.9709459 ], [ -122.0344006, 36.9710051 ] ], [ [ -122.030242, 36.971213 ], [ -122.030262633679484, 36.971208636931209 ] ], [ [ -122.030242, 36.971213 ], [ -122.030235996400663, 36.971196570434934 ] ], [ [ -122.030242, 36.971213 ], [ -122.030247844714083, 36.971229466417284 ] ], [ [ -122.0302647, 36.9712082 ], [ -122.030242, 36.971213 ] ], [ [ -122.0302647, 36.9712082 ], [ -122.0303046, 36.9711986 ] ], [ [ -122.0302647, 36.9712082 ], [ -122.030252088745826, 36.971173696229918 ] ], [ [ -122.0302647, 36.9712082 ], [ -122.030277039360044, 36.971242767022765 ] ], [ [ -122.0303046, 36.9711986 ], [ -122.0302647, 36.9712082 ] ], [ [ -122.0303046, 36.9711986 ], [ -122.0303452, 36.9711909 ] ], [ [ -122.0303046, 36.9711986 ], [ -122.030328380389619, 36.971265304740697 ] ], [ [ -122.0303046, 36.9711986 ], [ -122.030280266198517, 36.971132023918045 ] ], [ [ -122.0303452, 36.9711909 ], [ -122.0303046, 36.9711986 ] ], [ [ -122.0303452, 36.9711909 ], [ -122.030379, 36.9711844 ] ], [ [ -122.0303452, 36.9711909 ], [ -122.0303719, 36.9712484 ] ], [ [ -122.0303452, 36.9711909 ], [ -122.0303172, 36.9711307 ] ], [ [ -122.030379, 36.9711844 ], [ -122.0303452, 36.9711909 ] ], [ [ -122.030379, 36.9711844 ], [ -122.030469890772807, 36.971167042034672 ] ], [ [ -122.0316555, 36.9709457 ], [ -122.031446367373945, 36.970982851085765 ] ], [ [ -122.0316555, 36.9709457 ], [ -122.03171564416175, 36.971110652342347 ] ], [ [ -122.0316555, 36.9709457 ], [ -122.031864912564558, 36.970909579035329 ] ], [ [ -122.0343818, 36.9740937 ], [ -122.0342956, 36.9740746 ] ], [ [ -122.0343818, 36.9740937 ], [ -122.034084180937498, 36.974612524635688 ] ], [ [ -122.0343818, 36.9740937 ], [ -122.0346367, 36.9736842 ] ], [ [ -122.0342956, 36.9740746 ], [ -122.0343818, 36.9740937 ] ], [ [ -122.0342956, 36.9740746 ], [ -122.033552179200299, 36.973920173023451 ] ], [ [ -122.0342956, 36.9740746 ], [ -122.034241, 36.9741572 ] ], [ [ -122.0342956, 36.9740746 ], [ -122.0343303, 36.974022 ] ], [ [ -122.0350617, 36.9730228 ], [ -122.0351581, 36.9730637 ] ], [ [ -122.0350617, 36.9730228 ], [ -122.0348052, 36.9734135 ] ], [ [ -122.0350617, 36.9730228 ], [ -122.0350903, 36.9729771 ] ], [ [ -122.0351581, 36.9730637 ], [ -122.0350617, 36.9730228 ] ], [ [ -122.0351581, 36.9730637 ], [ -122.0353699, 36.9731535 ] ], [ [ -122.0351581, 36.9730637 ], [ -122.0351117, 36.9731319 ] ], [ [ -122.0351581, 36.9730637 ], [ -122.0352055, 36.972994 ] ], [ [ -122.0353699, 36.9731535 ], [ -122.0351581, 36.9730637 ] ], [ [ -122.0353699, 36.9731535 ], [ -122.03701178391718, 36.973848622187134 ] ], [ [ -122.0353699, 36.9731535 ], [ -122.0353277, 36.9732178 ] ], [ [ -122.0332266, 36.972869 ], [ -122.0331966, 36.9729498 ] ], [ [ -122.0332266, 36.972869 ], [ -122.033403, 36.9724865 ] ], [ [ -122.033403, 36.9724865 ], [ -122.0332266, 36.972869 ] ], [ [ -122.033403, 36.9724865 ], [ -122.0335954, 36.9720691 ] ], [ [ -122.033403, 36.9724865 ], [ -122.03312, 36.9724088 ] ], [ [ -122.0335954, 36.9720691 ], [ -122.033403, 36.9724865 ] ], [ [ -122.0335954, 36.9720691 ], [ -122.0336357, 36.9719818 ] ], [ [ -122.0336357, 36.9719818 ], [ -122.0335954, 36.9720691 ] ], [ [ -122.0336357, 36.9719818 ], [ -122.0328378, 36.9718075 ] ], [ [ -122.0336357, 36.9719818 ], [ -122.0338611, 36.9720359 ] ], [ [ -122.0340354, 36.969101 ], [ -122.034021297006859, 36.969117264858632 ] ], [ [ -122.0339245, 36.9692289 ], [ -122.0340354, 36.969101 ] ], [ [ -122.0339245, 36.9692289 ], [ -122.033894305703072, 36.969402845406222 ] ], [ [ -122.0304555, 36.9717427 ], [ -122.0302647, 36.9712082 ] ], [ [ -122.0304555, 36.9717427 ], [ -122.0304703, 36.9717987 ] ], [ [ -122.0304555, 36.9717427 ], [ -122.0304954, 36.9717338 ] ], [ [ -122.0304555, 36.9717427 ], [ -122.0304314, 36.9717466 ] ], [ [ -122.0304898, 36.9718668 ], [ -122.0304703, 36.9717987 ] ], [ [ -122.0304898, 36.9718668 ], [ -122.0305636, 36.9721755 ] ], [ [ -122.0304898, 36.9718668 ], [ -122.0304659, 36.9718717 ] ], [ [ -122.0304898, 36.9718668 ], [ -122.0305306, 36.9718607 ] ], [ [ -122.0306523, 36.9725494 ], [ -122.0305636, 36.9721755 ] ], [ [ -122.0306523, 36.9725494 ], [ -122.0306651, 36.9726213 ] ], [ [ -122.0306523, 36.9725494 ], [ -122.0306922, 36.9725398 ] ], [ [ -122.0306523, 36.9725494 ], [ -122.0306333, 36.9725551 ] ], [ [ -122.0306651, 36.9726213 ], [ -122.0306523, 36.9725494 ] ], [ [ -122.0306651, 36.9726213 ], [ -122.0306802, 36.9726946 ] ], [ [ -122.0306651, 36.9726213 ], [ -122.030646, 36.9726263 ] ], [ [ -122.0306651, 36.9726213 ], [ -122.030705, 36.9726117 ] ], [ [ -122.0306802, 36.9726946 ], [ -122.0306651, 36.9726213 ] ], [ [ -122.0306802, 36.9726946 ], [ -122.030813338160314, 36.973236636049428 ] ], [ [ -122.0306802, 36.9726946 ], [ -122.0306613, 36.9727009 ] ], [ [ -122.0306802, 36.9726946 ], [ -122.0307201, 36.972685 ] ], [ [ -122.038174, 36.97305 ], [ -122.0382478, 36.9730828 ] ], [ [ -122.038174, 36.97305 ], [ -122.0381019, 36.9730369 ] ], [ [ -122.038174, 36.97305 ], [ -122.03811, 36.9731093 ] ], [ [ -122.038174, 36.97305 ], [ -122.0382173, 36.973006 ] ], [ [ -122.0382478, 36.9730828 ], [ -122.038193752033095, 36.973058778681377 ] ], [ [ -122.0382478, 36.9730828 ], [ -122.038301663555956, 36.973107086780431 ] ], [ [ -122.0382478, 36.9730828 ], [ -122.038289307555488, 36.973046078603993 ] ], [ [ -122.0382478, 36.9730828 ], [ -122.038207297269878, 36.973120236786407 ] ], [ [ -122.0315694, 36.9715923 ], [ -122.0317976, 36.9715509 ] ], [ [ -122.0315694, 36.9715923 ], [ -122.030563, 36.9717827 ] ], [ [ -122.0317976, 36.9715509 ], [ -122.0315694, 36.9715923 ] ], [ [ -122.0317976, 36.9715509 ], [ -122.0319171, 36.9715393 ] ], [ [ -122.0319171, 36.9715393 ], [ -122.0317976, 36.9715509 ] ], [ [ -122.0319171, 36.9715393 ], [ -122.0319775, 36.9715375 ] ], [ [ -122.0319775, 36.9715375 ], [ -122.0319171, 36.9715393 ] ], [ [ -122.0319775, 36.9715375 ], [ -122.0320294, 36.9715455 ] ], [ [ -122.0320294, 36.9715455 ], [ -122.0319775, 36.9715375 ] ], [ [ -122.0320294, 36.9715455 ], [ -122.0320979, 36.9715659 ] ], [ [ -122.0320979, 36.9715659 ], [ -122.0320294, 36.9715455 ] ], [ [ -122.0320979, 36.9715659 ], [ -122.0321943, 36.9715986 ] ], [ [ -122.0320979, 36.9715659 ], [ -122.0321204, 36.9714983 ] ], [ [ -122.032579, 36.9717578 ], [ -122.0321943, 36.9715986 ] ], [ [ -122.032579, 36.9717578 ], [ -122.0327228, 36.9718064 ] ], [ [ -122.032579, 36.9717578 ], [ -122.0325346, 36.9717777 ] ], [ [ -122.032579, 36.9717578 ], [ -122.0326411, 36.9716979 ] ], [ [ -122.0327228, 36.9718064 ], [ -122.032579, 36.9717578 ] ], [ [ -122.0327228, 36.9718064 ], [ -122.0326568, 36.9718198 ] ], [ [ -122.0327228, 36.9718064 ], [ -122.0327762, 36.9718032 ] ], [ [ -122.0346367, 36.9736842 ], [ -122.0343818, 36.9740937 ] ], [ [ -122.0346367, 36.9736842 ], [ -122.0348052, 36.9734135 ] ], [ [ -122.0346367, 36.9736842 ], [ -122.0345686, 36.9736633 ] ], [ [ -122.0350903, 36.9729771 ], [ -122.0350617, 36.9730228 ] ], [ [ -122.0350903, 36.9729771 ], [ -122.0354, 36.9724831 ] ], [ [ -122.0350903, 36.9729771 ], [ -122.0350211, 36.9729546 ] ], [ [ -122.0354, 36.9724831 ], [ -122.0350903, 36.9729771 ] ], [ [ -122.0354, 36.9724831 ], [ -122.0354533, 36.9724129 ] ], [ [ -122.0354, 36.9724831 ], [ -122.0355341, 36.972512 ] ], [ [ -122.0354, 36.9724831 ], [ -122.0352901, 36.9724584 ] ], [ [ -122.0354533, 36.9724129 ], [ -122.0354, 36.9724831 ] ], [ [ -122.0354533, 36.9724129 ], [ -122.0353402, 36.9723899 ] ], [ [ -122.0354533, 36.9724129 ], [ -122.0355758, 36.9724432 ] ], [ [ -122.0354533, 36.9724129 ], [ -122.0354959, 36.9723517 ] ], [ [ -122.0304988, 36.9726575 ], [ -122.02990809028401, 36.972771146149775 ] ], [ [ -122.0304988, 36.9726575 ], [ -122.0305697, 36.9726439 ] ], [ [ -122.0305697, 36.9726439 ], [ -122.0304988, 36.9726575 ] ], [ [ -122.0305697, 36.9726439 ], [ -122.030646, 36.9726263 ] ], [ [ -122.0305697, 36.9726439 ], [ -122.03056, 36.9725788 ] ], [ [ -122.0305697, 36.9726439 ], [ -122.0305861, 36.9727243 ] ], [ [ -122.030646, 36.9726263 ], [ -122.0305697, 36.9726439 ] ], [ [ -122.030646, 36.9726263 ], [ -122.0306651, 36.9726213 ] ], [ [ -122.030646, 36.9726263 ], [ -122.0306333, 36.9725551 ] ], [ [ -122.030646, 36.9726263 ], [ -122.0306613, 36.9727009 ] ], [ [ -122.030705, 36.9726117 ], [ -122.0306651, 36.9726213 ] ], [ [ -122.030705, 36.9726117 ], [ -122.0307467, 36.9726032 ] ], [ [ -122.030705, 36.9726117 ], [ -122.0307201, 36.972685 ] ], [ [ -122.030705, 36.9726117 ], [ -122.0306922, 36.9725398 ] ], [ [ -122.0307467, 36.9726032 ], [ -122.030705, 36.9726117 ] ], [ [ -122.0307467, 36.9726032 ], [ -122.0308304, 36.9725872 ] ], [ [ -122.0307467, 36.9726032 ], [ -122.0307598, 36.9726775 ] ], [ [ -122.0307467, 36.9726032 ], [ -122.0307277, 36.9725306 ] ], [ [ -122.0308304, 36.9725872 ], [ -122.0307467, 36.9726032 ] ], [ [ -122.0308304, 36.9725872 ], [ -122.03175237534164, 36.972401592963664 ] ], [ [ -122.0317737, 36.9723973 ], [ -122.0308304, 36.9725872 ] ], [ [ -122.0317737, 36.9723973 ], [ -122.0317958, 36.9724814 ] ], [ [ -122.0317737, 36.9723973 ], [ -122.0319185, 36.9723705 ] ], [ [ -122.0346378, 36.9699194 ], [ -122.0347564, 36.9699332 ] ], [ [ -122.0346378, 36.9699194 ], [ -122.0346505, 36.9698673 ] ], [ [ -122.0346378, 36.9699194 ], [ -122.0345534, 36.970286 ] ], [ [ -122.0347564, 36.9699332 ], [ -122.0346378, 36.9699194 ] ], [ [ -122.0347564, 36.9699332 ], [ -122.0350069, 36.9699625 ] ], [ [ -122.0347564, 36.9699332 ], [ -122.0347429, 36.9699965 ] ], [ [ -122.0347564, 36.9699332 ], [ -122.0347629, 36.9698796 ] ], [ [ -122.0350069, 36.9699625 ], [ -122.0347564, 36.9699332 ] ], [ [ -122.0350069, 36.9699625 ], [ -122.0351437, 36.9700053 ] ], [ [ -122.0351437, 36.9700053 ], [ -122.0350069, 36.9699625 ] ], [ [ -122.0351437, 36.9700053 ], [ -122.0358577, 36.9703017 ] ], [ [ -122.0358577, 36.9703017 ], [ -122.035332947767017, 36.97008386167807 ] ], [ [ -122.0358577, 36.9703017 ], [ -122.0360125, 36.9703659 ] ], [ [ -122.0358577, 36.9703017 ], [ -122.0358174, 36.9703575 ] ], [ [ -122.0360125, 36.9703659 ], [ -122.0358577, 36.9703017 ] ], [ [ -122.0360125, 36.9703659 ], [ -122.036383656125523, 36.970517660373616 ] ], [ [ -122.0360125, 36.9703659 ], [ -122.035976, 36.9704231 ] ], [ [ -122.0365437, 36.9705831 ], [ -122.036078146383332, 36.97039274185704 ] ], [ [ -122.0365437, 36.9705831 ], [ -122.0366479, 36.9706076 ] ], [ [ -122.0365437, 36.9705831 ], [ -122.036503, 36.9706412 ] ], [ [ -122.0365437, 36.9705831 ], [ -122.0365767, 36.9705342 ] ], [ [ -122.0366479, 36.9706076 ], [ -122.0365437, 36.9705831 ] ], [ [ -122.0366479, 36.9706076 ], [ -122.0367531, 36.9706294 ] ], [ [ -122.0366479, 36.9706076 ], [ -122.0365211, 36.9708044 ] ], [ [ -122.0366479, 36.9706076 ], [ -122.036848945033753, 36.970299765459551 ] ], [ [ -122.0367531, 36.9706294 ], [ -122.0366479, 36.9706076 ] ], [ [ -122.0367531, 36.9706294 ], [ -122.037041649873288, 36.970748494243345 ] ], [ [ -122.0367531, 36.9706294 ], [ -122.0367201, 36.9706826 ] ], [ [ -122.0367531, 36.9706294 ], [ -122.0367844, 36.9705808 ] ], [ [ -122.032737, 36.9727255 ], [ -122.0326708, 36.9727059 ] ], [ [ -122.032737, 36.9727255 ], [ -122.0329773, 36.9727941 ] ], [ [ -122.0326708, 36.9727059 ], [ -122.032737, 36.9727255 ] ], [ [ -122.0326708, 36.9727059 ], [ -122.0322975, 36.9726332 ] ], [ [ -122.0326708, 36.9727059 ], [ -122.0326878, 36.9727392 ] ], [ [ -122.0326708, 36.9727059 ], [ -122.0326907, 36.9726764 ] ], [ [ -122.0322975, 36.9726332 ], [ -122.0326708, 36.9727059 ] ], [ [ -122.0322975, 36.9726332 ], [ -122.0322551, 36.9725764 ] ], [ [ -122.0322551, 36.9725764 ], [ -122.0322975, 36.9726332 ] ], [ [ -122.0322551, 36.9725764 ], [ -122.03217, 36.9724065 ] ], [ [ -122.03217, 36.9724065 ], [ -122.0322551, 36.9725764 ] ], [ [ -122.03217, 36.9724065 ], [ -122.0320949, 36.9723057 ] ], [ [ -122.0348832, 36.9689295 ], [ -122.0348722, 36.9690059 ] ], [ [ -122.0348832, 36.9689295 ], [ -122.0349742, 36.968947 ] ], [ [ -122.0348832, 36.9689295 ], [ -122.0348863, 36.9688608 ] ], [ [ -122.0348832, 36.9689295 ], [ -122.0348049, 36.968912 ] ], [ [ -122.0348722, 36.9690059 ], [ -122.0348832, 36.9689295 ] ], [ [ -122.0348722, 36.9690059 ], [ -122.0348296, 36.969253 ] ], [ [ -122.0348722, 36.9690059 ], [ -122.0348099, 36.9690006 ] ], [ [ -122.0348722, 36.9690059 ], [ -122.0349674, 36.9690141 ] ], [ [ -122.0348296, 36.969253 ], [ -122.0348722, 36.9690059 ] ], [ [ -122.0348296, 36.969253 ], [ -122.0347114, 36.9696223 ] ], [ [ -122.0347114, 36.9696223 ], [ -122.0348296, 36.969253 ] ], [ [ -122.0347114, 36.9696223 ], [ -122.0346674, 36.9697991 ] ], [ [ -122.0346505, 36.9698673 ], [ -122.0346674, 36.9697991 ] ], [ [ -122.0346505, 36.9698673 ], [ -122.0346378, 36.9699194 ] ], [ [ -122.0346505, 36.9698673 ], [ -122.0347629, 36.9698796 ] ], [ [ -122.0346505, 36.9698673 ], [ -122.034601, 36.9698594 ] ], [ [ -122.0345534, 36.970286 ], [ -122.0346378, 36.9699194 ] ], [ [ -122.0345534, 36.970286 ], [ -122.0345044, 36.9706305 ] ], [ [ -122.0344395, 36.9708783 ], [ -122.0345044, 36.9706305 ] ], [ [ -122.0344395, 36.9708783 ], [ -122.0344174, 36.9709459 ] ], [ [ -122.0344395, 36.9708783 ], [ -122.0343658, 36.9708739 ] ], [ [ -122.0344395, 36.9708783 ], [ -122.0345216, 36.9708928 ] ], [ [ -122.0344006, 36.9710051 ], [ -122.0344174, 36.9709459 ] ], [ [ -122.0344006, 36.9710051 ], [ -122.0343639, 36.9711204 ] ], [ [ -122.0344006, 36.9710051 ], [ -122.0344865, 36.9710206 ] ], [ [ -122.0344006, 36.9710051 ], [ -122.0343168, 36.9709873 ] ], [ [ -122.0343639, 36.9711204 ], [ -122.0344006, 36.9710051 ] ], [ [ -122.0343639, 36.9711204 ], [ -122.0342405, 36.9715074 ] ], [ [ -122.0343639, 36.9711204 ], [ -122.0344538, 36.9711352 ] ], [ [ -122.0342405, 36.9715074 ], [ -122.0343639, 36.9711204 ] ], [ [ -122.0342405, 36.9715074 ], [ -122.0342001, 36.971666 ] ], [ [ -122.0342001, 36.971666 ], [ -122.0342405, 36.9715074 ] ], [ [ -122.0342001, 36.971666 ], [ -122.0341058, 36.9720358 ] ], [ [ -122.0342001, 36.971666 ], [ -122.0341426, 36.9716543 ] ], [ [ -122.0341058, 36.9720358 ], [ -122.0342001, 36.971666 ] ], [ [ -122.0341058, 36.9720358 ], [ -122.0340919, 36.9720902 ] ], [ [ -122.0341058, 36.9720358 ], [ -122.0342124, 36.9720635 ] ], [ [ -122.0341058, 36.9720358 ], [ -122.034047, 36.9720203 ] ], [ [ -122.0340919, 36.9720902 ], [ -122.0341058, 36.9720358 ] ], [ [ -122.0340919, 36.9720902 ], [ -122.0340367, 36.9720772 ] ], [ [ -122.0340919, 36.9720902 ], [ -122.0349308, 36.9722931 ] ], [ [ -122.0307201, 36.972685 ], [ -122.030857484909873, 36.973260421486529 ] ], [ [ -122.0307201, 36.972685 ], [ -122.030705, 36.9726117 ] ], [ [ -122.0307201, 36.972685 ], [ -122.0306802, 36.9726946 ] ], [ [ -122.0307201, 36.972685 ], [ -122.0307598, 36.9726775 ] ], [ [ -122.0306922, 36.9725398 ], [ -122.030705, 36.9726117 ] ], [ [ -122.0306922, 36.9725398 ], [ -122.0306035, 36.9721702 ] ], [ [ -122.0306922, 36.9725398 ], [ -122.0307277, 36.9725306 ] ], [ [ -122.0306922, 36.9725398 ], [ -122.0306523, 36.9725494 ] ], [ [ -122.0305306, 36.9718607 ], [ -122.0306035, 36.9721702 ] ], [ [ -122.0305306, 36.9718607 ], [ -122.030512, 36.9717905 ] ], [ [ -122.0305306, 36.9718607 ], [ -122.0304898, 36.9718668 ] ], [ [ -122.0305306, 36.9718607 ], [ -122.0305808, 36.9718511 ] ], [ [ -122.030512, 36.9717905 ], [ -122.0305306, 36.9718607 ] ], [ [ -122.030512, 36.9717905 ], [ -122.0304954, 36.9717338 ] ], [ [ -122.030512, 36.9717905 ], [ -122.030563, 36.9717827 ] ], [ [ -122.030512, 36.9717905 ], [ -122.0304703, 36.9717987 ] ], [ [ -122.0304954, 36.9717338 ], [ -122.030512, 36.9717905 ] ], [ [ -122.0304954, 36.9717338 ], [ -122.0303046, 36.9711986 ] ], [ [ -122.0304954, 36.9717338 ], [ -122.0305437, 36.9717264 ] ], [ [ -122.0304954, 36.9717338 ], [ -122.0304555, 36.9717427 ] ], [ [ -122.0358428, 36.9724996 ], [ -122.0369372, 36.9727735 ] ], [ [ -122.0358428, 36.9724996 ], [ -122.0355758, 36.9724432 ] ], [ [ -122.0381019, 36.9730369 ], [ -122.03789007665263, 36.972988995587109 ] ], [ [ -122.0381019, 36.9730369 ], [ -122.038174, 36.97305 ] ], [ [ -122.0381019, 36.9730369 ], [ -122.0380399, 36.9730977 ] ], [ [ -122.0381019, 36.9730369 ], [ -122.0381573, 36.972982 ] ], [ [ -122.0312706, 36.9737369 ], [ -122.031143494756392, 36.973761402858806 ] ], [ [ -122.0312706, 36.9737369 ], [ -122.031324, 36.9737262 ] ], [ [ -122.0312706, 36.9737369 ], [ -122.0312552, 36.973773 ] ], [ [ -122.0312706, 36.9737369 ], [ -122.0312969, 36.9736853 ] ], [ [ -122.0318092, 36.9725397 ], [ -122.031324, 36.9737262 ] ], [ [ -122.0318092, 36.9725397 ], [ -122.0317958, 36.9724814 ] ], [ [ -122.0317958, 36.9724814 ], [ -122.0318092, 36.9725397 ] ], [ [ -122.0317958, 36.9724814 ], [ -122.0317737, 36.9723973 ] ], [ [ -122.0319185, 36.9723705 ], [ -122.0317737, 36.9723973 ] ], [ [ -122.0319185, 36.9723705 ], [ -122.0320151, 36.9723416 ] ], [ [ -122.0320151, 36.9723416 ], [ -122.0319185, 36.9723705 ] ], [ [ -122.0320151, 36.9723416 ], [ -122.0320949, 36.9723057 ] ], [ [ -122.0320949, 36.9723057 ], [ -122.0320151, 36.9723416 ] ], [ [ -122.0320949, 36.9723057 ], [ -122.032172, 36.9722526 ] ], [ [ -122.0320949, 36.9723057 ], [ -122.03217, 36.9724065 ] ], [ [ -122.032172, 36.9722526 ], [ -122.0320949, 36.9723057 ] ], [ [ -122.032172, 36.9722526 ], [ -122.0322381, 36.9721915 ] ], [ [ -122.0322381, 36.9721915 ], [ -122.032172, 36.9722526 ] ], [ [ -122.0322381, 36.9721915 ], [ -122.0325522, 36.9718809 ] ], [ [ -122.0325522, 36.9718809 ], [ -122.0322381, 36.9721915 ] ], [ [ -122.0325522, 36.9718809 ], [ -122.0326045, 36.9718423 ] ], [ [ -122.0326045, 36.9718423 ], [ -122.0325522, 36.9718809 ] ], [ [ -122.0326045, 36.9718423 ], [ -122.0326568, 36.9718198 ] ], [ [ -122.0326568, 36.9718198 ], [ -122.0326045, 36.9718423 ] ], [ [ -122.0326568, 36.9718198 ], [ -122.0327228, 36.9718064 ] ], [ [ -122.0327762, 36.9718032 ], [ -122.0327228, 36.9718064 ] ], [ [ -122.0327762, 36.9718032 ], [ -122.0328378, 36.9718075 ] ], [ [ -122.0328378, 36.9718075 ], [ -122.0327762, 36.9718032 ] ], [ [ -122.0328378, 36.9718075 ], [ -122.0336357, 36.9719818 ] ], [ [ -122.0338611, 36.9720359 ], [ -122.0336357, 36.9719818 ] ], [ [ -122.0338611, 36.9720359 ], [ -122.034003941502206, 36.972069499932061 ] ], [ [ -122.034032, 36.9720761 ], [ -122.034003941502206, 36.972069499932061 ] ], [ [ -122.034032, 36.9720761 ], [ -122.0340367, 36.9720772 ] ], [ [ -122.0340367, 36.9720772 ], [ -122.034032, 36.9720761 ] ], [ [ -122.0340367, 36.9720772 ], [ -122.0340919, 36.9720902 ] ], [ [ -122.0340367, 36.9720772 ], [ -122.034047, 36.9720203 ] ], [ [ -122.0340367, 36.9720772 ], [ -122.0340159, 36.9721599 ] ], [ [ -122.030563, 36.9717827 ], [ -122.031436496105158, 36.971617443980101 ] ], [ [ -122.030563, 36.9717827 ], [ -122.030512, 36.9717905 ] ], [ [ -122.030563, 36.9717827 ], [ -122.0305808, 36.9718511 ] ], [ [ -122.030563, 36.9717827 ], [ -122.0305437, 36.9717264 ] ], [ [ -122.0331588, 36.9729377 ], [ -122.0331966, 36.9729498 ] ], [ [ -122.0331588, 36.9729377 ], [ -122.0331297, 36.9729139 ] ], [ [ -122.0331297, 36.9729139 ], [ -122.0331588, 36.9729377 ] ], [ [ -122.0331297, 36.9729139 ], [ -122.033097, 36.9728567 ] ], [ [ -122.033097, 36.9728567 ], [ -122.0331297, 36.9729139 ] ], [ [ -122.033097, 36.9728567 ], [ -122.0330524, 36.9728148 ] ], [ [ -122.0330524, 36.9728148 ], [ -122.033097, 36.9728567 ] ], [ [ -122.0330524, 36.9728148 ], [ -122.0329773, 36.9727941 ] ], [ [ -122.0329773, 36.9727941 ], [ -122.0330524, 36.9728148 ] ], [ [ -122.0329773, 36.9727941 ], [ -122.032737, 36.9727255 ] ], [ [ -122.0337415, 36.9700627 ], [ -122.0338463, 36.9696794 ] ], [ [ -122.0337415, 36.9700627 ], [ -122.0335749, 36.9707435 ] ], [ [ -122.0335749, 36.9707435 ], [ -122.0337415, 36.9700627 ] ], [ [ -122.0335749, 36.9707435 ], [ -122.0335631, 36.9707934 ] ], [ [ -122.0335749, 36.9707435 ], [ -122.033657, 36.970756 ] ], [ [ -122.0335749, 36.9707435 ], [ -122.0335052, 36.9707314 ] ], [ [ -122.0349308, 36.9722931 ], [ -122.0353402, 36.9723899 ] ], [ [ -122.0349308, 36.9722931 ], [ -122.0340919, 36.9720902 ] ], [ [ -122.0353402, 36.9723899 ], [ -122.0349308, 36.9722931 ] ], [ [ -122.0353402, 36.9723899 ], [ -122.0354533, 36.9724129 ] ], [ [ -122.0353402, 36.9723899 ], [ -122.0352901, 36.9724584 ] ], [ [ -122.0353402, 36.9723899 ], [ -122.0353866, 36.9723234 ] ], [ [ -122.0305861, 36.9727243 ], [ -122.030014669122224, 36.972833536858531 ] ], [ [ -122.0305861, 36.9727243 ], [ -122.030703119445405, 36.973186178499176 ] ], [ [ -122.0305861, 36.9727243 ], [ -122.0306613, 36.9727009 ] ], [ [ -122.0305861, 36.9727243 ], [ -122.0305697, 36.9726439 ] ], [ [ -122.03056, 36.9725788 ], [ -122.029950473976015, 36.972693504840031 ] ], [ [ -122.03056, 36.9725788 ], [ -122.030443801377828, 36.972085198340373 ] ], [ [ -122.03056, 36.9725788 ], [ -122.0306333, 36.9725551 ] ], [ [ -122.03056, 36.9725788 ], [ -122.0305697, 36.9726439 ] ], [ [ -122.0304402, 36.9720699 ], [ -122.030530409896201, 36.972453103807844 ] ], [ [ -122.0304402, 36.9720699 ], [ -122.0303976, 36.9719055 ] ], [ [ -122.0303976, 36.9719055 ], [ -122.0304402, 36.9720699 ] ], [ [ -122.0303976, 36.9719055 ], [ -122.0303935, 36.9718849 ] ], [ [ -122.0303935, 36.9718849 ], [ -122.0303976, 36.9719055 ] ], [ [ -122.0303935, 36.9718849 ], [ -122.029692779772489, 36.972022203018213 ] ], [ [ -122.0303935, 36.9718849 ], [ -122.0304659, 36.9718717 ] ], [ [ -122.0303935, 36.9718849 ], [ -122.0303797, 36.9718157 ] ], [ [ -122.0325346, 36.9717777 ], [ -122.0321743, 36.9716345 ] ], [ [ -122.0325346, 36.9717777 ], [ -122.0321491, 36.9722159 ] ], [ [ -122.0325346, 36.9717777 ], [ -122.032579, 36.9717578 ] ], [ [ -122.0321084, 36.9716084 ], [ -122.0321743, 36.9716345 ] ], [ [ -122.0321084, 36.9716084 ], [ -122.0320181, 36.9715851 ] ], [ [ -122.0320181, 36.9715851 ], [ -122.0321084, 36.9716084 ] ], [ [ -122.0320181, 36.9715851 ], [ -122.0305808, 36.9718511 ] ], [ [ -122.0305808, 36.9718511 ], [ -122.0314707641094, 36.971686395030197 ] ], [ [ -122.0305808, 36.9718511 ], [ -122.0306499, 36.9721663 ] ], [ [ -122.0305808, 36.9718511 ], [ -122.0305306, 36.9718607 ] ], [ [ -122.0305808, 36.9718511 ], [ -122.030563, 36.9717827 ] ], [ [ -122.0307277, 36.9725306 ], [ -122.0306499, 36.9721663 ] ], [ [ -122.0307277, 36.9725306 ], [ -122.031508905270869, 36.972376939978709 ] ], [ [ -122.0307277, 36.9725306 ], [ -122.0307467, 36.9726032 ] ], [ [ -122.0307277, 36.9725306 ], [ -122.0306922, 36.9725398 ] ], [ [ -122.0319626, 36.9722877 ], [ -122.0307277, 36.9725306 ] ], [ [ -122.0319626, 36.9722877 ], [ -122.0320793, 36.9722679 ] ], [ [ -122.0320793, 36.9722679 ], [ -122.0319626, 36.9722877 ] ], [ [ -122.0320793, 36.9722679 ], [ -122.0321491, 36.9722159 ] ], [ [ -122.0321491, 36.9722159 ], [ -122.0320793, 36.9722679 ] ], [ [ -122.0321491, 36.9722159 ], [ -122.0325346, 36.9717777 ] ], [ [ -122.0312969, 36.9736853 ], [ -122.031237169089295, 36.973696145449914 ] ], [ [ -122.0312969, 36.9736853 ], [ -122.031273718936802, 36.97373078071714 ] ], [ [ -122.0312969, 36.9736853 ], [ -122.031316982740378, 36.973638880313857 ] ], [ [ -122.0312552, 36.973773 ], [ -122.0312706, 36.9737369 ] ], [ [ -122.0312552, 36.973773 ], [ -122.031174587964159, 36.973789412900992 ] ], [ [ -122.0312552, 36.973773 ], [ -122.031228532874721, 36.973836205506885 ] ], [ [ -122.0303172, 36.9711307 ], [ -122.03030415574716, 36.971093547603992 ] ], [ [ -122.0303172, 36.9711307 ], [ -122.030364101361045, 36.971122118678423 ] ], [ [ -122.0303172, 36.9711307 ], [ -122.030334019684588, 36.97116686232188 ] ], [ [ -122.031853, 36.9714939 ], [ -122.0305437, 36.9717264 ] ], [ [ -122.031853, 36.9714939 ], [ -122.0320275, 36.9714626 ] ], [ [ -122.0305437, 36.9717264 ], [ -122.031348891849547, 36.971583417410052 ] ], [ [ -122.0305437, 36.9717264 ], [ -122.0303719, 36.9712484 ] ], [ [ -122.0305437, 36.9717264 ], [ -122.030563, 36.9717827 ] ], [ [ -122.0305437, 36.9717264 ], [ -122.0304954, 36.9717338 ] ], [ [ -122.0303719, 36.9712484 ], [ -122.030428610304412, 36.971406185363833 ] ], [ [ -122.0303719, 36.9712484 ], [ -122.030571740060594, 36.971212964907316 ] ], [ [ -122.0303719, 36.9712484 ], [ -122.0303452, 36.9711909 ] ], [ [ -122.030364, 36.9717572 ], [ -122.030182225999894, 36.971264143212331 ] ], [ [ -122.030364, 36.9717572 ], [ -122.029742159457115, 36.971881423830027 ] ], [ [ -122.030364, 36.9717572 ], [ -122.0304314, 36.9717466 ] ], [ [ -122.030364, 36.9717572 ], [ -122.0303797, 36.9718157 ] ], [ [ -122.0308021, 36.9726575 ], [ -122.031504532604316, 36.972523930858848 ] ], [ [ -122.0308021, 36.9726575 ], [ -122.0307598, 36.9726775 ] ], [ [ -122.0306613, 36.9727009 ], [ -122.0305861, 36.9727243 ] ], [ [ -122.0306613, 36.9727009 ], [ -122.0306802, 36.9726946 ] ], [ [ -122.0306613, 36.9727009 ], [ -122.030646, 36.9726263 ] ], [ [ -122.0306613, 36.9727009 ], [ -122.030784442504938, 36.973227756473378 ] ], [ [ -122.0307598, 36.9726775 ], [ -122.0307201, 36.972685 ] ], [ [ -122.0307598, 36.9726775 ], [ -122.0307467, 36.9726032 ] ], [ [ -122.0307598, 36.9726775 ], [ -122.030910615957609, 36.97328415860401 ] ], [ [ -122.0307598, 36.9726775 ], [ -122.0308021, 36.9726575 ] ], [ [ -122.0306333, 36.9725551 ], [ -122.0306523, 36.9725494 ] ], [ [ -122.0306333, 36.9725551 ], [ -122.03056, 36.9725788 ] ], [ [ -122.0306333, 36.9725551 ], [ -122.0305395, 36.9721788 ] ], [ [ -122.0306333, 36.9725551 ], [ -122.030646, 36.9726263 ] ], [ [ -122.0304659, 36.9718717 ], [ -122.0303935, 36.9718849 ] ], [ [ -122.0304659, 36.9718717 ], [ -122.0304898, 36.9718668 ] ], [ [ -122.0304659, 36.9718717 ], [ -122.0304495, 36.9718035 ] ], [ [ -122.0304659, 36.9718717 ], [ -122.0305395, 36.9721788 ] ], [ [ -122.0304314, 36.9717466 ], [ -122.0304555, 36.9717427 ] ], [ [ -122.0304314, 36.9717466 ], [ -122.030364, 36.9717572 ] ], [ [ -122.0304314, 36.9717466 ], [ -122.030242, 36.971213 ] ], [ [ -122.0304314, 36.9717466 ], [ -122.0304495, 36.9718035 ] ], [ [ -122.0347429, 36.9699965 ], [ -122.0347564, 36.9699332 ] ], [ [ -122.0347429, 36.9699965 ], [ -122.0350468, 36.9700386 ] ], [ [ -122.0347429, 36.9699965 ], [ -122.0347287, 36.9700119 ] ], [ [ -122.0347629, 36.9698796 ], [ -122.0347564, 36.9699332 ] ], [ [ -122.0347629, 36.9698796 ], [ -122.0346505, 36.9698673 ] ], [ [ -122.0347629, 36.9698796 ], [ -122.0347902, 36.9698875 ] ], [ [ -122.0347629, 36.9698796 ], [ -122.0347651, 36.9698554 ] ], [ [ -122.034601, 36.9698594 ], [ -122.0346144, 36.9697914 ] ], [ [ -122.034601, 36.9698594 ], [ -122.0339071, 36.96975 ] ], [ [ -122.034601, 36.9698594 ], [ -122.0343658, 36.9708739 ] ], [ [ -122.034601, 36.9698594 ], [ -122.0346505, 36.9698673 ] ], [ [ -122.0346241, 36.9697462 ], [ -122.0346144, 36.9697914 ] ], [ [ -122.0346241, 36.9697462 ], [ -122.0348136, 36.9690264 ] ], [ [ -122.0346241, 36.9697462 ], [ -122.034607, 36.9697576 ] ], [ [ -122.0321204, 36.9714983 ], [ -122.0320979, 36.9715659 ] ], [ [ -122.0321204, 36.9714983 ], [ -122.0321407, 36.9714369 ] ], [ [ -122.0321204, 36.9714983 ], [ -122.0326411, 36.9716979 ] ], [ [ -122.0321204, 36.9714983 ], [ -122.0320275, 36.9714626 ] ], [ [ -122.0321407, 36.9714369 ], [ -122.0321204, 36.9714983 ] ], [ [ -122.035976, 36.9704231 ], [ -122.0360125, 36.9703659 ] ], [ [ -122.035976, 36.9704231 ], [ -122.0358044, 36.9706919 ] ], [ [ -122.035976, 36.9704231 ], [ -122.0358174, 36.9703575 ] ], [ [ -122.035976, 36.9704231 ], [ -122.036413946710553, 36.970604345118737 ] ], [ [ -122.0358044, 36.9706919 ], [ -122.035976, 36.9704231 ] ], [ [ -122.0358044, 36.9706919 ], [ -122.0360437, 36.9707835 ] ], [ [ -122.0358044, 36.9706919 ], [ -122.0355639, 36.9710107 ] ], [ [ -122.0360437, 36.9707835 ], [ -122.0358044, 36.9706919 ] ], [ [ -122.0355639, 36.9710107 ], [ -122.0358044, 36.9706919 ] ], [ [ -122.0355639, 36.9710107 ], [ -122.0355354, 36.9710485 ] ], [ [ -122.0355639, 36.9710107 ], [ -122.0361126, 36.971242 ] ], [ [ -122.0355639, 36.9710107 ], [ -122.0353962, 36.9709402 ] ], [ [ -122.0353962, 36.9709402 ], [ -122.0353675, 36.9709799 ] ], [ [ -122.0353962, 36.9709402 ], [ -122.0358174, 36.9703575 ] ], [ [ -122.0353962, 36.9709402 ], [ -122.0355639, 36.9710107 ] ], [ [ -122.0353962, 36.9709402 ], [ -122.0345951, 36.9706033 ] ], [ [ -122.0358174, 36.9703575 ], [ -122.035480648166114, 36.970823372017094 ] ], [ [ -122.0358174, 36.9703575 ], [ -122.0358577, 36.9703017 ] ], [ [ -122.0358174, 36.9703575 ], [ -122.0352208682163, 36.97011063523771 ] ], [ [ -122.0358174, 36.9703575 ], [ -122.035976, 36.9704231 ] ], [ [ -122.0349742, 36.968947 ], [ -122.0348832, 36.9689295 ] ], [ [ -122.0349742, 36.968947 ], [ -122.035264475703059, 36.969026987956084 ] ], [ [ -122.0349742, 36.968947 ], [ -122.0349674, 36.9690141 ] ], [ [ -122.0349742, 36.968947 ], [ -122.0349802, 36.968888 ] ], [ [ -122.0355758, 36.9724432 ], [ -122.0354533, 36.9724129 ] ], [ [ -122.0355758, 36.9724432 ], [ -122.0358428, 36.9724996 ] ], [ [ -122.0355758, 36.9724432 ], [ -122.0356213, 36.9723802 ] ], [ [ -122.0355758, 36.9724432 ], [ -122.0355341, 36.972512 ] ], [ [ -122.0348863, 36.9688608 ], [ -122.034910839208976, 36.968616829099844 ] ], [ [ -122.0348863, 36.9688608 ], [ -122.0348832, 36.9689295 ] ], [ [ -122.0348863, 36.9688608 ], [ -122.0349802, 36.968888 ] ], [ [ -122.0348863, 36.9688608 ], [ -122.0348007, 36.9688361 ] ], [ [ -122.0344625, 36.9687788 ], [ -122.034416680614626, 36.96876044545089 ] ], [ [ -122.0344625, 36.9687788 ], [ -122.034508581803294, 36.968796726682825 ] ], [ [ -122.0348049, 36.968912 ], [ -122.0344625, 36.9687788 ] ], [ [ -122.0348049, 36.968912 ], [ -122.0348832, 36.9689295 ] ], [ [ -122.0348049, 36.968912 ], [ -122.0348007, 36.9688361 ] ], [ [ -122.0348049, 36.968912 ], [ -122.0348099, 36.9690006 ] ], [ [ -122.03811, 36.9731093 ], [ -122.038053009943539, 36.973166050733596 ] ], [ [ -122.03811, 36.9731093 ], [ -122.038169461012089, 36.973054205655984 ] ], [ [ -122.03811, 36.9731093 ], [ -122.038197397458362, 36.973129153988829 ] ], [ [ -122.03811, 36.9731093 ], [ -122.0380399, 36.9730977 ] ], [ [ -122.0382173, 36.973006 ], [ -122.038174, 36.97305 ] ], [ [ -122.0382173, 36.973006 ], [ -122.038264603743229, 36.972957986867542 ] ], [ [ -122.0382173, 36.973006 ], [ -122.0381573, 36.972982 ] ], [ [ -122.0382173, 36.973006 ], [ -122.038285574621867, 36.97303329294909 ] ], [ [ -122.0329812, 36.9707347 ], [ -122.0333728, 36.9707989 ] ], [ [ -122.0329812, 36.9707347 ], [ -122.0326567, 36.9707791 ] ], [ [ -122.0333728, 36.9707989 ], [ -122.0329812, 36.9707347 ] ], [ [ -122.0333728, 36.9707989 ], [ -122.0332924, 36.9711064 ] ], [ [ -122.0333728, 36.9707989 ], [ -122.0334448, 36.9708143 ] ], [ [ -122.0332924, 36.9711064 ], [ -122.0333728, 36.9707989 ] ], [ [ -122.0326567, 36.9707791 ], [ -122.0329812, 36.9707347 ] ], [ [ -122.0326567, 36.9707791 ], [ -122.0323764, 36.9708257 ] ], [ [ -122.0319848, 36.9708889 ], [ -122.0316555, 36.9709457 ] ], [ [ -122.0319848, 36.9708889 ], [ -122.032015, 36.9708139 ] ], [ [ -122.032015, 36.9708139 ], [ -122.0319848, 36.9708889 ] ], [ [ -122.032015, 36.9708139 ], [ -122.0320406, 36.9707602 ] ], [ [ -122.0320406, 36.9707602 ], [ -122.032015, 36.9708139 ] ], [ [ -122.0320406, 36.9707602 ], [ -122.0320042, 36.9707454 ] ], [ [ -122.0320406, 36.9707602 ], [ -122.0320934, 36.9707818 ] ], [ [ -122.0353999, 36.9733634 ], [ -122.0352665, 36.9733109 ] ], [ [ -122.0352665, 36.9733109 ], [ -122.0353999, 36.9733634 ] ], [ [ -122.0352665, 36.9733109 ], [ -122.0353277, 36.9732178 ] ], [ [ -122.0353277, 36.9732178 ], [ -122.0352665, 36.9733109 ] ], [ [ -122.0353277, 36.9732178 ], [ -122.0353699, 36.9731535 ] ], [ [ -122.0353277, 36.9732178 ], [ -122.0351233, 36.9731329 ] ], [ [ -122.0353277, 36.9732178 ], [ -122.036895999631042, 36.9738690003839 ] ], [ [ -122.0355341, 36.972512 ], [ -122.0354, 36.9724831 ] ], [ [ -122.0355341, 36.972512 ], [ -122.0355758, 36.9724432 ] ], [ [ -122.0355341, 36.972512 ], [ -122.0355137, 36.9725207 ] ], [ [ -122.0355341, 36.972512 ], [ -122.0355587, 36.9725183 ] ], [ [ -122.0352901, 36.9724584 ], [ -122.0354, 36.9724831 ] ], [ [ -122.0352901, 36.9724584 ], [ -122.0353402, 36.9723899 ] ], [ [ -122.0352901, 36.9724584 ], [ -122.0340159, 36.9721599 ] ], [ [ -122.0352901, 36.9724584 ], [ -122.0352985, 36.9724826 ] ], [ [ -122.0353866, 36.9723234 ], [ -122.0353402, 36.9723899 ] ], [ [ -122.0353866, 36.9723234 ], [ -122.0354959, 36.9723517 ] ], [ [ -122.0353866, 36.9723234 ], [ -122.0354075, 36.9723143 ] ], [ [ -122.0353866, 36.9723234 ], [ -122.0353648, 36.9723279 ] ], [ [ -122.0354959, 36.9723517 ], [ -122.0353866, 36.9723234 ] ], [ [ -122.0354959, 36.9723517 ], [ -122.0356213, 36.9723802 ] ], [ [ -122.0354959, 36.9723517 ], [ -122.0354533, 36.9724129 ] ], [ [ -122.0354959, 36.9723517 ], [ -122.0357608, 36.9719399 ] ], [ [ -122.0356213, 36.9723802 ], [ -122.0354959, 36.9723517 ] ], [ [ -122.0356213, 36.9723802 ], [ -122.0355758, 36.9724432 ] ], [ [ -122.0356213, 36.9723802 ], [ -122.0357706, 36.9721463 ] ], [ [ -122.0356213, 36.9723802 ], [ -122.0356549, 36.9723963 ] ], [ [ -122.0360572, 36.9713269 ], [ -122.0360909, 36.9712755 ] ], [ [ -122.0360572, 36.9713269 ], [ -122.0360623, 36.9713425 ] ], [ [ -122.0360572, 36.9713269 ], [ -122.034656564932803, 36.970737457411325 ] ], [ [ -122.0361126, 36.971242 ], [ -122.0360909, 36.9712755 ] ], [ [ -122.0361126, 36.971242 ], [ -122.0361296, 36.9712403 ] ], [ [ -122.0361126, 36.971242 ], [ -122.0355639, 36.9710107 ] ], [ [ -122.0362396, 36.9714169 ], [ -122.0362769, 36.9713526 ] ], [ [ -122.0362396, 36.9714169 ], [ -122.0362627, 36.9714215 ] ], [ [ -122.0362396, 36.9714169 ], [ -122.0362239, 36.9714269 ] ], [ [ -122.0363106, 36.9712969 ], [ -122.0362769, 36.9713526 ] ], [ [ -122.0363106, 36.9712969 ], [ -122.0367201, 36.9706826 ] ], [ [ -122.0363106, 36.9712969 ], [ -122.036315, 36.9713118 ] ], [ [ -122.0367201, 36.9706826 ], [ -122.0367531, 36.9706294 ] ], [ [ -122.0367201, 36.9706826 ], [ -122.036539631821739, 36.970953324302563 ] ], [ [ -122.0367201, 36.9706826 ], [ -122.037057366822864, 36.970827606202697 ] ], [ [ -122.0367844, 36.9705808 ], [ -122.0367531, 36.9706294 ] ], [ [ -122.0367844, 36.9705808 ], [ -122.036837, 36.9705005 ] ], [ [ -122.0367844, 36.9705808 ], [ -122.037011741780873, 36.970675769252935 ] ], [ [ -122.036503, 36.9706412 ], [ -122.0365437, 36.9705831 ] ], [ [ -122.036503, 36.9706412 ], [ -122.035976, 36.9704231 ] ], [ [ -122.036503, 36.9706412 ], [ -122.0365069, 36.9706597 ] ], [ [ -122.0365767, 36.9705342 ], [ -122.0365437, 36.9705831 ] ], [ [ -122.0365767, 36.9705342 ], [ -122.0365973, 36.9705251 ] ], [ [ -122.0365767, 36.9705342 ], [ -122.0365578, 36.9705311 ] ], [ [ -122.0348099, 36.9690006 ], [ -122.034329175099472, 36.96879927634162 ] ], [ [ -122.0348099, 36.9690006 ], [ -122.0348136, 36.9690264 ] ], [ [ -122.0348099, 36.9690006 ], [ -122.0348722, 36.9690059 ] ], [ [ -122.0348099, 36.9690006 ], [ -122.0348049, 36.968912 ] ], [ [ -122.0348136, 36.9690264 ], [ -122.0348099, 36.9690006 ] ], [ [ -122.0348136, 36.9690264 ], [ -122.034694833183394, 36.969477525881757 ] ], [ [ -122.034607, 36.9697576 ], [ -122.0346241, 36.9697462 ] ], [ [ -122.034607, 36.9697576 ], [ -122.0339344, 36.9696412 ] ], [ [ -122.0339344, 36.9696412 ], [ -122.034607, 36.9697576 ] ], [ [ -122.0339344, 36.9696412 ], [ -122.0340209, 36.9692843 ] ], [ [ -122.0340209, 36.9692843 ], [ -122.03395827230166, 36.96954270260737 ] ], [ [ -122.0340209, 36.9692843 ], [ -122.0340349, 36.9692558 ] ], [ [ -122.0340349, 36.9692558 ], [ -122.0340209, 36.9692843 ] ], [ [ -122.0340349, 36.9692558 ], [ -122.0340642, 36.969233 ] ], [ [ -122.0340642, 36.969233 ], [ -122.0340349, 36.9692558 ] ], [ [ -122.0340642, 36.969233 ], [ -122.0341113, 36.9692065 ] ], [ [ -122.0341113, 36.9692065 ], [ -122.0340642, 36.969233 ] ], [ [ -122.0341113, 36.9692065 ], [ -122.0341374, 36.969176 ] ], [ [ -122.0341374, 36.969176 ], [ -122.0341113, 36.9692065 ] ], [ [ -122.0341374, 36.969176 ], [ -122.0341457, 36.9691374 ] ], [ [ -122.0341457, 36.9691374 ], [ -122.0341374, 36.969176 ] ], [ [ -122.0341457, 36.9691374 ], [ -122.0341368, 36.9691018 ] ], [ [ -122.0341368, 36.9691018 ], [ -122.0341457, 36.9691374 ] ], [ [ -122.0341368, 36.9691018 ], [ -122.034106528381685, 36.969068491730319 ] ], [ [ -122.0339115, 36.9691211 ], [ -122.033928456156801, 36.969087582015646 ] ], [ [ -122.0339115, 36.9691211 ], [ -122.033902554281909, 36.969156554811349 ] ], [ [ -122.0335052, 36.9707314 ], [ -122.0339115, 36.9691211 ] ], [ [ -122.0335052, 36.9707314 ], [ -122.0334896, 36.9707931 ] ], [ [ -122.0335052, 36.9707314 ], [ -122.0335749, 36.9707435 ] ], [ [ -122.0334896, 36.9707931 ], [ -122.0335052, 36.9707314 ] ], [ [ -122.0334896, 36.9707931 ], [ -122.0334928, 36.9708246 ] ], [ [ -122.0334928, 36.9708246 ], [ -122.0334896, 36.9707931 ] ], [ [ -122.0334928, 36.9708246 ], [ -122.0335075, 36.970844 ] ], [ [ -122.0334928, 36.9708246 ], [ -122.0334448, 36.9708143 ] ], [ [ -122.0335075, 36.970844 ], [ -122.0334928, 36.9708246 ] ], [ [ -122.0335075, 36.970844 ], [ -122.0335616, 36.9708694 ] ], [ [ -122.0335616, 36.9708694 ], [ -122.0335075, 36.970844 ] ], [ [ -122.0335616, 36.9708694 ], [ -122.0336277, 36.9708797 ] ], [ [ -122.0336277, 36.9708797 ], [ -122.0335616, 36.9708694 ] ], [ [ -122.0336277, 36.9708797 ], [ -122.0343168, 36.9709873 ] ], [ [ -122.0336277, 36.9708797 ], [ -122.0336423, 36.9708085 ] ], [ [ -122.0343168, 36.9709873 ], [ -122.0336277, 36.9708797 ] ], [ [ -122.0343168, 36.9709873 ], [ -122.0341426, 36.9716543 ] ], [ [ -122.0343168, 36.9709873 ], [ -122.0343352, 36.9709261 ] ], [ [ -122.0343168, 36.9709873 ], [ -122.0344006, 36.9710051 ] ], [ [ -122.0341426, 36.9716543 ], [ -122.0343168, 36.9709873 ] ], [ [ -122.0341426, 36.9716543 ], [ -122.034096, 36.9718328 ] ], [ [ -122.0341426, 36.9716543 ], [ -122.0342001, 36.971666 ] ], [ [ -122.0341426, 36.9716543 ], [ -122.0339247, 36.9716159 ] ], [ [ -122.034096, 36.9718328 ], [ -122.0341426, 36.9716543 ] ], [ [ -122.034096, 36.9718328 ], [ -122.034047, 36.9720203 ] ], [ [ -122.034096, 36.9718328 ], [ -122.0338032, 36.9717731 ] ], [ [ -122.034047, 36.9720203 ], [ -122.034096, 36.9718328 ] ], [ [ -122.034047, 36.9720203 ], [ -122.0333869, 36.9718729 ] ], [ [ -122.034047, 36.9720203 ], [ -122.0341058, 36.9720358 ] ], [ [ -122.034047, 36.9720203 ], [ -122.0340367, 36.9720772 ] ], [ [ -122.0333869, 36.9718729 ], [ -122.034047, 36.9720203 ] ], [ [ -122.0333869, 36.9718729 ], [ -122.0326943, 36.9717183 ] ], [ [ -122.0333869, 36.9718729 ], [ -122.0334049, 36.971822 ] ], [ [ -122.0326943, 36.9717183 ], [ -122.0333869, 36.9718729 ] ], [ [ -122.0326943, 36.9717183 ], [ -122.0326411, 36.9716979 ] ], [ [ -122.0326411, 36.9716979 ], [ -122.0326943, 36.9717183 ] ], [ [ -122.0326411, 36.9716979 ], [ -122.0321204, 36.9714983 ] ], [ [ -122.0326411, 36.9716979 ], [ -122.032579, 36.9717578 ] ], [ [ -122.0320275, 36.9714626 ], [ -122.0321204, 36.9714983 ] ], [ [ -122.0320275, 36.9714626 ], [ -122.031853, 36.9714939 ] ], [ [ -122.033657, 36.970756 ], [ -122.0339071, 36.96975 ] ], [ [ -122.033657, 36.970756 ], [ -122.0343658, 36.9708739 ] ], [ [ -122.033657, 36.970756 ], [ -122.0336423, 36.9708085 ] ], [ [ -122.033657, 36.970756 ], [ -122.0335749, 36.9707435 ] ], [ [ -122.0339071, 36.96975 ], [ -122.033723473928518, 36.970488615865321 ] ], [ [ -122.0339071, 36.96975 ], [ -122.034601, 36.9698594 ] ], [ [ -122.0343658, 36.9708739 ], [ -122.034601, 36.9698594 ] ], [ [ -122.0343658, 36.9708739 ], [ -122.033657, 36.970756 ] ], [ [ -122.0343658, 36.9708739 ], [ -122.0343352, 36.9709261 ] ], [ [ -122.0343658, 36.9708739 ], [ -122.0344395, 36.9708783 ] ], [ [ -122.0349674, 36.9690141 ], [ -122.0348722, 36.9690059 ] ], [ [ -122.0349674, 36.9690141 ], [ -122.035337743498019, 36.96911426784353 ] ], [ [ -122.0349674, 36.9690141 ], [ -122.034893359319767, 36.969322011143248 ] ], [ [ -122.0349674, 36.9690141 ], [ -122.0349742, 36.968947 ] ], [ [ -122.0349802, 36.968888 ], [ -122.034998125365817, 36.968701481136726 ] ], [ [ -122.0349802, 36.968888 ], [ -122.035201152140075, 36.968947699057253 ] ], [ [ -122.0349802, 36.968888 ], [ -122.0348863, 36.9688608 ] ], [ [ -122.0349802, 36.968888 ], [ -122.0349742, 36.968947 ] ], [ [ -122.0365973, 36.9705251 ], [ -122.036791832804141, 36.970217675668948 ] ], [ [ -122.0365973, 36.9705251 ], [ -122.0365767, 36.9705342 ] ], [ [ -122.0365578, 36.9705311 ], [ -122.0365767, 36.9705342 ] ], [ [ -122.0365578, 36.9705311 ], [ -122.03617295371771, 36.970370262745327 ] ], [ [ -122.0351152, 36.9699282 ], [ -122.03610197594989, 36.970340599293074 ] ], [ [ -122.0351152, 36.9699282 ], [ -122.0347902, 36.9698875 ] ], [ [ -122.0347902, 36.9698875 ], [ -122.0351152, 36.9699282 ] ], [ [ -122.0347902, 36.9698875 ], [ -122.0347629, 36.9698796 ] ], [ [ -122.0347651, 36.9698554 ], [ -122.0347629, 36.9698796 ] ], [ [ -122.0347651, 36.9698554 ], [ -122.0349674, 36.9690141 ] ], [ [ -122.0350468, 36.9700386 ], [ -122.0347429, 36.9699965 ] ], [ [ -122.0350468, 36.9700386 ], [ -122.0358174, 36.9703575 ] ], [ [ -122.0365069, 36.9706597 ], [ -122.036503, 36.9706412 ] ], [ [ -122.0365069, 36.9706597 ], [ -122.036216100210467, 36.971107191009274 ] ], [ [ -122.0361296, 36.9712403 ], [ -122.0365069, 36.9706597 ] ], [ [ -122.0361296, 36.9712403 ], [ -122.0361126, 36.971242 ] ], [ [ -122.0345951, 36.9706033 ], [ -122.035184167136762, 36.970851030268854 ] ], [ [ -122.0345951, 36.9706033 ], [ -122.034713719184154, 36.97007821477915 ] ], [ [ -122.0347287, 36.9700119 ], [ -122.0345951, 36.9706033 ] ], [ [ -122.0347287, 36.9700119 ], [ -122.0347429, 36.9699965 ] ], [ [ -122.0348007, 36.9688361 ], [ -122.034832043786651, 36.968566826162537 ] ], [ [ -122.0348007, 36.9688361 ], [ -122.0347822, 36.9688415 ] ], [ [ -122.0348007, 36.9688361 ], [ -122.0348049, 36.968912 ] ], [ [ -122.0348007, 36.9688361 ], [ -122.0348863, 36.9688608 ] ], [ [ -122.0347822, 36.9688415 ], [ -122.0348007, 36.9688361 ] ], [ [ -122.0347822, 36.9688415 ], [ -122.034501087827323, 36.968723318364226 ] ], [ [ -122.0334448, 36.9708143 ], [ -122.0334928, 36.9708246 ] ], [ [ -122.0334448, 36.9708143 ], [ -122.0333728, 36.9707989 ] ], [ [ -122.036837, 36.9705005 ], [ -122.036903669416887, 36.970398768112808 ] ], [ [ -122.036837, 36.9705005 ], [ -122.0367844, 36.9705808 ] ], [ [ -122.036837, 36.9705005 ], [ -122.0368655, 36.9705113 ] ], [ [ -122.0377543, 36.9719187 ], [ -122.037735555147705, 36.971941759880174 ] ], [ [ -122.0377543, 36.9719187 ], [ -122.037724586772953, 36.971904931284953 ] ], [ [ -122.0376686, 36.972017 ], [ -122.0377139, 36.9719684 ] ], [ [ -122.0376686, 36.972017 ], [ -122.0375809, 36.9719819 ] ], [ [ -122.0376686, 36.972017 ], [ -122.037831600231499, 36.972085323164961 ] ], [ [ -122.0376686, 36.972017 ], [ -122.037564774465196, 36.972138791045055 ] ], [ [ -122.037495, 36.9719476 ], [ -122.0375809, 36.9719819 ] ], [ [ -122.037495, 36.9719476 ], [ -122.0375519, 36.9718962 ] ], [ [ -122.037495, 36.9719476 ], [ -122.037207949314578, 36.971825038294796 ] ], [ [ -122.037495, 36.9719476 ], [ -122.0374971, 36.9719754 ] ], [ [ -122.0376014, 36.9718477 ], [ -122.0375519, 36.9718962 ] ], [ [ -122.0376014, 36.9718477 ], [ -122.0376669, 36.9718782 ] ], [ [ -122.0376014, 36.9718477 ], [ -122.0376185, 36.971833 ] ], [ [ -122.0376014, 36.9718477 ], [ -122.037571, 36.9718396 ] ], [ [ -122.0381573, 36.972982 ], [ -122.038240165265321, 36.972899520226235 ] ], [ [ -122.0381573, 36.972982 ], [ -122.038030546793948, 36.972952329175421 ] ], [ [ -122.0381573, 36.972982 ], [ -122.0381019, 36.9730369 ] ], [ [ -122.0381573, 36.972982 ], [ -122.0382173, 36.973006 ] ], [ [ -122.0370641, 36.9727261 ], [ -122.0381573, 36.972982 ] ], [ [ -122.0370641, 36.9727261 ], [ -122.0376686, 36.972017 ] ], [ [ -122.0370641, 36.9727261 ], [ -122.0369914, 36.9727069 ] ], [ [ -122.0380399, 36.9730977 ], [ -122.03811, 36.9731093 ] ], [ [ -122.0380399, 36.9730977 ], [ -122.0381019, 36.9730369 ] ], [ [ -122.0380399, 36.9730977 ], [ -122.0380104, 36.9730906 ] ], [ [ -122.035697, 36.9724062 ], [ -122.035949, 36.9724656 ] ], [ [ -122.035697, 36.9724062 ], [ -122.0356549, 36.9723963 ] ], [ [ -122.035949, 36.9724656 ], [ -122.035697, 36.9724062 ] ], [ [ -122.035949, 36.9724656 ], [ -122.035964, 36.9724691 ] ], [ [ -122.0369036, 36.9726837 ], [ -122.0369914, 36.9727069 ] ], [ [ -122.0369036, 36.9726837 ], [ -122.0368903, 36.9726855 ] ], [ [ -122.0369036, 36.9726837 ], [ -122.0374971, 36.9719754 ] ], [ [ -122.0354075, 36.9723143 ], [ -122.0353866, 36.9723234 ] ], [ [ -122.0354075, 36.9723143 ], [ -122.0355619, 36.9720812 ] ], [ [ -122.0355619, 36.9720812 ], [ -122.0354075, 36.9723143 ] ], [ [ -122.0355619, 36.9720812 ], [ -122.0358032, 36.9717405 ] ], [ [ -122.0358032, 36.9717405 ], [ -122.0355619, 36.9720812 ] ], [ [ -122.0358032, 36.9717405 ], [ -122.0360623, 36.9713425 ] ], [ [ -122.0360623, 36.9713425 ], [ -122.0358032, 36.9717405 ] ], [ [ -122.0360623, 36.9713425 ], [ -122.0360572, 36.9713269 ] ], [ [ -122.0345754, 36.9707033 ], [ -122.0360572, 36.9713269 ] ], [ [ -122.0345754, 36.9707033 ], [ -122.0345216, 36.9708928 ] ], [ [ -122.0345216, 36.9708928 ], [ -122.0345754, 36.9707033 ] ], [ [ -122.0345216, 36.9708928 ], [ -122.0344865, 36.9710206 ] ], [ [ -122.0345216, 36.9708928 ], [ -122.0344395, 36.9708783 ] ], [ [ -122.0344865, 36.9710206 ], [ -122.0345216, 36.9708928 ] ], [ [ -122.0344865, 36.9710206 ], [ -122.0344538, 36.9711352 ] ], [ [ -122.0344865, 36.9710206 ], [ -122.0344006, 36.9710051 ] ], [ [ -122.0344538, 36.9711352 ], [ -122.0344865, 36.9710206 ] ], [ [ -122.0344538, 36.9711352 ], [ -122.0341996, 36.9720254 ] ], [ [ -122.0344538, 36.9711352 ], [ -122.0343639, 36.9711204 ] ], [ [ -122.0344538, 36.9711352 ], [ -122.0346148, 36.9711619 ] ], [ [ -122.0341996, 36.9720254 ], [ -122.0344538, 36.9711352 ] ], [ [ -122.0341996, 36.9720254 ], [ -122.0342124, 36.9720635 ] ], [ [ -122.0342124, 36.9720635 ], [ -122.0341996, 36.9720254 ] ], [ [ -122.0342124, 36.9720635 ], [ -122.0353648, 36.9723279 ] ], [ [ -122.0342124, 36.9720635 ], [ -122.0341058, 36.9720358 ] ], [ [ -122.0353648, 36.9723279 ], [ -122.0342124, 36.9720635 ] ], [ [ -122.0353648, 36.9723279 ], [ -122.0353866, 36.9723234 ] ], [ [ -122.0340159, 36.9721599 ], [ -122.0340367, 36.9720772 ] ], [ [ -122.0340159, 36.9721599 ], [ -122.0352901, 36.9724584 ] ], [ [ -122.0368655, 36.9705113 ], [ -122.036837, 36.9705005 ] ], [ [ -122.0340987, 36.9744197 ], [ -122.033978571776444, 36.974633799495216 ] ], [ [ -122.0340987, 36.9744197 ], [ -122.034223188127967, 36.974207210082653 ] ], [ [ -122.0342362, 36.974185 ], [ -122.0340987, 36.9744197 ] ], [ [ -122.0342362, 36.974185 ], [ -122.0342411, 36.9741746 ] ], [ [ -122.0342411, 36.9741746 ], [ -122.0342362, 36.974185 ] ], [ [ -122.0342411, 36.9741746 ], [ -122.034241, 36.9741572 ] ], [ [ -122.034241, 36.9741572 ], [ -122.0342411, 36.9741746 ] ], [ [ -122.034241, 36.9741572 ], [ -122.0342346, 36.9741418 ] ], [ [ -122.034241, 36.9741572 ], [ -122.0342956, 36.9740746 ] ], [ [ -122.0342346, 36.9741418 ], [ -122.034241, 36.9741572 ] ], [ [ -122.0342346, 36.9741418 ], [ -122.0342243, 36.9741315 ] ], [ [ -122.0342243, 36.9741315 ], [ -122.0342346, 36.9741418 ] ], [ [ -122.0342243, 36.9741315 ], [ -122.0342055, 36.9741237 ] ], [ [ -122.0342055, 36.9741237 ], [ -122.0342243, 36.9741315 ] ], [ [ -122.0342055, 36.9741237 ], [ -122.033632572793479, 36.973999271083429 ] ], [ [ -122.0343145, 36.9740242 ], [ -122.033516031569917, 36.973854298565541 ] ], [ [ -122.0343145, 36.9740242 ], [ -122.0343303, 36.974022 ] ], [ [ -122.0343303, 36.974022 ], [ -122.0343145, 36.9740242 ] ], [ [ -122.0343303, 36.974022 ], [ -122.0343459, 36.9740133 ] ], [ [ -122.0343303, 36.974022 ], [ -122.0342956, 36.9740746 ] ], [ [ -122.0343459, 36.9740133 ], [ -122.0343303, 36.974022 ] ], [ [ -122.0343459, 36.9740133 ], [ -122.0345584, 36.9736792 ] ], [ [ -122.0345584, 36.9736792 ], [ -122.0343459, 36.9740133 ] ], [ [ -122.0345584, 36.9736792 ], [ -122.0345686, 36.9736633 ] ], [ [ -122.0332708, 36.9729277 ], [ -122.033441159637874, 36.972970449349859 ] ], [ [ -122.0341523, 36.9731489 ], [ -122.0332708, 36.9729277 ] ], [ [ -122.0341523, 36.9731489 ], [ -122.034756, 36.9733675 ] ], [ [ -122.034756, 36.9733675 ], [ -122.0341523, 36.9731489 ] ], [ [ -122.034756, 36.9733675 ], [ -122.0349985, 36.9729958 ] ], [ [ -122.034756, 36.9733675 ], [ -122.0347403, 36.9733927 ] ], [ [ -122.0349985, 36.9729958 ], [ -122.034756, 36.9733675 ] ], [ [ -122.0349985, 36.9729958 ], [ -122.0350211, 36.9729546 ] ], [ [ -122.0350211, 36.9729546 ], [ -122.0349985, 36.9729958 ] ], [ [ -122.0350211, 36.9729546 ], [ -122.0351577, 36.9727061 ] ], [ [ -122.0350211, 36.9729546 ], [ -122.0350903, 36.9729771 ] ], [ [ -122.0350211, 36.9729546 ], [ -122.0348839, 36.9729101 ] ], [ [ -122.0351577, 36.9727061 ], [ -122.0350211, 36.9729546 ] ], [ [ -122.0351577, 36.9727061 ], [ -122.0352905, 36.9724999 ] ], [ [ -122.0352905, 36.9724999 ], [ -122.0351577, 36.9727061 ] ], [ [ -122.0352905, 36.9724999 ], [ -122.0352985, 36.9724826 ] ], [ [ -122.0352985, 36.9724826 ], [ -122.0352905, 36.9724999 ] ], [ [ -122.0352985, 36.9724826 ], [ -122.0352901, 36.9724584 ] ], [ [ -122.0347161, 36.9734314 ], [ -122.0347403, 36.9733927 ] ], [ [ -122.0347161, 36.9734314 ], [ -122.0345805, 36.9736446 ] ], [ [ -122.0347161, 36.9734314 ], [ -122.0340958, 36.9732205 ] ], [ [ -122.0351001, 36.9731373 ], [ -122.034225399339547, 36.974567660487672 ] ], [ [ -122.0351001, 36.9731373 ], [ -122.0351117, 36.9731319 ] ], [ [ -122.0351117, 36.9731319 ], [ -122.0351001, 36.9731373 ] ], [ [ -122.0351117, 36.9731319 ], [ -122.0351233, 36.9731329 ] ], [ [ -122.0351117, 36.9731319 ], [ -122.0351581, 36.9730637 ] ], [ [ -122.0351233, 36.9731329 ], [ -122.0351117, 36.9731319 ] ], [ [ -122.0351233, 36.9731329 ], [ -122.0353277, 36.9732178 ] ], [ [ -122.0355137, 36.9725207 ], [ -122.0355341, 36.972512 ] ], [ [ -122.0355137, 36.9725207 ], [ -122.0354962, 36.9725472 ] ], [ [ -122.0354962, 36.9725472 ], [ -122.0355137, 36.9725207 ] ], [ [ -122.0354962, 36.9725472 ], [ -122.0353841, 36.9727263 ] ], [ [ -122.0353841, 36.9727263 ], [ -122.0354962, 36.9725472 ] ], [ [ -122.0353841, 36.9727263 ], [ -122.0353398, 36.9727953 ] ], [ [ -122.0353398, 36.9727953 ], [ -122.0353841, 36.9727263 ] ], [ [ -122.0353398, 36.9727953 ], [ -122.0352067, 36.972981 ] ], [ [ -122.0352067, 36.972981 ], [ -122.0353398, 36.9727953 ] ], [ [ -122.0352067, 36.972981 ], [ -122.0352055, 36.972994 ] ], [ [ -122.0352055, 36.972994 ], [ -122.0352067, 36.972981 ] ], [ [ -122.0352055, 36.972994 ], [ -122.0352125, 36.9730057 ] ], [ [ -122.0352055, 36.972994 ], [ -122.0351581, 36.9730637 ] ], [ [ -122.0352125, 36.9730057 ], [ -122.0352055, 36.972994 ] ], [ [ -122.0352125, 36.9730057 ], [ -122.0355242, 36.9731344 ] ], [ [ -122.0355242, 36.9731344 ], [ -122.0352125, 36.9730057 ] ], [ [ -122.0355242, 36.9731344 ], [ -122.0357595, 36.9732305 ] ], [ [ -122.0357595, 36.9732305 ], [ -122.0355242, 36.9731344 ] ], [ [ -122.0357595, 36.9732305 ], [ -122.0359434, 36.9733056 ] ], [ [ -122.0359434, 36.9733056 ], [ -122.0357595, 36.9732305 ] ], [ [ -122.0359434, 36.9733056 ], [ -122.0363555, 36.9734786 ] ], [ [ -122.0363555, 36.9734786 ], [ -122.0359434, 36.9733056 ] ], [ [ -122.0363555, 36.9734786 ], [ -122.0367087, 36.9736236 ] ], [ [ -122.0367087, 36.9736236 ], [ -122.036367432054433, 36.973483498493465 ] ], [ [ -122.0367087, 36.9736236 ], [ -122.0370309, 36.973757 ] ], [ [ -122.0370309, 36.973757 ], [ -122.037012435546018, 36.973749355188822 ] ], [ [ -122.0370309, 36.973757 ], [ -122.037049295904893, 36.973764750506803 ] ], [ [ -122.0380104, 36.9730906 ], [ -122.037890482071504, 36.973212147002236 ] ], [ [ -122.0380104, 36.9730906 ], [ -122.0380399, 36.9730977 ] ], [ [ -122.0380104, 36.9730906 ], [ -122.037825881549011, 36.973044635726367 ] ], [ [ -122.0377314, 36.9730211 ], [ -122.0380104, 36.9730906 ] ], [ [ -122.0377314, 36.9730211 ], [ -122.0373444, 36.9729339 ] ], [ [ -122.0373444, 36.9729339 ], [ -122.0377314, 36.9730211 ] ], [ [ -122.0373444, 36.9729339 ], [ -122.0370531, 36.9728644 ] ], [ [ -122.0370531, 36.9728644 ], [ -122.0373444, 36.9729339 ] ], [ [ -122.0370531, 36.9728644 ], [ -122.0369101, 36.9728313 ] ], [ [ -122.0369101, 36.9728313 ], [ -122.0370531, 36.9728644 ] ], [ [ -122.0369101, 36.9728313 ], [ -122.0365657, 36.9727482 ] ], [ [ -122.0365657, 36.9727482 ], [ -122.0369101, 36.9728313 ] ], [ [ -122.0365657, 36.9727482 ], [ -122.0363281, 36.972696 ] ], [ [ -122.0363281, 36.972696 ], [ -122.0365657, 36.9727482 ] ], [ [ -122.0363281, 36.972696 ], [ -122.0360858, 36.9726386 ] ], [ [ -122.0360858, 36.9726386 ], [ -122.0363281, 36.972696 ] ], [ [ -122.0360858, 36.9726386 ], [ -122.0358511, 36.9725841 ] ], [ [ -122.0358511, 36.9725841 ], [ -122.0360858, 36.9726386 ] ], [ [ -122.0358511, 36.9725841 ], [ -122.0357992, 36.9725724 ] ], [ [ -122.0357992, 36.9725724 ], [ -122.0358511, 36.9725841 ] ], [ [ -122.0357992, 36.9725724 ], [ -122.0356031, 36.9725277 ] ], [ [ -122.0356031, 36.9725277 ], [ -122.0357992, 36.9725724 ] ], [ [ -122.0356031, 36.9725277 ], [ -122.0355587, 36.9725183 ] ], [ [ -122.0355587, 36.9725183 ], [ -122.0356031, 36.9725277 ] ], [ [ -122.0355587, 36.9725183 ], [ -122.0355341, 36.972512 ] ], [ [ -122.0357608, 36.9719399 ], [ -122.0354959, 36.9723517 ] ], [ [ -122.0357608, 36.9719399 ], [ -122.0358609, 36.9718003 ] ], [ [ -122.0357608, 36.9719399 ], [ -122.0358739, 36.9719845 ] ], [ [ -122.0358609, 36.9718003 ], [ -122.0357608, 36.9719399 ] ], [ [ -122.0358609, 36.9718003 ], [ -122.036188, 36.9713156 ] ], [ [ -122.0358609, 36.9718003 ], [ -122.0359646, 36.9718402 ] ], [ [ -122.0364759, 36.970872 ], [ -122.036188, 36.9713156 ] ], [ [ -122.0364759, 36.970872 ], [ -122.0365211, 36.9708044 ] ], [ [ -122.0365211, 36.9708044 ], [ -122.0364759, 36.970872 ] ], [ [ -122.0365211, 36.9708044 ], [ -122.0366479, 36.9706076 ] ], [ [ -122.0376185, 36.971833 ], [ -122.03769593256014, 36.971743006994188 ] ], [ [ -122.0376185, 36.971833 ], [ -122.0376014, 36.9718477 ] ], [ [ -122.037571, 36.9718396 ], [ -122.0376014, 36.9718477 ] ], [ [ -122.037571, 36.9718396 ], [ -122.037456486574214, 36.971791387568871 ] ], [ [ -122.0370886, 36.9716365 ], [ -122.037406207009752, 36.971770218871647 ] ], [ [ -122.0370886, 36.9716365 ], [ -122.036770317307273, 36.971503821105465 ] ], [ [ -122.0363507, 36.9713289 ], [ -122.0370886, 36.9716365 ] ], [ [ -122.0363507, 36.9713289 ], [ -122.036315, 36.9713118 ] ], [ [ -122.036315, 36.9713118 ], [ -122.0363507, 36.9713289 ] ], [ [ -122.036315, 36.9713118 ], [ -122.0363106, 36.9712969 ] ], [ [ -122.0366214, 36.9715746 ], [ -122.037487222457372, 36.971944279231458 ] ], [ [ -122.0366214, 36.9715746 ], [ -122.036538, 36.971539 ] ], [ [ -122.035964, 36.9724691 ], [ -122.035949, 36.9724656 ] ], [ [ -122.035964, 36.9724691 ], [ -122.0363441, 36.9725587 ] ], [ [ -122.035964, 36.9724691 ], [ -122.0360117, 36.9723208 ] ], [ [ -122.0363441, 36.9725587 ], [ -122.035964, 36.9724691 ] ], [ [ -122.0363441, 36.9725587 ], [ -122.0368903, 36.9726855 ] ], [ [ -122.0368903, 36.9726855 ], [ -122.0363441, 36.9725587 ] ], [ [ -122.0368903, 36.9726855 ], [ -122.0369036, 36.9726837 ] ], [ [ -122.0374971, 36.9719754 ], [ -122.037296309857325, 36.972215028741452 ] ], [ [ -122.0374971, 36.9719754 ], [ -122.037495, 36.9719476 ] ], [ [ -122.0360117, 36.9723208 ], [ -122.035964, 36.9724691 ] ], [ [ -122.0360117, 36.9723208 ], [ -122.0360292, 36.9722725 ] ], [ [ -122.0360117, 36.9723208 ], [ -122.0359739, 36.9723088 ] ], [ [ -122.0360292, 36.9722725 ], [ -122.0360117, 36.9723208 ] ], [ [ -122.0360292, 36.9722725 ], [ -122.0359279, 36.9722352 ] ], [ [ -122.0359279, 36.9722352 ], [ -122.0360292, 36.9722725 ] ], [ [ -122.0359279, 36.9722352 ], [ -122.0357817, 36.9721529 ] ], [ [ -122.0357817, 36.9721529 ], [ -122.0359279, 36.9722352 ] ], [ [ -122.0357817, 36.9721529 ], [ -122.0357706, 36.9721463 ] ], [ [ -122.0357706, 36.9721463 ], [ -122.0357817, 36.9721529 ] ], [ [ -122.0357706, 36.9721463 ], [ -122.0358403, 36.9720371 ] ], [ [ -122.0357706, 36.9721463 ], [ -122.0356213, 36.9723802 ] ], [ [ -122.0359739, 36.9723088 ], [ -122.0360117, 36.9723208 ] ], [ [ -122.0358739, 36.9719845 ], [ -122.0357608, 36.9719399 ] ], [ [ -122.0358739, 36.9719845 ], [ -122.0359281, 36.9720058 ] ], [ [ -122.0358739, 36.9719845 ], [ -122.0358852, 36.9719668 ] ], [ [ -122.0358739, 36.9719845 ], [ -122.0358403, 36.9720371 ] ], [ [ -122.0359281, 36.9720058 ], [ -122.0358739, 36.9719845 ] ], [ [ -122.0359281, 36.9720058 ], [ -122.0362261, 36.972123 ] ], [ [ -122.0359281, 36.9720058 ], [ -122.0358932, 36.9720551 ] ], [ [ -122.0362261, 36.972123 ], [ -122.0359281, 36.9720058 ] ], [ [ -122.0362261, 36.972123 ], [ -122.0362121, 36.9721603 ] ], [ [ -122.0362121, 36.9721603 ], [ -122.0362261, 36.972123 ] ], [ [ -122.0358852, 36.9719668 ], [ -122.0358739, 36.9719845 ] ], [ [ -122.0358852, 36.9719668 ], [ -122.0359646, 36.9718402 ] ], [ [ -122.0358403, 36.9720371 ], [ -122.0358739, 36.9719845 ] ], [ [ -122.0358403, 36.9720371 ], [ -122.0357706, 36.9721463 ] ], [ [ -122.0356549, 36.9723963 ], [ -122.0356213, 36.9723802 ] ], [ [ -122.0356549, 36.9723963 ], [ -122.035697, 36.9724062 ] ], [ [ -122.0358932, 36.9720551 ], [ -122.0359281, 36.9720058 ] ], [ [ -122.0358932, 36.9720551 ], [ -122.0358409, 36.9720803 ] ], [ [ -122.0358409, 36.9720803 ], [ -122.0358932, 36.9720551 ] ], [ [ -122.036538, 36.971539 ], [ -122.0366214, 36.9715746 ] ], [ [ -122.036538, 36.971539 ], [ -122.0364958, 36.971521 ] ], [ [ -122.036538, 36.971539 ], [ -122.0365882, 36.9714853 ] ], [ [ -122.036538, 36.971539 ], [ -122.0365116, 36.9715672 ] ], [ [ -122.0364958, 36.971521 ], [ -122.036538, 36.971539 ] ], [ [ -122.0364958, 36.971521 ], [ -122.0362627, 36.9714215 ] ], [ [ -122.0362627, 36.9714215 ], [ -122.0364958, 36.971521 ] ], [ [ -122.0362627, 36.9714215 ], [ -122.0362396, 36.9714169 ] ], [ [ -122.0362239, 36.9714269 ], [ -122.0362396, 36.9714169 ] ], [ [ -122.0362239, 36.9714269 ], [ -122.0359646, 36.9718402 ] ], [ [ -122.0359646, 36.9718402 ], [ -122.0362239, 36.9714269 ] ], [ [ -122.0359646, 36.9718402 ], [ -122.0358852, 36.9719668 ] ], [ [ -122.0359646, 36.9718402 ], [ -122.0358609, 36.9718003 ] ], [ [ -122.0359646, 36.9718402 ], [ -122.0361213, 36.9718801 ] ], [ [ -122.0365116, 36.9715672 ], [ -122.036538, 36.971539 ] ], [ [ -122.0365116, 36.9715672 ], [ -122.0363622, 36.9717905 ] ], [ [ -122.0363622, 36.9717905 ], [ -122.0365116, 36.9715672 ] ], [ [ -122.0345686, 36.9736633 ], [ -122.0346367, 36.9736842 ] ], [ [ -122.0345686, 36.9736633 ], [ -122.0341913, 36.9735475 ] ], [ [ -122.0345686, 36.9736633 ], [ -122.0345584, 36.9736792 ] ], [ [ -122.0345686, 36.9736633 ], [ -122.0345805, 36.9736446 ] ], [ [ -122.0341913, 36.9735475 ], [ -122.0345686, 36.9736633 ] ], [ [ -122.0341913, 36.9735475 ], [ -122.0342188, 36.9734945 ] ], [ [ -122.0342188, 36.9734945 ], [ -122.0341913, 36.9735475 ] ], [ [ -122.0345805, 36.9736446 ], [ -122.0345686, 36.9736633 ] ], [ [ -122.0345805, 36.9736446 ], [ -122.0347161, 36.9734314 ] ], [ [ -122.0340958, 36.9732205 ], [ -122.0347161, 36.9734314 ] ], [ [ -122.0340958, 36.9732205 ], [ -122.033142454624382, 36.972973897655734 ] ], [ [ -122.033127, 36.9729699 ], [ -122.0340958, 36.9732205 ] ], [ [ -122.033127, 36.9729699 ], [ -122.0330923, 36.9729533 ] ], [ [ -122.0330923, 36.9729533 ], [ -122.033127, 36.9729699 ] ], [ [ -122.0330923, 36.9729533 ], [ -122.0330625, 36.9729311 ] ], [ [ -122.0330625, 36.9729311 ], [ -122.0330923, 36.9729533 ] ], [ [ -122.0330625, 36.9729311 ], [ -122.0330496, 36.9729033 ] ], [ [ -122.0330496, 36.9729033 ], [ -122.0330625, 36.9729311 ] ], [ [ -122.0330496, 36.9729033 ], [ -122.0330466, 36.9728621 ] ], [ [ -122.0330466, 36.9728621 ], [ -122.0330496, 36.9729033 ] ], [ [ -122.0330466, 36.9728621 ], [ -122.0330347, 36.9728439 ] ], [ [ -122.0330347, 36.9728439 ], [ -122.0330466, 36.9728621 ] ], [ [ -122.0330347, 36.9728439 ], [ -122.0329732, 36.972824 ] ], [ [ -122.0329732, 36.972824 ], [ -122.0330347, 36.9728439 ] ], [ [ -122.0329732, 36.972824 ], [ -122.0327208, 36.9727663 ] ], [ [ -122.0327208, 36.9727663 ], [ -122.0329732, 36.972824 ] ], [ [ -122.0327208, 36.9727663 ], [ -122.0326878, 36.9727392 ] ], [ [ -122.0326878, 36.9727392 ], [ -122.0327208, 36.9727663 ] ], [ [ -122.0326878, 36.9727392 ], [ -122.0326708, 36.9727059 ] ], [ [ -122.0326907, 36.9726764 ], [ -122.0326708, 36.9727059 ] ], [ [ -122.0326907, 36.9726764 ], [ -122.0330683, 36.9727753 ] ], [ [ -122.0330683, 36.9727753 ], [ -122.0326907, 36.9726764 ] ], [ [ -122.0330683, 36.9727753 ], [ -122.0331131, 36.9727975 ] ], [ [ -122.0331131, 36.9727975 ], [ -122.0330683, 36.9727753 ] ], [ [ -122.0331131, 36.9727975 ], [ -122.0331366, 36.9728261 ] ], [ [ -122.0331366, 36.9728261 ], [ -122.0331131, 36.9727975 ] ], [ [ -122.0331366, 36.9728261 ], [ -122.0331611, 36.9728449 ] ], [ [ -122.0331611, 36.9728449 ], [ -122.0331366, 36.9728261 ] ], [ [ -122.0346148, 36.9711619 ], [ -122.0344538, 36.9711352 ] ], [ [ -122.0346148, 36.9711619 ], [ -122.0348328, 36.9712105 ] ], [ [ -122.0348328, 36.9712105 ], [ -122.0346148, 36.9711619 ] ], [ [ -122.0348328, 36.9712105 ], [ -122.034883, 36.9712268 ] ], [ [ -122.034883, 36.9712268 ], [ -122.0348328, 36.9712105 ] ], [ [ -122.034883, 36.9712268 ], [ -122.0349615, 36.9713014 ] ], [ [ -122.0349615, 36.9713014 ], [ -122.034883, 36.9712268 ] ], [ [ -122.0348839, 36.9729101 ], [ -122.0350211, 36.9729546 ] ], [ [ -122.0348839, 36.9729101 ], [ -122.0346964, 36.9728686 ] ], [ [ -122.0346964, 36.9728686 ], [ -122.0348839, 36.9729101 ] ], [ [ -122.0346964, 36.9728686 ], [ -122.0345367, 36.9728096 ] ], [ [ -122.0345367, 36.9728096 ], [ -122.0346964, 36.9728686 ] ], [ [ -122.0345367, 36.9728096 ], [ -122.0344858, 36.9728125 ] ], [ [ -122.0344858, 36.9728125 ], [ -122.0345367, 36.9728096 ] ], [ [ -122.0344858, 36.9728125 ], [ -122.0344108, 36.9729178 ] ], [ [ -122.0344108, 36.9729178 ], [ -122.0344858, 36.9728125 ] ], [ [ -122.0361213, 36.9718801 ], [ -122.0359646, 36.9718402 ] ], [ [ -122.0361213, 36.9718801 ], [ -122.0363735, 36.9719615 ] ], [ [ -122.0363735, 36.9719615 ], [ -122.0361213, 36.9718801 ] ], [ [ -122.0338674, 36.9716023 ], [ -122.0339247, 36.9716159 ] ], [ [ -122.0338674, 36.9716023 ], [ -122.0338032, 36.9717731 ] ], [ [ -122.0338674, 36.9716023 ], [ -122.033916, 36.9714729 ] ], [ [ -122.0339247, 36.9716159 ], [ -122.0338674, 36.9716023 ] ], [ [ -122.0339247, 36.9716159 ], [ -122.0341426, 36.9716543 ] ], [ [ -122.0338032, 36.9717731 ], [ -122.0338674, 36.9716023 ] ], [ [ -122.0338032, 36.9717731 ], [ -122.034096, 36.9718328 ] ], [ [ -122.0338032, 36.9717731 ], [ -122.0335264, 36.9717166 ] ], [ [ -122.033916, 36.9714729 ], [ -122.0338674, 36.9716023 ] ], [ [ -122.0334049, 36.971822 ], [ -122.0333869, 36.9718729 ] ], [ [ -122.0334049, 36.971822 ], [ -122.0334338, 36.9717402 ] ], [ [ -122.0335264, 36.9717166 ], [ -122.0338032, 36.9717731 ] ], [ [ -122.0335264, 36.9717166 ], [ -122.0335096, 36.9717568 ] ], [ [ -122.0335096, 36.9717568 ], [ -122.0335264, 36.9717166 ] ], [ [ -122.0335096, 36.9717568 ], [ -122.0334338, 36.9717402 ] ], [ [ -122.0334338, 36.9717402 ], [ -122.0335096, 36.9717568 ] ], [ [ -122.0334338, 36.9717402 ], [ -122.0334049, 36.971822 ] ], [ [ -122.0325809, 36.9722256 ], [ -122.033057, 36.9723402 ] ], [ [ -122.033057, 36.9723402 ], [ -122.0325809, 36.9722256 ] ], [ [ -122.033057, 36.9723402 ], [ -122.03312, 36.9724088 ] ], [ [ -122.03312, 36.9724088 ], [ -122.033057, 36.9723402 ] ], [ [ -122.03312, 36.9724088 ], [ -122.033403, 36.9724865 ] ], [ [ -122.0320042, 36.9707454 ], [ -122.0320406, 36.9707602 ] ], [ [ -122.0320042, 36.9707454 ], [ -122.0320733, 36.970688 ] ], [ [ -122.0320042, 36.9707454 ], [ -122.0319184, 36.9707818 ] ], [ [ -122.0320934, 36.9707818 ], [ -122.0320406, 36.9707602 ] ], [ [ -122.0320934, 36.9707818 ], [ -122.0322382, 36.9708188 ] ], [ [ -122.0322382, 36.9708188 ], [ -122.0320934, 36.9707818 ] ], [ [ -122.0322382, 36.9708188 ], [ -122.0323026, 36.9708273 ] ], [ [ -122.0323026, 36.9708273 ], [ -122.0322382, 36.9708188 ] ], [ [ -122.0323026, 36.9708273 ], [ -122.0323764, 36.9708257 ] ], [ [ -122.0323764, 36.9708257 ], [ -122.0323026, 36.9708273 ] ], [ [ -122.0323764, 36.9708257 ], [ -122.0326567, 36.9707791 ] ], [ [ -122.0322067, 36.9703403 ], [ -122.032185220389948, 36.97025075849303 ] ], [ [ -122.0322067, 36.9703403 ], [ -122.0322134, 36.9704132 ] ], [ [ -122.0322134, 36.9704132 ], [ -122.0322067, 36.9703403 ] ], [ [ -122.0322134, 36.9704132 ], [ -122.0321953, 36.9705011 ] ], [ [ -122.0321953, 36.9705011 ], [ -122.0322134, 36.9704132 ] ], [ [ -122.0321953, 36.9705011 ], [ -122.0321719, 36.9705611 ] ], [ [ -122.0321719, 36.9705611 ], [ -122.0321953, 36.9705011 ] ], [ [ -122.0321719, 36.9705611 ], [ -122.0321269, 36.9706243 ] ], [ [ -122.0321269, 36.9706243 ], [ -122.0321719, 36.9705611 ] ], [ [ -122.0321269, 36.9706243 ], [ -122.0320733, 36.970688 ] ], [ [ -122.0320733, 36.970688 ], [ -122.0321269, 36.9706243 ] ], [ [ -122.0320733, 36.970688 ], [ -122.0320042, 36.9707454 ] ], [ [ -122.0319184, 36.9707818 ], [ -122.0320042, 36.9707454 ] ], [ [ -122.0319184, 36.9707818 ], [ -122.0318399, 36.9708032 ] ], [ [ -122.0318399, 36.9708032 ], [ -122.0319184, 36.9707818 ] ], [ [ -122.0318399, 36.9708032 ], [ -122.0317259, 36.9708182 ] ], [ [ -122.0317259, 36.9708182 ], [ -122.0318399, 36.9708032 ] ], [ [ -122.0317259, 36.9708182 ], [ -122.0316193, 36.970815 ] ], [ [ -122.0316193, 36.970815 ], [ -122.0317259, 36.9708182 ] ], [ [ -122.0316193, 36.970815 ], [ -122.0315221, 36.9708 ] ], [ [ -122.0315221, 36.9708 ], [ -122.0316193, 36.970815 ] ], [ [ -122.0315221, 36.9708 ], [ -122.0314141, 36.9707636 ] ], [ [ -122.0314141, 36.9707636 ], [ -122.03147109160696, 36.970782808282337 ] ], [ [ -122.034003941502206, 36.972069499932061 ], [ -122.0338611, 36.9720359 ] ], [ [ -122.034003941502206, 36.972069499932061 ], [ -122.034032, 36.9720761 ] ] ] } }
]
}
