{
   "type": "FeatureCollection",
   "features": [
  {
    "type": "Feature",
    "geometry": {
       "type": "Point",
       "coordinates":  [  -122.024944,  36.970918 ]
    },
    "properties": {
    "stop_name":"Santa Cruz Metro Center (Pacific Station)"
    }
  },
  {
    "type": "Feature",
    "geometry": {
       "type": "Point",
       "coordinates":  [  -122.024575,  36.971022 ]
    },
    "properties": {
    "stop_name":"Santa Cruz Metro Center (Pacific Station) Lane 1"
    }
  },
  {
    "type": "Feature",
    "geometry": {
       "type": "Point",
       "coordinates":  [  -122.024551,  36.970886 ]
    },
    "properties": {
    "stop_name":"Santa Cruz Metro Center (Pacific Station) Lane 2"
    }
  },
  {
    "type": "Feature",
    "geometry": {
       "type": "Point",
       "coordinates":  [  -122.024447,  36.970776 ]
    },
    "properties": {
    "stop_name":"Santa Cruz Metro Center (Pacific Station) Lane 3"
    }
  },
  {
    "type": "Feature",
    "geometry": {
       "type": "Point",
       "coordinates":  [  -122.024436,  36.970635 ]
    },
    "properties": {
    "stop_name":"Santa Cruz Metro Center (Pacific Station) Lane 4"
    }
  },
  {
    "type": "Feature",
    "geometry": {
       "type": "Point",
       "coordinates":  [  -122.024798,  36.97403 ]
    },
    "properties": {
    "stop_name":"Front & Longs"
    }
  },
  {
    "type": "Feature",
    "geometry": {
       "type": "Point",
       "coordinates":  [  -122.02478, 36.973519 ]
    },
    "properties": {
    "stop_name":"Front & Soquel Ave"
    }
  },
  {
    "type": "Feature",
    "geometry": {
       "type": "Point",
       "coordinates":  [  -122.025485,  36.976316 ]
    },
    "properties": {
    "stop_name":"River & River St Extension"
    }
  },
  {
    "type": "Feature",
    "geometry": {
       "type": "Point",
       "coordinates":  [  -122.023932,  36.978521 ]
    },
    "properties": {
    "stop_name":"Water & (County Bldgs)"
    }
  },
  {
    "type": "Feature",
    "geometry": {
       "type": "Point",
       "coordinates":  [  -122.021804,  36.979524 ]
    },
    "properties": {
    "stop_name":"Water & Ocean"
    }
  },
  {
    "type": "Feature",
    "geometry": {
       "type": "Point",
       "coordinates":  [  -122.02774, 36.968919 ]
    },
    "properties": {
    "stop_name":"Laurel & Center"
    }
  },
  {
    "type": "Feature",
    "geometry": {
       "type": "Point",
       "coordinates":  [  -122.031162,  36.968447 ]
    },
    "properties": {
    "stop_name":"Laurel & Blackburn"
    }
  },
  {
    "type": "Feature",
    "geometry": {
       "type": "Point",
       "coordinates":  [  -122.028995,  36.968652 ]
    },
    "properties": {
    "stop_name":"Laurel & Chestnut"
    }
  },
  {
    "type": "Feature",
    "geometry": {
       "type": "Point",
       "coordinates":  [  -122.031333,  36.96857 ]
    },
    "properties": {
    "stop_name":"Laurel & Blackburn"
    }
  },
  {
    "type": "Feature",
    "geometry": {
       "type": "Point",
       "coordinates":  [ -122.02519,  36.976424 ]
    },
    "properties": {
    "stop_name":"River & River St Extension"
    }
  },
  {
    "type": "Feature",
    "geometry": {
       "type": "Point",
       "coordinates":  [  -122.0374,  36.9692 ]
    },
    "properties": {
    "stop_name":"Mission & Laurel"
    }
  },
  {
    "type": "Feature",
    "geometry": {
       "type": "Point",
       "coordinates":  [  -122.0378,  36.969 ]
    },
    "properties": {
    "stop_name":"Mission & Laurel"
    }
  },
  {
    "type": "Feature",
    "geometry": {
       "type": "Point",
       "coordinates":  [  -122.0391,  36.9673 ]
    },
    "properties": {
    "stop_name":"Mission & Bay/Trescony"
    }
  },
  {
    "type": "Feature",
    "geometry": {
       "type": "Point",
       "coordinates":  [  -122.0406,  36.9669 ]
    },
    "properties": {
    "stop_name":"Bay & Mission"
    }
  },
  {
    "type": "Feature",
    "geometry": {
       "type": "Point",
       "coordinates":  [  -122.0427,  36.9679 ]
    },
    "properties": {
    "stop_name":"Bay & King"
    }
  },
  {
    "type": "Feature",
    "geometry": {
       "type": "Point",
       "coordinates":  [  -122.0433,  36.9683 ]
    },
    "properties": {
    "stop_name":"Bay & King"
    }
  },
  {
    "type": "Feature",
    "geometry": {
       "type": "Point",
       "coordinates":  [  -122.0459,  36.9694 ]
    },
    "properties": {
    "stop_name":"Bay & Escalona"
    }
  },
  {
    "type": "Feature",
    "geometry": {
       "type": "Point",
       "coordinates":  [  -122.0501,  36.9737 ]
    },
    "properties": {
    "stop_name":"Bay & Nobel"
    }
  },
  {
    "type": "Feature",
    "geometry": {
       "type": "Point",
       "coordinates":  [  -122.0504,  36.9743 ]
    },
    "properties": {
    "stop_name":"Bay & Iowa"
    }
  },
  {
    "type": "Feature",
    "geometry": {
       "type": "Point",
       "coordinates":  [  -122.0524,  36.9755 ]
    },
    "properties": {
    "stop_name":"Bay & Meder"
    }
  },
  {
    "type": "Feature",
    "geometry": {
       "type": "Point",
       "coordinates":  [  -122.0535,  36.9777 ]
    },
    "properties": {
    "stop_name":"Coolidge & Main Entrance"
    }
  },
  {
    "type": "Feature",
    "geometry": {
       "type": "Point",
       "coordinates":  [  -122.0543,  36.9773 ]
    },
    "properties": {
    "stop_name":"High & Barn Theater (UCSC)"
    }
  },
  {
    "type": "Feature",
    "geometry": {
       "type": "Point",
       "coordinates":  [  -122.0519,  36.9814 ]
    },
    "properties": {
    "stop_name":"Coolidge & Hagar"
    }
  },
  {
    "type": "Feature",
    "geometry": {
       "type": "Point",
       "coordinates":  [  -122.0521,  36.9816 ]
    },
    "properties": {
    "stop_name":"Coolidge & Lower Campus"
    }
  },
  {
    "type": "Feature",
    "geometry": {
       "type": "Point",
       "coordinates":  [  -122.0535,  36.9859 ]
    },
    "properties": {
    "stop_name":"Hagar & Lower Quarry Rd (UCSC)"
    }
  },
  {
    "type": "Feature",
    "geometry": {
       "type": "Point",
       "coordinates":  [  -122.0536,  36.9855 ]
    },
    "properties": {
    "stop_name":"Hagar & Lower Quarry Rd (UCSC)"
    }
  },
  {
    "type": "Feature",
    "geometry": {
       "type": "Point",
       "coordinates":  [  -122.0547,  36.9913 ]
    },
    "properties": {
    "stop_name":"Hagar & East Remote (UCSC)"
    }
  },
  {
    "type": "Feature",
    "geometry": {
       "type": "Point",
       "coordinates":  [  -122.0549,  36.9913 ]
    },
    "properties": {
    "stop_name":"Hagar & East Remote (UCSC)"
    }
  },
  {
    "type": "Feature",
    "geometry": {
       "type": "Point",
       "coordinates":  [  -122.0555,  36.9943 ]
    },
    "properties": {
    "stop_name":"Hagar & Field House East (UCSC)"
    }
  },
  {
    "type": "Feature",
    "geometry": {
       "type": "Point",
       "coordinates":  [  -122.0554,  36.9967 ]
    },
    "properties": {
    "stop_name":"Hagar & Bookstore (UCSC)"
    }
  },
  {
    "type": "Feature",
    "geometry": {
       "type": "Point",
       "coordinates":  [  -122.055, 36.9975 ]
    },
    "properties": {
    "stop_name":"Hagar & Bookstore-Stevenson College"
    }
  },
  {
    "type": "Feature",
    "geometry": {
       "type": "Point",
       "coordinates":  [ -122.0552,36.999 ]
    },
    "properties": {
    "stop_name":"McLaughlin & Crown College (UCSC)"
    }
  },
  {
    "type": "Feature",
    "geometry": {
       "type": "Point",
       "coordinates":  [ -122.0583,36.9999 ]
    },
    "properties": {
    "stop_name":"McLaughlin & College 9 & 10 - Health Center"
    }
  },
  {
    "type": "Feature",
    "geometry": {
       "type": "Point",
       "coordinates":  [ -122.0583,36.9998 ]
    },
    "properties": {
    "stop_name":"McLaughlin & College 9 & 10 - Health Center"
    }
  },
  {
    "type": "Feature",
    "geometry": {
       "type": "Point",
       "coordinates":  [ -122.0623,37 ]
    },
    "properties": {
    "stop_name":"McLaughlin & Science Hill (UCSC)"
    }
  },
  {
    "type": "Feature",
    "geometry": {
       "type": "Point",
       "coordinates":  [ -122.0622,36.9999 ]
    },
    "properties": {
    "stop_name":"McLaughlin & Science Hill (UCSC)"
    }
  },
  {
    "type": "Feature",
    "geometry": {
       "type": "Point",
       "coordinates":  [ -122.0646,36.9993 ]
    },
    "properties": {
    "stop_name":"Heller & Kresge College (UCSC)"
    }
  },
  {
    "type": "Feature",
    "geometry": {
       "type": "Point",
       "coordinates":  [ -122.0643,36.9992 ]
    },
    "properties": {
    "stop_name":"Heller & Kresge College (UCSC)"
    }
  },
  {
    "type": "Feature",
    "geometry": {
       "type": "Point",
       "coordinates":  [ -122.0636,36.9967 ]
    },
    "properties": {
    "stop_name":"Heller & Kerr Hall (UCSC)"
    }
  },
  {
    "type": "Feature",
    "geometry": {
       "type": "Point",
       "coordinates":  [ -122.0649,36.9928 ]
    },
    "properties": {
    "stop_name":"Heller & College 8/Porter (UCSC)"
    }
  },
  {
    "type": "Feature",
    "geometry": {
       "type": "Point",
       "coordinates":  [ -122.0652,36.993 ]
    },
    "properties": {
    "stop_name":"Heller & College 8/Porter (UCSC)"
    }
  },
  {
    "type": "Feature",
    "geometry": {
       "type": "Point",
       "coordinates":  [ -122.0668,36.9918 ]
    },
    "properties": {
    "stop_name":"Heller & Family Student Housing (UCSC)"
    }
  },
  {
    "type": "Feature",
    "geometry": {
       "type": "Point",
       "coordinates":  [ -122.0661,36.9906 ]
    },
    "properties": {
    "stop_name":"Heller & Oakes College (UCSC)"
    }
  },
  {
    "type": "Feature",
    "geometry": {
       "type": "Point",
       "coordinates":  [ -122.0672,36.9899 ]
    },
    "properties": {
    "stop_name":"Heller & Oakes College (UCSC)"
    }
  },
  {
    "type": "Feature",
    "geometry": {
       "type": "Point",
       "coordinates":  [ 36.9837,36.9837 ]
    },
    "properties": {
    "stop_name":"Empire Grade & Arboretum"
    }
  },
  {
    "type": "Feature",
    "geometry": {
       "type": "Point",
       "coordinates":  [ -122.0627,36.9828 ]
    },
    "properties": {
    "stop_name":"Empire Grade & Arboretum"
    }
  },
  {
    "type": "Feature",
    "geometry": {
       "type": "Point",
       "coordinates":  [ -122.0577,36.9788 ]
    },
    "properties": {
    "stop_name":"High & Western Dr"
    }
  },
  {
    "type": "Feature",
    "geometry": {
       "type": "Point",
       "coordinates":  [ -122.0578,36.9786 ]
    },
    "properties": {
    "stop_name":"High & Western Dr"
    }
  },
  {
    "type": "Feature",
    "geometry": {
       "type": "Point",
       "coordinates":  [ -122.05916,36.97978 ]
    },
    "properties": {
    "stop_name":"High & Tosca Terrace"
    }
  },
  {
    "type": "Feature",
    "geometry": {
       "type": "Point",
       "coordinates":  [ -122.0538,36.9768 ]
    },
    "properties": {
    "stop_name":"Bay & High"
    }
  },
  {
    "type": "Feature",
    "geometry": {
       "type": "Point",
       "coordinates":  [ -121.75992,36.909697 ]
    },
    "properties": {
    "stop_name":"Watsonville Transit Center "
    }
  }
]
}