﻿stop_name,stop_lat,stop_lon
Bay & Mission,36.9663,-122.0397
Bay & Mission,36.9662,-122.0398
Bay & Seaside,36.9655,-122.0385
Bay & Seaside,36.9652,-122.0383
Bay & Redwood,36.9639,-122.0364
Bay & California,36.9637,-122.0358
Bay & Columbia (Garfield Park Village),36.9624,-122.0342
Bay & Columbia (Garfield Park Village),36.9625,-122.034
Bay & National,36.9614,-122.0326
Bay & National,36.9614,-122.0324
Bay & Laguna,36.9606,-122.0291
Bay & Laguna,36.9604,-122.0293
Bay & West Cliff,36.9614,-122.0258
Bay & West Cliff,36.9612,-122.0259
Pacific & Second,36.9639,-122.0249
Pacific & Viaduct,36.9637,-122.0249
Pacific & Center,36.9657,-122.0254
Santa Cruz Metro Center (Pacific Station) Lane 1,"	36.971022","	-122.024575"
Bay & King,"	36.9679","	-122.0427"
Bay & King,"	36.9683","	-122.0433"
Bay & Escalona,"	36.9694","	-122.0459"
Bay & Nobel,"	36.9737","	-122.0501"
Bay & Iowa,"	36.9743","	-122.0504"
Bay & Meder,"	36.9755","	-122.0524"
