{
"type": "FeatureCollection",
"name": "university",
"crs": { "type": "name", "properties": { "name": "urn:ogc:def:crs:OGC:1.3:CRS84" } },
"features": [
{ "type": "Feature", "properties": { "full_id": "r812467", "osm_id": "812467", "osm_type": "relation", "amenity": "university", "border_type": "university", "boundary": "administrative", "name": "", "type": "multipolygon", "owner": "", "addr:housenumber": "", "addr:street": "", "building": "", "wikidata": "" }, "geometry": { "type": "MultiPolygon", "coordinates": [ [ [ [ -122.0653832, 36.9513673 ], [ -122.064114, 36.9513722 ], [ -122.0640013, 36.9517926 ], [ -122.0640561, 36.9523971 ], [ -122.0653705, 36.9523926 ], [ -122.0653832, 36.9513673 ] ] ], [ [ [ -122.0662726, 36.9489102 ], [ -122.0662028, 36.9488331 ], [ -122.066165, 36.9487343 ], [ -122.0662136, 36.9486401 ], [ -122.0662458, 36.9485801 ], [ -122.0662157, 36.948494 ], [ -122.0661406, 36.9483954 ], [ -122.0660601, 36.9483354 ], [ -122.0660601, 36.9482368 ], [ -122.0660333, 36.9481682 ], [ -122.0659421, 36.9480824 ], [ -122.0658456, 36.9480824 ], [ -122.065749, 36.9481253 ], [ -122.0656417, 36.9481725 ], [ -122.0655237, 36.9482067 ], [ -122.0654218, 36.9482282 ], [ -122.0653306, 36.9482368 ], [ -122.0652569, 36.9483098 ], [ -122.0651906, 36.9484031 ], [ -122.0650958, 36.9484776 ], [ -122.0649822, 36.9484902 ], [ -122.0649133, 36.9484677 ], [ -122.064892, 36.9484653 ], [ -122.0648027, 36.9484472 ], [ -122.0646847, 36.9484687 ], [ -122.0645131, 36.9485458 ], [ -122.0643682, 36.9486016 ], [ -122.0642395, 36.9486744 ], [ -122.0640893, 36.9487345 ], [ -122.0640303, 36.9487602 ], [ -122.0640142, 36.9487859 ], [ -122.0639766, 36.9488502 ], [ -122.0639176, 36.9488631 ], [ -122.0638586, 36.9488545 ], [ -122.0637781, 36.9488759 ], [ -122.0637567, 36.9489059 ], [ -122.063703, 36.9489745 ], [ -122.0635957, 36.9489874 ], [ -122.0634621, 36.9490041 ], [ -122.0632971, 36.949005 ], [ -122.0631411, 36.948952 ], [ -122.0630325, 36.9488931 ], [ -122.0629574, 36.9488974 ], [ -122.0628554, 36.9489188 ], [ -122.062834, 36.9489617 ], [ -122.0628072, 36.9490388 ], [ -122.06277, 36.9490874 ], [ -122.0625751, 36.9491056 ], [ -122.0625511, 36.9545396 ], [ -122.0625257, 36.9545399 ], [ -122.062525, 36.954608 ], [ -122.0625235, 36.9547569 ], [ -122.0625243, 36.9547737 ], [ -122.0625247, 36.9548512 ], [ -122.0625244, 36.9549798 ], [ -122.062516, 36.9578278 ], [ -122.0653194, 36.9575993 ], [ -122.0652652, 36.9558033 ], [ -122.065409, 36.9556744 ], [ -122.0655688, 36.9554843 ], [ -122.065715, 36.9553137 ], [ -122.0658442, 36.955078 ], [ -122.0655579, 36.9547258 ], [ -122.0656024, 36.9545766 ], [ -122.0657254, 36.9545779 ], [ -122.066057, 36.9546947 ], [ -122.0662342, 36.9545715 ], [ -122.066157, 36.9543921 ], [ -122.0658483, 36.9541985 ], [ -122.0658444, 36.9540229 ], [ -122.0660245, 36.9538589 ], [ -122.0663847, 36.9536917 ], [ -122.0664805, 36.953628 ], [ -122.0666937, 36.9533819 ], [ -122.0667274, 36.9532083 ], [ -122.0666862, 36.9530916 ], [ -122.0662437, 36.9524904 ], [ -122.066091, 36.9526354 ], [ -122.0655885, 36.9517894 ], [ -122.0655847, 36.9511481 ], [ -122.0655809, 36.9505172 ], [ -122.0658006, 36.9503008 ], [ -122.0666948, 36.9496139 ], [ -122.0662726, 36.9489102 ] ] ] ] } },
{ "type": "Feature", "properties": { "full_id": "r812468", "osm_id": "812468", "osm_type": "relation", "amenity": "university", "border_type": "university", "boundary": "administrative", "name": "UCSC Coastal Science Campus", "type": "boundary", "owner": "University of California Santa Cruz", "addr:housenumber": "", "addr:street": "", "building": "", "wikidata": "" }, "geometry": { "type": "MultiPolygon", "coordinates": [ [ [ [ -122.0662726, 36.9489102 ], [ -122.0662028, 36.9488331 ], [ -122.066165, 36.9487343 ], [ -122.0662136, 36.9486401 ], [ -122.0662458, 36.9485801 ], [ -122.0662157, 36.948494 ], [ -122.0661406, 36.9483954 ], [ -122.0660601, 36.9483354 ], [ -122.0660601, 36.9482368 ], [ -122.0660333, 36.9481682 ], [ -122.0659421, 36.9480824 ], [ -122.0658456, 36.9480824 ], [ -122.065749, 36.9481253 ], [ -122.0656417, 36.9481725 ], [ -122.0655237, 36.9482067 ], [ -122.0654218, 36.9482282 ], [ -122.0653306, 36.9482368 ], [ -122.0652569, 36.9483098 ], [ -122.0651906, 36.9484031 ], [ -122.0650958, 36.9484776 ], [ -122.0649822, 36.9484902 ], [ -122.0649133, 36.9484677 ], [ -122.064892, 36.9484653 ], [ -122.0648027, 36.9484472 ], [ -122.0646847, 36.9484687 ], [ -122.0645131, 36.9485458 ], [ -122.0643682, 36.9486016 ], [ -122.0642395, 36.9486744 ], [ -122.0640893, 36.9487345 ], [ -122.0645055, 36.9499053 ], [ -122.0646686, 36.9499807 ], [ -122.064763, 36.9501248 ], [ -122.0654349, 36.9501187 ], [ -122.0654939, 36.9501182 ], [ -122.065484, 36.9511468 ], [ -122.0655847, 36.9511481 ], [ -122.0655809, 36.9505172 ], [ -122.0658006, 36.9503008 ], [ -122.0666948, 36.9496139 ], [ -122.0662726, 36.9489102 ] ] ] ] } },
{ "type": "Feature", "properties": { "full_id": "w34751509", "osm_id": "34751509", "osm_type": "way", "amenity": "university", "border_type": "", "boundary": "", "name": "", "type": "", "owner": "", "addr:housenumber": "", "addr:street": "", "building": "", "wikidata": "" }, "geometry": { "type": "MultiPolygon", "coordinates": [ [ [ [ -122.0575603, 36.9583832 ], [ -122.0592319, 36.9581788 ], [ -122.0592105, 36.9581032 ], [ -122.0590791, 36.9581203 ], [ -122.0591615, 36.9578839 ], [ -122.0591582, 36.9574195 ], [ -122.0593077, 36.957115 ], [ -122.0593537, 36.9566073 ], [ -122.059405, 36.9564667 ], [ -122.0598756, 36.9560692 ], [ -122.0599813, 36.9558463 ], [ -122.0600352, 36.9554591 ], [ -122.0594035, 36.9550719 ], [ -122.0595202, 36.9545794 ], [ -122.0588256, 36.9546667 ], [ -122.0571119, 36.95485 ], [ -122.0574309, 36.9571015 ], [ -122.0569414, 36.9571467 ], [ -122.0569173, 36.956986 ], [ -122.0565204, 36.957022 ], [ -122.0565953, 36.9575607 ], [ -122.0574738, 36.9574632 ], [ -122.0575603, 36.9583832 ] ] ] ] } },
{ "type": "Feature", "properties": { "full_id": "w34752925", "osm_id": "34752925", "osm_type": "way", "amenity": "university", "border_type": "", "boundary": "", "name": "", "type": "", "owner": "", "addr:housenumber": "523", "addr:street": "Swift Street", "building": "university", "wikidata": "" }, "geometry": { "type": "MultiPolygon", "coordinates": [ [ [ [ -122.0487357, 36.9564566 ], [ -122.0494626, 36.9563824 ], [ -122.049404, 36.9560158 ], [ -122.0486771, 36.95609 ], [ -122.0487357, 36.9564566 ] ] ] ] } },
{ "type": "Feature", "properties": { "full_id": "w34752934", "osm_id": "34752934", "osm_type": "way", "amenity": "university", "border_type": "", "boundary": "", "name": "", "type": "", "owner": "", "addr:housenumber": "2155", "addr:street": "Delaware Avenue", "building": "university", "wikidata": "" }, "geometry": { "type": "MultiPolygon", "coordinates": [ [ [ [ -122.0507527, 36.9552471 ], [ -122.0506817, 36.9547867 ], [ -122.0501668, 36.9548374 ], [ -122.0501908, 36.954993 ], [ -122.050232, 36.954989 ], [ -122.050253, 36.9551247 ], [ -122.0502025, 36.9551297 ], [ -122.0502285, 36.9552988 ], [ -122.0507527, 36.9552471 ] ] ] ] } },
{ "type": "Feature", "properties": { "full_id": "w34849762", "osm_id": "34849762", "osm_type": "way", "amenity": "", "border_type": "", "boundary": "administrative", "name": "", "type": "", "owner": "", "addr:housenumber": "", "addr:street": "", "building": "", "wikidata": "" }, "geometry": { "type": "MultiPolygon", "coordinates": [ [ [ [ -122.0653832, 36.9513673 ], [ -122.064114, 36.9513722 ], [ -122.0640013, 36.9517926 ], [ -122.0640561, 36.9523971 ], [ -122.0653705, 36.9523926 ], [ -122.0653832, 36.9513673 ] ] ] ] } },
{ "type": "Feature", "properties": { "full_id": "w34896027", "osm_id": "34896027", "osm_type": "way", "amenity": "university", "border_type": "university", "boundary": "administrative", "name": "", "type": "", "owner": "", "addr:housenumber": "", "addr:street": "", "building": "", "wikidata": "" }, "geometry": { "type": "MultiPolygon", "coordinates": [ [ [ [ -122.0487494, 36.9566493 ], [ -122.048738, 36.9565634 ], [ -122.0486749, 36.9560872 ], [ -122.0494057, 36.9560108 ], [ -122.0495068, 36.9565735 ], [ -122.0487494, 36.9566493 ] ] ] ] } },
{ "type": "Feature", "properties": { "full_id": "w34896030", "osm_id": "34896030", "osm_type": "way", "amenity": "university", "border_type": "university", "boundary": "administrative", "name": "", "type": "", "owner": "", "addr:housenumber": "", "addr:street": "", "building": "", "wikidata": "" }, "geometry": { "type": "MultiPolygon", "coordinates": [ [ [ [ -122.0506946, 36.9547532 ], [ -122.0507813, 36.9553172 ], [ -122.0500335, 36.9553906 ], [ -122.0499468, 36.9548266 ], [ -122.0506946, 36.9547532 ] ] ] ] } },
{ "type": "Feature", "properties": { "full_id": "w34944336", "osm_id": "34944336", "osm_type": "way", "amenity": "university", "border_type": "", "boundary": "", "name": "", "type": "", "owner": "", "addr:housenumber": "", "addr:street": "", "building": "yes", "wikidata": "" }, "geometry": { "type": "MultiPolygon", "coordinates": [ [ [ [ -122.0568975, 36.957468 ], [ -122.0572123, 36.9574375 ], [ -122.0571708, 36.957164 ], [ -122.056856, 36.9571946 ], [ -122.0568975, 36.957468 ] ] ] ] } },
{ "type": "Feature", "properties": { "full_id": "w264271857", "osm_id": "264271857", "osm_type": "way", "amenity": "university", "border_type": "university", "boundary": "administrative", "name": "", "type": "", "owner": "", "addr:housenumber": "", "addr:street": "", "building": "", "wikidata": "" }, "geometry": { "type": "MultiPolygon", "coordinates": [ [ [ [ -122.0536806, 36.9542693 ], [ -122.0537704, 36.9548382 ], [ -122.0532762, 36.954888 ], [ -122.0531864, 36.9543191 ], [ -122.0536806, 36.9542693 ] ] ] ] } },
{ "type": "Feature", "properties": { "full_id": "w264273666", "osm_id": "264273666", "osm_type": "way", "amenity": "university", "border_type": "university", "boundary": "administrative", "name": "", "type": "", "owner": "", "addr:housenumber": "", "addr:street": "", "building": "", "wikidata": "" }, "geometry": { "type": "MultiPolygon", "coordinates": [ [ [ [ -122.0580525, 36.9591025 ], [ -122.0581021, 36.9596882 ], [ -122.0576954, 36.959704 ], [ -122.0576353, 36.9591263 ], [ -122.0580525, 36.9591025 ] ] ] ] } },
{ "type": "Feature", "properties": { "full_id": "w670613089", "osm_id": "670613089", "osm_type": "way", "amenity": "university", "border_type": "", "boundary": "", "name": "UCSC", "type": "", "owner": "", "addr:housenumber": "", "addr:street": "", "building": "", "wikidata": "Q1047293" }, "geometry": { "type": "MultiPolygon", "coordinates": [ [ [ [ -122.0703332, 37.011312 ], [ -122.0701728, 37.0109699 ], [ -122.0701441, 37.0105149 ], [ -122.0701117, 37.0102259 ], [ -122.0700452, 37.0101539 ], [ -122.0700379, 37.0100249 ], [ -122.0701942, 37.0097706 ], [ -122.0701957, 37.0096783 ], [ -122.0699496, 37.0088308 ], [ -122.0698372, 37.0086823 ], [ -122.0697672, 37.0085608 ], [ -122.0697729, 37.0084803 ], [ -122.0698183, 37.008412 ], [ -122.0699622, 37.0081951 ], [ -122.0701165, 37.0078753 ], [ -122.0705471, 37.0069852 ], [ -122.0704454, 37.0067431 ], [ -122.0705709, 37.0065303 ], [ -122.070616, 37.0063495 ], [ -122.0705549, 37.0061777 ], [ -122.0705582, 37.0058146 ], [ -122.0708265, 37.0054809 ], [ -122.0712501, 37.0053444 ], [ -122.0712621, 37.0052786 ], [ -122.0712101, 37.0051437 ], [ -122.071123, 37.0050123 ], [ -122.0709406, 37.0047396 ], [ -122.0709331, 37.0043881 ], [ -122.0760297, 37.0043833 ], [ -122.0750815, 37.0019016 ], [ -122.072699, 36.9955717 ], [ -122.0690661, 36.9955828 ], [ -122.0688999, 36.9955856 ], [ -122.0689133, 36.9954736 ], [ -122.0690696, 36.9948298 ], [ -122.0691127, 36.9948021 ], [ -122.0696916, 36.9944405 ], [ -122.0702659, 36.9939061 ], [ -122.0698524, 36.9936057 ], [ -122.0699348, 36.9932681 ], [ -122.0699192, 36.9929276 ], [ -122.0703876, 36.992735 ], [ -122.0703581, 36.9926071 ], [ -122.0699195, 36.9923882 ], [ -122.0698137, 36.9921059 ], [ -122.0696267, 36.9917266 ], [ -122.0695646, 36.991644 ], [ -122.069251, 36.9909731 ], [ -122.0692711, 36.9906445 ], [ -122.0709868, 36.9847328 ], [ -122.0722881, 36.9801846 ], [ -122.0722835, 36.9801845 ], [ -122.0648663, 36.9801331 ], [ -122.0648702, 36.980693 ], [ -122.0619884, 36.9807021 ], [ -122.0611866, 36.9807054 ], [ -122.0601306, 36.9806888 ], [ -122.0599544, 36.980693 ], [ -122.0592205, 36.9801176 ], [ -122.0589323, 36.9797549 ], [ -122.0587452, 36.9795352 ], [ -122.0585521, 36.979352 ], [ -122.0581294, 36.9790445 ], [ -122.0571784, 36.9783004 ], [ -122.0564075, 36.9777829 ], [ -122.0559854, 36.97755 ], [ -122.0556856, 36.9773598 ], [ -122.0555283, 36.9773217 ], [ -122.0552138, 36.9773055 ], [ -122.0549847, 36.9772853 ], [ -122.0546721, 36.9772684 ], [ -122.0539506, 36.9772228 ], [ -122.0537114, 36.9772038 ], [ -122.0532992, 36.9771722 ], [ -122.0526069, 36.9771953 ], [ -122.0522784, 36.9771819 ], [ -122.0520403, 36.9771873 ], [ -122.0514643, 36.9772307 ], [ -122.0509869, 36.9772762 ], [ -122.0507377, 36.9772328 ], [ -122.0503472, 36.9773036 ], [ -122.0502666, 36.9773933 ], [ -122.0506991, 36.9790956 ], [ -122.0483421, 36.9796144 ], [ -122.0473655, 36.9798256 ], [ -122.0499148, 36.9824134 ], [ -122.0488171, 36.9824229 ], [ -122.0488995, 36.9830638 ], [ -122.047767, 36.984019 ], [ -122.0487911, 36.9890337 ], [ -122.050259, 36.995975 ], [ -122.0498571, 36.9966362 ], [ -122.0501421, 36.9972063 ], [ -122.049907, 36.998305 ], [ -122.0495801, 36.9984245 ], [ -122.049547, 36.998769 ], [ -122.0499087, 36.9988858 ], [ -122.05, 36.999131 ], [ -122.0500175, 37.0011179 ], [ -122.0513154, 37.0016438 ], [ -122.0516886, 37.0034717 ], [ -122.052267, 37.0061913 ], [ -122.05292, 37.009308 ], [ -122.0596666, 37.0097911 ], [ -122.0669008, 37.0129195 ], [ -122.069961, 37.0168863 ], [ -122.0697357, 37.0237183 ], [ -122.0741259, 37.0237597 ], [ -122.0829373, 37.0238498 ], [ -122.0864807, 37.0238833 ], [ -122.0839273, 37.0213873 ], [ -122.0832489, 37.0207302 ], [ -122.0830625, 37.020358 ], [ -122.0823109, 37.0196196 ], [ -122.0806697, 37.0180077 ], [ -122.0806907, 37.0141944 ], [ -122.0806885, 37.013565 ], [ -122.080685, 37.0113146 ], [ -122.0767339, 37.0113011 ], [ -122.0754238, 37.0113044 ], [ -122.0753273, 37.0113049 ], [ -122.0715877, 37.0113081 ], [ -122.0703332, 37.011312 ] ] ] ] } }
]
}
