{
   "type": "FeatureCollection",
   "features": [
  {
    "type": "Feature",
    "geometry": {
       "type": "Point",
       "coordinates":  [ -122.024575,36.971022 ]
    },
    "properties": {
    "stop_name":"Santa Cruz Metro Center (Pacific Station) Lane 1"
    }
  },
  {
    "type": "Feature",
    "geometry": {
       "type": "Point",
       "coordinates":  [ -122.027999,36.976168 ]
    },
    "properties": {
    "stop_name":"Cedar & Center"
    }
  },
  {
    "type": "Feature",
    "geometry": {
       "type": "Point",
       "coordinates":  [ -122.026782,36.971594 ]
    },
    "properties": {
    "stop_name":"Cedar & Cathcart"
    }
  },
  {
    "type": "Feature",
    "geometry": {
       "type": "Point",
       "coordinates":  [ -122.027125,36.973536 ]
    },
    "properties": {
    "stop_name":"Cedar & Walnut"
    }
  },
  {
    "type": "Feature",
    "geometry": {
       "type": "Point",
       "coordinates":  [ -122.030278,36.97727 ]
    },
    "properties": {
    "stop_name":"Mission & Sylvar"
    }
  },
  {
    "type": "Feature",
    "geometry": {
       "type": "Point",
       "coordinates":  [ -122.030076,36.977465 ]
    },
    "properties": {
    "stop_name":"Mission & Sylvar"
    }
  },
  {
    "type": "Feature",
    "geometry": {
       "type": "Point",
       "coordinates":  [ -122.033667,36.977902 ]
    },
    "properties": {
    "stop_name":"High & Highland"
    }
  },
  {
    "type": "Feature",
    "geometry": {
       "type": "Point",
       "coordinates":  [ -122.032918,36.976995 ]
    },
    "properties": {
    "stop_name":"Highland & Escalona"
    }
  },
  {
    "type": "Feature",
    "geometry": {
       "type": "Point",
       "coordinates":  [ -122.035035,36.976192 ]
    },
    "properties": {
    "stop_name":"Storey & Escalona"
    }
  },
  {
    "type": "Feature",
    "geometry": {
       "type": "Point",
       "coordinates":  [ -122.042377,36.977737 ]
    },
    "properties": {
    "stop_name":"High & Laurent"
    }
  },
  {
    "type": "Feature",
    "geometry": {
       "type": "Point",
       "coordinates":  [ -122.042172,36.977578 ]
    },
    "properties": {
    "stop_name":"High & Laurent"
    }
  },
  {
    "type": "Feature",
    "geometry": {
       "type": "Point",
       "coordinates":  [ -122.048609,36.977598 ]
    },
    "properties": {
    "stop_name":"High & Moore"
    }
  },
  {
    "type": "Feature",
    "geometry": {
       "type": "Point",
       "coordinates":  [ -122.048326,36.97786 ]
    },
    "properties": {
    "stop_name":"High & Moore"
    }
  },
  {
    "type": "Feature",
    "geometry": {
       "type": "Point",
       "coordinates":  [ -122.05036,36.977374 ]
    },
    "properties": {
    "stop_name":"High & Cardiff"
    }
  },
  {
    "type": "Feature",
    "geometry": {
       "type": "Point",
       "coordinates":  [ -122.050232,36.977268 ]
    },
    "properties": {
    "stop_name":"High & Cardiff"
    }
  },
  {
    "type": "Feature",
    "geometry": {
       "type": "Point",
       "coordinates":  [ -122.026563,36.976377 ]
    },
    "properties": {
    "stop_name":"Front & Pacific"
    }
  },
  {
    "type": "Feature",
    "geometry": {
       "type": "Point",
       "coordinates":  [ -122.02478,36.973519 ]
    },
    "properties": {
    "stop_name":"Front & Soquel Ave"
    }
  },
  {
    "type": "Feature",
    "geometry": {
       "type": "Point",
       "coordinates":  [ -122.052864,36.977066 ]
    },
    "properties": {
    "stop_name":"High & Bay"
    }
  }
]
}