{
   "type": "FeatureCollection",
   "features": [
  {
    "type": "Feature",
    "geometry": {
       "type": "Point",
       "coordinates":  [ -122.024575,36.971022 ]
    },
    "properties": {
    "stop_name":"Santa Cruz Metro Center (Pacific Station) Lane 1"
    }
  },
  {
    "type": "Feature",
    "geometry": {
       "type": "Point",
       "coordinates":  [ -122.024895,36.963671 ]
    },
    "properties": {
    "stop_name":"Pacific & Viaduct"
    }
  },
  {
    "type": "Feature",
    "geometry": {
       "type": "Point",
       "coordinates":  [ -122.024916,36.963908 ]
    },
    "properties": {
    "stop_name":"Pacific & Second"
    }
  },
  {
    "type": "Feature",
    "geometry": {
       "type": "Point",
       "coordinates":  [ -122.025361,36.965668 ]
    },
    "properties": {
    "stop_name":"Pacific & Center"
    }
  },
  {
    "type": "Feature",
    "geometry": {
       "type": "Point",
       "coordinates":  [ -122.025844,36.961377 ]
    },
    "properties": {
    "stop_name":"Bay & West Cliff"
    }
  },
  {
    "type": "Feature",
    "geometry": {
       "type": "Point",
       "coordinates":  [ -122.0291,36.960593 ]
    },
    "properties": {
    "stop_name":"Bay & Laguna"
    }
  },
  {
    "type": "Feature",
    "geometry": {
       "type": "Point",
       "coordinates":  [ -122.02594,36.961238 ]
    },
    "properties": {
    "stop_name":"Bay & West Cliff"
    }
  },
  {
    "type": "Feature",
    "geometry": {
       "type": "Point",
       "coordinates":  [ -122.048012,36.955643 ]
    },
    "properties": {
    "stop_name":"Delaware & Swift"
    }
  },
  {
    "type": "Feature",
    "geometry": {
       "type": "Point",
       "coordinates":  [ -122.043056,36.956248 ]
    },
    "properties": {
    "stop_name":"Delaware & Almar"
    }
  },
  {
    "type": "Feature",
    "geometry": {
       "type": "Point",
       "coordinates":  [ -122.040798,36.956711 ]
    },
    "properties": {
    "stop_name":"Delaware & Surfside"
    }
  },
  {
    "type": "Feature",
    "geometry": {
       "type": "Point",
       "coordinates":  [ -122.037958,36.956915 ]
    },
    "properties": {
    "stop_name":"Delaware & Woodrow"
    }
  },
  {
    "type": "Feature",
    "geometry": {
       "type": "Point",
       "coordinates":  [ -122.037645,36.957113 ]
    },
    "properties": {
    "stop_name":"Delaware & Woodrow"
    }
  },
  {
    "type": "Feature",
    "geometry": {
       "type": "Point",
       "coordinates":  [ -122.045282,36.955928 ]
    },
    "properties": {
    "stop_name":"Delaware & Fair"
    }
  },
  {
    "type": "Feature",
    "geometry": {
       "type": "Point",
       "coordinates":  [ -122.04022,36.956618 ]
    },
    "properties": {
    "stop_name":"Delaware & Bethany Curve"
    }
  },
  {
    "type": "Feature",
    "geometry": {
       "type": "Point",
       "coordinates":  [ -122.049006,36.955699 ]
    },
    "properties": {
    "stop_name":"Delaware & Swift"
    }
  },
  {
    "type": "Feature",
    "geometry": {
       "type": "Point",
       "coordinates":  [ -122.045859,36.955988 ]
    },
    "properties": {
    "stop_name":"Delaware & Fair"
    }
  },
  {
    "type": "Feature",
    "geometry": {
       "type": "Point",
       "coordinates":  [ -122.033823,36.957702 ]
    },
    "properties": {
    "stop_name":"Columbia & Delaware"
    }
  },
  {
    "type": "Feature",
    "geometry": {
       "type": "Point",
       "coordinates":  [ -122.030999,36.958048 ]
    },
    "properties": {
    "stop_name":"Delaware & Centennial"
    }
  },
  {
    "type": "Feature",
    "geometry": {
       "type": "Point",
       "coordinates":  [ -122.03002,36.958032 ]
    },
    "properties": {
    "stop_name":"Delaware & Liberty"
    }
  },
  {
    "type": "Feature",
    "geometry": {
       "type": "Point",
       "coordinates":  [ -122.033978,36.957452 ]
    },
    "properties": {
    "stop_name":"Delaware & Columbia"
    }
  },
  {
    "type": "Feature",
    "geometry": {
       "type": "Point",
       "coordinates":  [ -122.057139,36.954989 ]
    },
    "properties": {
    "stop_name":"Natural Bridges Dr & Delaware"
    }
  },
  {
    "type": "Feature",
    "geometry": {
       "type": "Point",
       "coordinates":  [ -122.056967,36.955071 ]
    },
    "properties": {
    "stop_name":"Natural Bridges Dr & Delaware"
    }
  },
  {
    "type": "Feature",
    "geometry": {
       "type": "Point",
       "coordinates":  [ -122.032241,36.957859 ]
    },
    "properties": {
    "stop_name":"Delaware & Columbia"
    }
  },
  {
    "type": "Feature",
    "geometry": {
       "type": "Point",
       "coordinates":  [ -122.054373,36.954985 ]
    },
    "properties": {
    "stop_name":"Delaware & Swanton"
    }
  },
  {
    "type": "Feature",
    "geometry": {
       "type": "Point",
       "coordinates":  [ -122.057592,36.958875 ]
    },
    "properties": {
    "stop_name":"Natural Bridges Dr & Mission"
    }
  },
  {
    "type": "Feature",
    "geometry": {
       "type": "Point",
       "coordinates":  [ -122.057434,36.959158 ]
    },
    "properties": {
    "stop_name":"Natural Bridges Dr & Mission"
    }
  },
  {
    "type": "Feature",
    "geometry": {
       "type": "Point",
       "coordinates":  [ -122.056626,36.964212 ]
    },
    "properties": {
    "stop_name":"Western Dr & Flower"
    }
  },
  {
    "type": "Feature",
    "geometry": {
       "type": "Point",
       "coordinates":  [ -122.058416,36.97029 ]
    },
    "properties": {
    "stop_name":"Western Dr & Monarch"
    }
  },
  {
    "type": "Feature",
    "geometry": {
       "type": "Point",
       "coordinates":  [ -122.058346,36.973766 ]
    },
    "properties": {
    "stop_name":"Western Dr & Meder"
    }
  },
  {
    "type": "Feature",
    "geometry": {
       "type": "Point",
       "coordinates":  [ -122.056574,36.96147 ]
    },
    "properties": {
    "stop_name":"Western Dr & Beachview"
    }
  },
  {
    "type": "Feature",
    "geometry": {
       "type": "Point",
       "coordinates":  [ -122.058345,36.96861 ]
    },
    "properties": {
    "stop_name":"Western Dr & Western Ct (#630)"
    }
  },
  {
    "type": "Feature",
    "geometry": {
       "type": "Point",
       "coordinates":  [ -122.058456,36.97479 ]
    },
    "properties": {
    "stop_name":"Western & Meder"
    }
  },
  {
    "type": "Feature",
    "geometry": {
       "type": "Point",
       "coordinates":  [ -122.058511,36.970358 ]
    },
    "properties": {
    "stop_name":"Western & Monarch Way"
    }
  },
  {
    "type": "Feature",
    "geometry": {
       "type": "Point",
       "coordinates":  [ -122.058517,36.968826 ]
    },
    "properties": {
    "stop_name":"Western & Western Ct"
    }
  },
  {
    "type": "Feature",
    "geometry": {
       "type": "Point",
       "coordinates":  [ -122.057161,36.966549 ]
    },
    "properties": {
    "stop_name":"Western & Cypress Park"
    }
  },
  {
    "type": "Feature",
    "geometry": {
       "type": "Point",
       "coordinates":  [ -122.056742,36.964524 ]
    },
    "properties": {
    "stop_name":"Western & Flower St"
    }
  }
]
}