{
"type": "FeatureCollection",
"name": "b2e8291c-f1dc-459c-aec7-c495d91467e7202046-1-6z97uv.4tfmb",
"crs": { "type": "name", "properties": { "name": "urn:ogc:def:crs:OGC:1.3:CRS84" } },
"features": [
{ "type": "Feature", "properties": { "OBJECTID": 6, "ZONING": "IG", "SHAPE_LENG": 0.00928103, "SHAPE.STArea()": 324077.072265625, "SHAPE.STLength()": 2967.4810536297546 }, "geometry": { "type": "Polygon", "coordinates": [ [ [ -122.032767765795597, 36.991353576521043 ], [ -122.032878548499099, 36.991325740296737 ], [ -122.032878588174981, 36.991325838661346 ], [ -122.033168563237126, 36.991252870988227 ], [ -122.033425144531876, 36.991188304615662 ], [ -122.033428421822222, 36.99118747868885 ], [ -122.033435678250171, 36.991185652799302 ], [ -122.033917006652729, 36.991064526391547 ], [ -122.033944482382623, 36.991057622151921 ], [ -122.034009538518703, 36.991041282793127 ], [ -122.033671528288934, 36.990168114108876 ], [ -122.033187975914885, 36.990299794658341 ], [ -122.033155440177467, 36.990220061465536 ], [ -122.033155767133749, 36.990219974763463 ], [ -122.032928446318039, 36.989665165715138 ], [ -122.032664982532864, 36.989646658396445 ], [ -122.031998380069567, 36.989599829832599 ], [ -122.03128035871643, 36.98954938464157 ], [ -122.03128730309497, 36.989563656664586 ], [ -122.031463908200337, 36.989926765721201 ], [ -122.031492558611191, 36.989985671702264 ], [ -122.031393202129237, 36.990024994953032 ], [ -122.031311512345994, 36.990057326258025 ], [ -122.031311668237734, 36.990057582413833 ], [ -122.030712154623131, 36.99029456931445 ], [ -122.030711804764323, 36.990294708499924 ], [ -122.030721787309659, 36.99031204735661 ], [ -122.030749955299626, 36.990356217603598 ], [ -122.030781279581092, 36.990399000479243 ], [ -122.030815651010158, 36.990440249084443 ], [ -122.030852957186895, 36.990479824803202 ], [ -122.030893065282427, 36.990517594781082 ], [ -122.030935845946217, 36.990553428864835 ], [ -122.030981149510808, 36.990587208155219 ], [ -122.031028826363737, 36.990618816499094 ], [ -122.031078713366313, 36.990648146161426 ], [ -122.031181146088343, 36.990684545913957 ], [ -122.031370572751598, 36.990406920287974 ], [ -122.031434036209717, 36.990432019997648 ], [ -122.031560263848974, 36.990241174807053 ], [ -122.0319981155981, 36.990638522967764 ], [ -122.032767765795597, 36.991353576521043 ] ] ] } },
{ "type": "Feature", "properties": { "OBJECTID": 14, "ZONING": "IG", "SHAPE_LENG": 0.05709278, "SHAPE.STArea()": 5326992.046875, "SHAPE.STLength()": 18563.988007282387 }, "geometry": { "type": "MultiPolygon", "coordinates": [ [ [ [ -122.02970893278372, 36.988946067481457 ], [ -122.029840076287741, 36.989275085284874 ], [ -122.030685987042546, 36.988948339246129 ], [ -122.03087311667565, 36.988880412912117 ], [ -122.030871159334509, 36.988876950123803 ], [ -122.030613841096866, 36.988420770951116 ], [ -122.031169129152659, 36.988236914527263 ], [ -122.031276038866778, 36.988224370032512 ], [ -122.031576712646284, 36.988189089615169 ], [ -122.032068491869822, 36.988129851385942 ], [ -122.032333684624248, 36.988500209127942 ], [ -122.032595954022483, 36.988533373444433 ], [ -122.03296885376183, 36.98853964772691 ], [ -122.032968821045912, 36.988539554764564 ], [ -122.032958432952682, 36.988512766832571 ], [ -122.032917907068111, 36.988409095577801 ], [ -122.032990303829919, 36.98841126459142 ], [ -122.033062923274784, 36.988413438874048 ], [ -122.033039247514509, 36.988352352838504 ], [ -122.033039218558329, 36.988352276307758 ], [ -122.033142130269923, 36.988378534946975 ], [ -122.033175917862252, 36.988387155419971 ], [ -122.033310128660361, 36.988421399603403 ], [ -122.033477221881171, 36.988464028704719 ], [ -122.033485834067037, 36.988466228323183 ], [ -122.033648776281709, 36.988496399929467 ], [ -122.0337263978072, 36.98851077264257 ], [ -122.033814195110907, 36.988538509440758 ], [ -122.033973388409819, 36.988588800994542 ], [ -122.034000077499101, 36.98859723439962 ], [ -122.034141698742701, 36.988620912009068 ], [ -122.034334865608344, 36.988653206756027 ], [ -122.034632748831484, 36.98868407143155 ], [ -122.034652006096934, 36.988686067744219 ], [ -122.034665371549181, 36.988687452111137 ], [ -122.034749829649485, 36.988696204832699 ], [ -122.034817738032757, 36.988678127180819 ], [ -122.034865992492811, 36.988665282604188 ], [ -122.035270785763601, 36.988557531867912 ], [ -122.035860700522932, 36.988692055136767 ], [ -122.036139173120361, 36.988755556703858 ], [ -122.036140205210202, 36.988755793074574 ], [ -122.036377711920977, 36.988809950425626 ], [ -122.036648943625124, 36.9888717964213 ], [ -122.037131998961513, 36.989038306921863 ], [ -122.037430311074303, 36.989141134132161 ], [ -122.037430423753449, 36.989140951356077 ], [ -122.037595058558338, 36.98887796952517 ], [ -122.037857645062104, 36.988557875000346 ], [ -122.038081323878799, 36.988355253079597 ], [ -122.038105145297052, 36.988333672994408 ], [ -122.03817807606886, 36.98837192240449 ], [ -122.038272224945132, 36.988421294080531 ], [ -122.0383437091036, 36.98845878785859 ], [ -122.039377836473435, 36.988513338642036 ], [ -122.040740784796668, 36.988585221184074 ], [ -122.040715097373891, 36.987938114847125 ], [ -122.040712382135155, 36.987869718797846 ], [ -122.040709726187856, 36.987802876674643 ], [ -122.04069157514347, 36.98734559801283 ], [ -122.040679234645623, 36.987034783535428 ], [ -122.040662971067405, 36.986625074380171 ], [ -122.040648389067357, 36.986257751413589 ], [ -122.040634367596709, 36.985904553518736 ], [ -122.040621921334221, 36.985591065048808 ], [ -122.040615423201459, 36.985427425772144 ], [ -122.040593466108604, 36.984874225781638 ], [ -122.040593345793823, 36.984874202649152 ], [ -122.040592843038226, 36.984874063706982 ], [ -122.039764459683383, 36.984801566466651 ], [ -122.038055109546889, 36.984513038998848 ], [ -122.038054353435754, 36.984512900639672 ], [ -122.035137173379255, 36.983976359577731 ], [ -122.035160985982898, 36.983885057369051 ], [ -122.035279009927521, 36.983440898695278 ], [ -122.035420094564074, 36.982909955080842 ], [ -122.035419338586223, 36.982909822196795 ], [ -122.034614435727661, 36.982775318783283 ], [ -122.034023508387747, 36.98267665211565 ], [ -122.034168114299192, 36.982129504219913 ], [ -122.034214176476453, 36.981954131221009 ], [ -122.034350076162596, 36.981442663575066 ], [ -122.034424782877707, 36.981161498536871 ], [ -122.034441496218918, 36.981098593232282 ], [ -122.033801870040435, 36.980710432252472 ], [ -122.033753605979683, 36.98069424257136 ], [ -122.032981517013454, 36.980441726932028 ], [ -122.032945247385484, 36.980426065986393 ], [ -122.032651611974657, 36.980298076899388 ], [ -122.032254126654621, 36.98019823297502 ], [ -122.032396216878993, 36.980869339684503 ], [ -122.032462409737889, 36.981176801737313 ], [ -122.032432458162248, 36.981554541067084 ], [ -122.032256837967054, 36.982092480153966 ], [ -122.03199524155508, 36.982611977045678 ], [ -122.031720645487695, 36.983081857728394 ], [ -122.031309125213625, 36.983553535360087 ], [ -122.03108700738467, 36.98374289221298 ], [ -122.031347623534899, 36.984433732406643 ], [ -122.030878436817744, 36.984512682045583 ], [ -122.030868195627505, 36.984514189867383 ], [ -122.030712936184514, 36.984540262166107 ], [ -122.030702701986371, 36.984542113235314 ], [ -122.030503082534594, 36.984575634441136 ], [ -122.030550335894176, 36.984794074116877 ], [ -122.030617847434172, 36.985166413797536 ], [ -122.030629607479028, 36.985239393836324 ], [ -122.030598827604592, 36.985241171138334 ], [ -122.030655779124132, 36.985851250196347 ], [ -122.03066430516175, 36.985933543225563 ], [ -122.0306779906754, 36.985933020288357 ], [ -122.030754180020125, 36.986646883100612 ], [ -122.030827756974261, 36.986644887484609 ], [ -122.030831232543633, 36.986731367034054 ], [ -122.030879443632074, 36.987248511894222 ], [ -122.03033645126429, 36.987319157156882 ], [ -122.030131549538581, 36.987345879856257 ], [ -122.030085104100053, 36.986831115067083 ], [ -122.030082755829085, 36.986799900676182 ], [ -122.029979588856122, 36.986190084179775 ], [ -122.029876423559159, 36.985580267615148 ], [ -122.029829395649458, 36.985120790405766 ], [ -122.029793892139395, 36.984554722409172 ], [ -122.029550856426368, 36.984642031192301 ], [ -122.029149765931265, 36.984786348146919 ], [ -122.028173260808785, 36.985005844240419 ], [ -122.028479750232933, 36.985983751307494 ], [ -122.029016885089533, 36.985953058852566 ], [ -122.02923448655639, 36.985940622648407 ], [ -122.029265172947504, 36.985901465331807 ], [ -122.029521887819044, 36.986102661395933 ], [ -122.029525395523166, 36.98610542266195 ], [ -122.029532022393283, 36.986110697579939 ], [ -122.029536164858996, 36.986114027356706 ], [ -122.029537612719551, 36.98611517852126 ], [ -122.02954225286345, 36.986118902809146 ], [ -122.029547530408593, 36.986123157117611 ], [ -122.029558913244443, 36.986132294891277 ], [ -122.029561016741454, 36.986134030773727 ], [ -122.029567086046754, 36.98613916467216 ], [ -122.029607542325508, 36.986173667243591 ], [ -122.029613546765376, 36.986178810230768 ], [ -122.029613581612224, 36.986178839988916 ], [ -122.029625228872618, 36.986189191134606 ], [ -122.029695330099571, 36.986255591172814 ], [ -122.029766310274994, 36.986329327413998 ], [ -122.029769066519719, 36.986332345742547 ], [ -122.029769126112242, 36.986332413631814 ], [ -122.029804785212264, 36.986373456074588 ], [ -122.029884138613824, 36.986473795357213 ], [ -122.029919579131402, 36.986523427224483 ], [ -122.029921746205645, 36.986526601605767 ], [ -122.02992541468538, 36.986532041657703 ], [ -122.02992550289467, 36.986532169601794 ], [ -122.029926495023389, 36.986533639877571 ], [ -122.029926625709734, 36.986533835935333 ], [ -122.029927657060284, 36.986535382607919 ], [ -122.029961797763349, 36.986588605137129 ], [ -122.029962028439954, 36.986589003148758 ], [ -122.029964253068542, 36.986592649229216 ], [ -122.029995646789146, 36.986646498347184 ], [ -122.030013127376392, 36.986678283371155 ], [ -122.030024693289946, 36.986700092574374 ], [ -122.030025045727939, 36.98670075268452 ], [ -122.030026575832423, 36.986703754128051 ], [ -122.030033734072418, 36.986718127791072 ], [ -122.030040314198729, 36.986731352621078 ], [ -122.030040885636737, 36.986732509781753 ], [ -122.030043560512766, 36.986738086470332 ], [ -122.030044765500804, 36.986740592255011 ], [ -122.030055738520545, 36.986764054583489 ], [ -122.030057631252916, 36.986768215926169 ], [ -122.030057771193157, 36.986768529976068 ], [ -122.030058591367847, 36.986770299163972 ], [ -122.030066704487382, 36.98688040655901 ], [ -122.030069871390367, 36.98692339411393 ], [ -122.030100289043034, 36.98714269210042 ], [ -122.030113242570906, 36.987236101200217 ], [ -122.030132052017365, 36.987371707203856 ], [ -122.030134765931805, 36.987374998016101 ], [ -122.030158685693721, 36.987404006664264 ], [ -122.030151053869332, 36.987456107018886 ], [ -122.030142653704402, 36.987461106565057 ], [ -122.030129030027908, 36.987469212623097 ], [ -122.030152184373222, 36.987565155087069 ], [ -122.030155127189559, 36.987577323398867 ], [ -122.030159450530491, 36.98761186301558 ], [ -122.03018052574761, 36.987780335336197 ], [ -122.030206651274028, 36.987989103333142 ], [ -122.030218044678435, 36.988022594308298 ], [ -122.030227077769396, 36.988049144789393 ], [ -122.030294505624866, 36.988247331298695 ], [ -122.030312327841145, 36.988299713034792 ], [ -122.030378919073058, 36.988416530129989 ], [ -122.030493720016423, 36.988613828589848 ], [ -122.029695732009699, 36.988916970363448 ], [ -122.029694206211715, 36.988917542484508 ], [ -122.02970893278372, 36.988946067481457 ] ], [ [ -122.034724177897928, 36.985173136437538 ], [ -122.034708842665808, 36.985415029214593 ], [ -122.034701787496772, 36.985526324791117 ], [ -122.034631309209516, 36.985912322197549 ], [ -122.034271142162865, 36.985852751208633 ], [ -122.034103011552702, 36.985824945135995 ], [ -122.033993323298475, 36.985827335317275 ], [ -122.033842006955055, 36.985771309294257 ], [ -122.033686581702398, 36.98571376042085 ], [ -122.0335311601672, 36.985656214041754 ], [ -122.033375735447194, 36.985598667500717 ], [ -122.033220314388515, 36.985541120707836 ], [ -122.033063851658412, 36.98548318911115 ], [ -122.032875537773336, 36.985413463461086 ], [ -122.032711485322366, 36.985352719495658 ], [ -122.032702618542856, 36.98534943542559 ], [ -122.032535753874825, 36.985302712285574 ], [ -122.032364680997958, 36.985254799877694 ], [ -122.032362939398752, 36.985218627764809 ], [ -122.03236395666687, 36.985166476802377 ], [ -122.032369137584354, 36.98511449638297 ], [ -122.032378455482629, 36.985062890121881 ], [ -122.032391877015826, 36.985011869961973 ], [ -122.032412314226193, 36.984963194073011 ], [ -122.032428952540883, 36.984913598456643 ], [ -122.032441720414994, 36.984863268092141 ], [ -122.032450577335979, 36.984812398538118 ], [ -122.032455482847766, 36.984761188098993 ], [ -122.032456420231995, 36.984709823779411 ], [ -122.032455681958609, 36.984689256968039 ], [ -122.03244194725427, 36.984534722157811 ], [ -122.032438702016464, 36.984480075389172 ], [ -122.032439762952748, 36.984424531517767 ], [ -122.032445213418598, 36.984369155218737 ], [ -122.032450387346458, 36.984337133361848 ], [ -122.032457030260517, 36.984305284483675 ], [ -122.032613027583622, 36.983716668415319 ], [ -122.03261815379723, 36.983702943817953 ], [ -122.032625988614797, 36.983690070857591 ], [ -122.032636330126522, 36.98367839004672 ], [ -122.032648897020792, 36.983668209979356 ], [ -122.032663359391577, 36.983659806925786 ], [ -122.032679331331565, 36.983653397462014 ], [ -122.032696388383911, 36.983649154721469 ], [ -122.032714077530485, 36.983647194529553 ], [ -122.032731930659736, 36.983647564239646 ], [ -122.032768094559103, 36.983653612755774 ], [ -122.032791345208665, 36.98365555962895 ], [ -122.035116550929772, 36.983972510735477 ], [ -122.03513545484175, 36.983976038841028 ], [ -122.035117502352378, 36.98404649787097 ], [ -122.035118206602448, 36.984046612210058 ], [ -122.034929473984903, 36.984784587652356 ], [ -122.034828927077697, 36.984767776106871 ], [ -122.034724177897928, 36.985173136437538 ] ] ], [ [ [ -122.029694206211715, 36.988917542484508 ], [ -122.029692035209493, 36.988913338087897 ], [ -122.029693812022856, 36.988917690488783 ], [ -122.029694206211715, 36.988917542484508 ] ] ] ] } },
{ "type": "Feature", "properties": { "OBJECTID": 150, "ZONING": "IG", "SHAPE_LENG": 0.00882087, "SHAPE.STArea()": 312342.2529296875, "SHAPE.STLength()": 2758.3236569837663 }, "geometry": { "type": "Polygon", "coordinates": [ [ [ -122.004246814519632, 36.967939115226798 ], [ -122.004381554912811, 36.968007434684608 ], [ -122.004379525406932, 36.968007628420501 ], [ -122.004399839411434, 36.968165022544063 ], [ -122.004422431291502, 36.968443620694813 ], [ -122.004433147505083, 36.968575766303893 ], [ -122.004466560373061, 36.968987791481148 ], [ -122.004984651582816, 36.968970638652472 ], [ -122.005154706753544, 36.968958931777919 ], [ -122.005325612585906, 36.968951751413378 ], [ -122.005530698073585, 36.968943129720039 ], [ -122.006774532853271, 36.968861345484733 ], [ -122.006739637887179, 36.968316553389855 ], [ -122.006826691735242, 36.968313030653789 ], [ -122.006997893460678, 36.968305833007612 ], [ -122.007137805957413, 36.968299954166525 ], [ -122.007126431877751, 36.968163238307149 ], [ -122.007226147183204, 36.968154898535452 ], [ -122.00735566633449, 36.968144066650893 ], [ -122.007506479722181, 36.968131451360257 ], [ -122.007486939541735, 36.967847532091405 ], [ -122.007479540189678, 36.967740021221189 ], [ -122.007436924101924, 36.96774339856043 ], [ -122.007328686919777, 36.967751975019574 ], [ -122.007199129707274, 36.967762241530416 ], [ -122.007093763356579, 36.967770588391097 ], [ -122.006794500853232, 36.967829985033454 ], [ -122.006625356117141, 36.967863555465172 ], [ -122.006392023811159, 36.967910150643199 ], [ -122.006368196620372, 36.967844202481281 ], [ -122.006286984794542, 36.96786162247561 ], [ -122.006263094037095, 36.967795059828156 ], [ -122.005915968855831, 36.967870223822558 ], [ -122.005866934136861, 36.967730049753293 ], [ -122.005845174909638, 36.967669214080452 ], [ -122.004866576525401, 36.967861762407054 ], [ -122.004246814519632, 36.967939115226798 ] ] ] } },
{ "type": "Feature", "properties": { "OBJECTID": 166, "ZONING": "IG", "SHAPE_LENG": 0.01998246, "SHAPE.STArea()": 1662659.859375, "SHAPE.STLength()": 6577.0024006101467 }, "geometry": { "type": "Polygon", "coordinates": [ [ [ -122.062668534511118, 36.960829828995422 ], [ -122.062669325499243, 36.960829843117004 ], [ -122.062646880229138, 36.959296736330145 ], [ -122.065319202296592, 36.95888590858786 ], [ -122.06530561336065, 36.957863188983303 ], [ -122.065301959270585, 36.957588040179772 ], [ -122.065278310418392, 36.955808247613106 ], [ -122.065040928980039, 36.955723304377123 ], [ -122.063296109899071, 36.955098915028515 ], [ -122.063074312355823, 36.955023974412526 ], [ -122.062851084535424, 36.954951826860459 ], [ -122.062626474720702, 36.954882490944598 ], [ -122.06253757347416, 36.954855939250805 ], [ -122.062537499249785, 36.954882969151605 ], [ -122.062537208577055, 36.954985465890431 ], [ -122.062529118441205, 36.95783272652158 ], [ -122.062440111235233, 36.957842047112713 ], [ -122.060770312380981, 36.95801687577849 ], [ -122.06024805248704, 36.958071550289318 ], [ -122.060128169805751, 36.958084100496968 ], [ -122.060128161764041, 36.95808404292093 ], [ -122.060051320086401, 36.958092281465255 ], [ -122.060043977720781, 36.958150750037291 ], [ -122.059999808344827, 36.958331258953386 ], [ -122.060018016183008, 36.958466297203913 ], [ -122.06011099879629, 36.958575956832583 ], [ -122.060460595134273, 36.958845619531395 ], [ -122.060597258314274, 36.958998300316253 ], [ -122.060730771254612, 36.959164070605006 ], [ -122.06081984873363, 36.959250433827471 ], [ -122.06086195449123, 36.959382405252562 ], [ -122.060929326576073, 36.959577215770224 ], [ -122.060962943621803, 36.959794796200953 ], [ -122.060987796097564, 36.95983772624411 ], [ -122.061107409604872, 36.959993381558263 ], [ -122.061261949473618, 36.960182561284043 ], [ -122.06135417427997, 36.960337896357586 ], [ -122.061367118437573, 36.960548886405775 ], [ -122.061487978836894, 36.960599801367039 ], [ -122.061579495793723, 36.960638748383339 ], [ -122.06171565535459, 36.960684651259392 ], [ -122.061851815081894, 36.960730553976617 ], [ -122.061869010557785, 36.960734443920757 ], [ -122.06187758687804, 36.960735359113436 ], [ -122.062279413086131, 36.960800020726552 ], [ -122.062668534511118, 36.960829828995422 ] ] ] } }
]
}
