{
"type": "FeatureCollection",
"name": "00eac679-e377-412a-b2d8-c3486d88608a202046-1-13hb6p2.0bho",
"crs": { "type": "name", "properties": { "name": "urn:ogc:def:crs:OGC:1.3:CRS84" } },
"features": [
{ "type": "Feature", "properties": { "OBJECTID": 2, "ZONING": "PF", "SHAPE_LENG": 0.09168277, "SHAPE.STArea()": 46093095.256835938, "SHAPE.STLength()": 29921.149459197397 }, "geometry": { "type": "Polygon", "coordinates": [ [ [ -122.056101500993051, 37.002966872332436 ], [ -122.061934636355531, 37.002944596437331 ], [ -122.068219395993395, 37.002905837301576 ], [ -122.072714033055206, 37.002877912834727 ], [ -122.072714030868539, 37.002877808483774 ], [ -122.072384974194506, 37.002374419069845 ], [ -122.072225248373485, 37.002188412123864 ], [ -122.072076183112443, 37.002020802586983 ], [ -122.071872193467854, 37.001847065724178 ], [ -122.071632894372698, 37.001704362900256 ], [ -122.071556801200487, 37.001668648737301 ], [ -122.071172260848627, 37.001704386563596 ], [ -122.070907112484065, 37.001553789818963 ], [ -122.070540132029237, 37.001528515025534 ], [ -122.069710858141633, 37.001409246352793 ], [ -122.069710552446125, 37.001409203769157 ], [ -122.069325306286643, 37.000837890810715 ], [ -122.06894394591373, 37.000206437051766 ], [ -122.068537035251893, 36.999335319567102 ], [ -122.068501119510344, 36.99925545704037 ], [ -122.068488655901632, 36.999232619726286 ], [ -122.06841110812897, 36.999045159619229 ], [ -122.068376199126845, 36.998849572436754 ], [ -122.06838235301386, 36.998652403168556 ], [ -122.068500334706442, 36.997988826027793 ], [ -122.068504014011239, 36.997919075226058 ], [ -122.068543995028293, 36.997701879851626 ], [ -122.068630388538892, 36.997493331050819 ], [ -122.06866893970637, 36.997371607916286 ], [ -122.068696727671551, 36.997308400069144 ], [ -122.068760407651567, 36.99707818176848 ], [ -122.068774323034461, 36.996842795564561 ], [ -122.0686551007025, 36.996053992445034 ], [ -122.068633683093537, 36.995766547845271 ], [ -122.068653620736413, 36.995491594727035 ], [ -122.068653665509572, 36.995491443048245 ], [ -122.06883538200475, 36.994848791104765 ], [ -122.068915003341431, 36.994644110063355 ], [ -122.069080402086598, 36.99436548375683 ], [ -122.069304580008961, 36.994113878384361 ], [ -122.069640807699997, 36.993570972270014 ], [ -122.069689121307789, 36.992933739602698 ], [ -122.069649926535277, 36.992533226823667 ], [ -122.069408411455854, 36.991873455244637 ], [ -122.069363473446572, 36.991771396275752 ], [ -122.069214575413312, 36.99152858628208 ], [ -122.06910932800541, 36.991244329595986 ], [ -122.06906721934628, 36.990949952982987 ], [ -122.06906411646861, 36.990719602692693 ], [ -122.068983075456202, 36.989627446552959 ], [ -122.068883346046661, 36.988951689484878 ], [ -122.06888331299912, 36.988951582802194 ], [ -122.068505404649457, 36.987743351319629 ], [ -122.067533397987191, 36.986207194613606 ], [ -122.066628785515448, 36.985191339687965 ], [ -122.065265899327173, 36.984118107827982 ], [ -122.0639509570683, 36.983372122555387 ], [ -122.063950552402105, 36.98337192746137 ], [ -122.06313817014167, 36.98298026130783 ], [ -122.062251569549005, 36.982578395789403 ], [ -122.062251271746035, 36.982578234967299 ], [ -122.062007038479507, 36.982446476455458 ], [ -122.061509657911273, 36.98217765225192 ], [ -122.061508806113665, 36.982177688376737 ], [ -122.060810900137028, 36.981463922583991 ], [ -122.059826163056442, 36.980621797143414 ], [ -122.05996313485106, 36.980622712171439 ], [ -122.059914223295266, 36.980575639910256 ], [ -122.059724375198684, 36.980419205191012 ], [ -122.059478706967397, 36.9802126999123 ], [ -122.059288867825387, 36.980056607747969 ], [ -122.05921857877955, 36.979969305056478 ], [ -122.059107715430756, 36.979824174277049 ], [ -122.059067891827439, 36.979773813087931 ], [ -122.059026844685818, 36.979721905286702 ], [ -122.059010387798693, 36.979699211090825 ], [ -122.058954588242386, 36.979622267950226 ], [ -122.058797026115656, 36.979454069530924 ], [ -122.058712897296488, 36.979359741051645 ], [ -122.058625930241305, 36.979293605580025 ], [ -122.058457536951565, 36.979180831668614 ], [ -122.05837057032852, 36.979114696007422 ], [ -122.058321952875744, 36.97908169674794 ], [ -122.058210813181105, 36.979005583273093 ], [ -122.058090618060618, 36.978905555792338 ], [ -122.057953772336091, 36.978828068695229 ], [ -122.057858149884311, 36.978757241309651 ], [ -122.057797382207156, 36.978716163596232 ], [ -122.057191434713914, 36.978306048398593 ], [ -122.056418910629802, 36.977787592762795 ], [ -122.055998103170779, 36.977554575590148 ], [ -122.055698053765042, 36.977366299237488 ], [ -122.055539740853689, 36.977326521425894 ], [ -122.055304978695887, 36.977314887922127 ], [ -122.055226128133796, 36.977309758968076 ], [ -122.054799288564809, 36.977281114254524 ], [ -122.053962802142408, 36.977227367995589 ], [ -122.053722764389121, 36.977208934503807 ], [ -122.0533112784737, 36.977177676343402 ], [ -122.052628496927525, 36.977106422457162 ], [ -122.052255123159938, 36.977096971298479 ], [ -122.052051996877694, 36.977125082746589 ], [ -122.050968208991989, 36.977198213387069 ], [ -122.050749913692471, 36.977237854978966 ], [ -122.050361070410602, 36.977308261741896 ], [ -122.05006970323474, 36.977373938235559 ], [ -122.048237901204971, 36.977782138995465 ], [ -122.047697639076929, 36.977898152718097 ], [ -122.047734362252626, 36.977996004928528 ], [ -122.048355544981504, 36.979622636802702 ], [ -122.048355950312896, 36.979623697194995 ], [ -122.048322449186202, 36.97963102274278 ], [ -122.047585761344578, 36.979786684193833 ], [ -122.047455451668512, 36.979814216894582 ], [ -122.047447941775744, 36.979815802568169 ], [ -122.047411718527911, 36.979823457878354 ], [ -122.047378587166762, 36.97983045961405 ], [ -122.049104125895141, 36.981592782904052 ], [ -122.049927877690095, 36.98241829067819 ], [ -122.048828519746664, 36.982426089721123 ], [ -122.048912307349127, 36.983068715217208 ], [ -122.048912331853103, 36.983068907170541 ], [ -122.048100125037109, 36.983754107156578 ], [ -122.047784128991012, 36.984020686847387 ], [ -122.047780437111612, 36.984023801307202 ], [ -122.047918858345909, 36.984701996510978 ], [ -122.047946837747304, 36.98483908250271 ], [ -122.048804416445876, 36.989040493221744 ], [ -122.05027252059314, 36.995979874183128 ], [ -122.050415770499299, 36.99665690735349 ], [ -122.050486007872593, 36.996962936212114 ], [ -122.050486037757508, 36.996963056675966 ], [ -122.050553302761699, 36.997256135195371 ], [ -122.050618511518834, 36.997577959249476 ], [ -122.050796964883205, 36.998458650277051 ], [ -122.051132204326322, 37.000113077660174 ], [ -122.056101500993051, 37.002966872332436 ] ] ] } },
{ "type": "Feature", "properties": { "OBJECTID": 8, "ZONING": "PF", "SHAPE_LENG": 0.01168416, "SHAPE.STArea()": 478510.2861328125, "SHAPE.STLength()": 3726.3455169927356 }, "geometry": { "type": "Polygon", "coordinates": [ [ [ -122.033155767133749, 36.990219974763463 ], [ -122.033187975914885, 36.990299794658341 ], [ -122.033671528288934, 36.990168114108876 ], [ -122.033478128577642, 36.989668672996423 ], [ -122.033040768489357, 36.988541009983237 ], [ -122.032968821045912, 36.988539554764564 ], [ -122.03296885376183, 36.98853964772691 ], [ -122.032595954022483, 36.988533373444433 ], [ -122.032333684624248, 36.988500209127942 ], [ -122.032068491869822, 36.988129851385942 ], [ -122.031576712646284, 36.988189089615169 ], [ -122.031276038866778, 36.988224370032512 ], [ -122.031169129152659, 36.988236914527263 ], [ -122.030613841096866, 36.988420770951116 ], [ -122.030871159334509, 36.988876950123803 ], [ -122.030685987042546, 36.988948339246129 ], [ -122.029840076287741, 36.989275085284874 ], [ -122.029855219262117, 36.989312946775186 ], [ -122.029925863344545, 36.989296203350271 ], [ -122.029946277335625, 36.989355372907461 ], [ -122.029973430079124, 36.989412773019154 ], [ -122.030007087260145, 36.989467910950978 ], [ -122.030046961036192, 36.989520313897806 ], [ -122.030118542536727, 36.989593606038071 ], [ -122.030180447680365, 36.989652510124536 ], [ -122.030133313780198, 36.989684782861076 ], [ -122.030266627045364, 36.989790101471499 ], [ -122.030510446638928, 36.989982720241066 ], [ -122.030711804764323, 36.990294708499924 ], [ -122.030712165285109, 36.990294588402378 ], [ -122.030712154623131, 36.99029456931445 ], [ -122.030712140313838, 36.990294539287071 ], [ -122.031311512345994, 36.990057326258025 ], [ -122.031393202129237, 36.990024994953032 ], [ -122.031492558611191, 36.989985671702264 ], [ -122.031463908200337, 36.989926765721201 ], [ -122.03128730309497, 36.989563656664586 ], [ -122.032003925530873, 36.989614004819792 ], [ -122.032670795589283, 36.989660851812509 ], [ -122.0329269519289, 36.989678845348294 ], [ -122.032928446318039, 36.989665165715138 ], [ -122.033155767133749, 36.990219974763463 ] ] ] } },
{ "type": "Feature", "properties": { "OBJECTID": 11, "ZONING": "PF", "SHAPE_LENG": 0.00895463, "SHAPE.STArea()": 370282.0625, "SHAPE.STLength()": 2828.2842749050174 }, "geometry": { "type": "Polygon", "coordinates": [ [ [ -122.034484222698637, 36.981026423998877 ], [ -122.034484162377396, 36.981026487969565 ], [ -122.034529223597687, 36.981052800361439 ], [ -122.034772875164435, 36.981195086026666 ], [ -122.034976919503777, 36.981300137229312 ], [ -122.035192230299955, 36.981408272818918 ], [ -122.035203815738768, 36.981414091946306 ], [ -122.03521539074211, 36.981419902969364 ], [ -122.035530283965727, 36.981578049016463 ], [ -122.03620872407987, 36.981918768180499 ], [ -122.036209085497262, 36.981918359636175 ], [ -122.03671473909462, 36.981346150828486 ], [ -122.036456352330902, 36.981196926994393 ], [ -122.036586194600133, 36.981102428568157 ], [ -122.036914450841081, 36.980980684904992 ], [ -122.037038645695375, 36.980650027291667 ], [ -122.037016051753398, 36.980639145417101 ], [ -122.036991721821408, 36.980627421161635 ], [ -122.036567710397648, 36.980423146979362 ], [ -122.03654508695773, 36.979915822194272 ], [ -122.036236620511886, 36.98000659738112 ], [ -122.036215186657586, 36.980012906231728 ], [ -122.036193381787498, 36.980019321597673 ], [ -122.035504728806032, 36.980221980691084 ], [ -122.035220923641475, 36.980305495499934 ], [ -122.034779036996881, 36.980200053185115 ], [ -122.03437211446068, 36.980102947368948 ], [ -122.033805919754272, 36.980644707766054 ], [ -122.033818986516479, 36.980632046097938 ], [ -122.033805826045949, 36.980644645821222 ], [ -122.0338056648893, 36.980644801762942 ], [ -122.033753605979683, 36.98069424257136 ], [ -122.033801870040435, 36.980710432252472 ], [ -122.034441496218918, 36.981098593232282 ], [ -122.034463737625899, 36.981014178929406 ], [ -122.034484222698637, 36.981026423998877 ] ] ] } },
{ "type": "Feature", "properties": { "OBJECTID": 21, "ZONING": "PF", "SHAPE_LENG": 0.01479566, "SHAPE.STArea()": 1061214.640625, "SHAPE.STLength()": 4964.397282993099 }, "geometry": { "type": "Polygon", "coordinates": [ [ [ -122.026917482106327, 36.988750079143266 ], [ -122.027053285742753, 36.988945386449657 ], [ -122.027728859757815, 36.989867463297877 ], [ -122.027823316732395, 36.990035062856634 ], [ -122.027975802311758, 36.99030562463517 ], [ -122.028427749910804, 36.990871982704093 ], [ -122.028494980235109, 36.990956231587028 ], [ -122.028716050130384, 36.990896235049554 ], [ -122.029486982741091, 36.990606729058243 ], [ -122.029313458659445, 36.990129778272092 ], [ -122.029290538280591, 36.990066778045993 ], [ -122.02907083926894, 36.989687734614584 ], [ -122.02917072087854, 36.989635828733327 ], [ -122.029144086770614, 36.989481909704509 ], [ -122.028844805137311, 36.988686031779899 ], [ -122.028626270452662, 36.988344854581278 ], [ -122.027918790357432, 36.986650007017538 ], [ -122.027727717977157, 36.986350921521463 ], [ -122.027696865765478, 36.986292804393521 ], [ -122.027265067965971, 36.98547940381107 ], [ -122.027265010164172, 36.985479423795667 ], [ -122.027255884074364, 36.985482905401653 ], [ -122.027255844688256, 36.985482820765625 ], [ -122.026717468328314, 36.985650154130155 ], [ -122.026332247285922, 36.985733479986273 ], [ -122.025653666648054, 36.985955579742892 ], [ -122.025580718061789, 36.985988465697865 ], [ -122.025514810998786, 36.986030873415551 ], [ -122.025492930317469, 36.986049357301752 ], [ -122.025459291855228, 36.986078982257332 ], [ -122.025390317230787, 36.986138941045958 ], [ -122.025326714352843, 36.986210503568337 ], [ -122.025278682905466, 36.986290102929317 ], [ -122.025247885677814, 36.986375313932477 ], [ -122.025240101953614, 36.986413527944187 ], [ -122.02524031118476, 36.986423825812516 ], [ -122.025242225018758, 36.986433758038871 ], [ -122.025245843456204, 36.986443324623082 ], [ -122.025212473828972, 36.986570458375553 ], [ -122.026266753577602, 36.987817119529268 ], [ -122.026319616366095, 36.987890935581227 ], [ -122.026917482106327, 36.988750079143266 ] ] ] } },
{ "type": "Feature", "properties": { "OBJECTID": 28, "ZONING": "PF", "SHAPE_LENG": 0.00382579, "SHAPE.STArea()": 63840.26171875, "SHAPE.STLength()": 1234.140921855924 }, "geometry": { "type": "Polygon", "coordinates": [ [ [ -122.026820065291915, 36.976889864628021 ], [ -122.026690639648095, 36.976754560842245 ], [ -122.026690405300712, 36.976754316695327 ], [ -122.02669014830164, 36.976754473881677 ], [ -122.026407238674707, 36.976457833198893 ], [ -122.026279765113486, 36.976324170756776 ], [ -122.025948502974032, 36.976529787180738 ], [ -122.025886607674067, 36.976568203758248 ], [ -122.025915778988619, 36.976594754746166 ], [ -122.026052165375205, 36.976718882101615 ], [ -122.025971906556535, 36.976777892976912 ], [ -122.025749725691568, 36.976941239037608 ], [ -122.025509655546685, 36.97711773697111 ], [ -122.025763576116347, 36.977375130589827 ], [ -122.026273096372165, 36.977058292490192 ], [ -122.026383448723578, 36.976989669228743 ], [ -122.026383595604401, 36.976989821128825 ], [ -122.026383869495163, 36.976989652734858 ], [ -122.02647407318932, 36.977132337259505 ], [ -122.026820065291915, 36.976889864628021 ] ] ] } },
{ "type": "Feature", "properties": { "OBJECTID": 29, "ZONING": "PF", "SHAPE_LENG": 0.00407418, "SHAPE.STArea()": 79067.974609375, "SHAPE.STLength()": 1287.4816693932169 }, "geometry": { "type": "Polygon", "coordinates": [ [ [ -122.027413117452355, 36.977563040863572 ], [ -122.027410580085615, 36.977622592345575 ], [ -122.027414126257128, 36.977677416528103 ], [ -122.027415148416608, 36.977677510268528 ], [ -122.027726917149863, 36.97770625436641 ], [ -122.02781050188733, 36.977713960350627 ], [ -122.027861510989197, 36.977718664963213 ], [ -122.02804054185701, 36.977735171090664 ], [ -122.028335445315591, 36.977762362815639 ], [ -122.028709536372759, 36.977796847061903 ], [ -122.028718366914219, 36.977735183148326 ], [ -122.028794921612544, 36.977197735227989 ], [ -122.028328139230481, 36.977211057611697 ], [ -122.028328140683897, 36.977211129010207 ], [ -122.02809575034955, 36.977217849178928 ], [ -122.028010017974552, 36.977220329310171 ], [ -122.027764057382754, 36.977227440850903 ], [ -122.027774940513396, 36.977080027145384 ], [ -122.027738186482566, 36.977079291730867 ], [ -122.027443469939712, 36.977073427947261 ], [ -122.027443199376734, 36.977073423250104 ], [ -122.027442407358933, 36.977112575910056 ], [ -122.027440831663213, 36.977190449869099 ], [ -122.02744046449385, 36.977208751293688 ], [ -122.027471713108994, 36.977213849447303 ], [ -122.027446617934132, 36.977304559700279 ], [ -122.02744647070061, 36.977304558881634 ], [ -122.027424136493735, 36.977304304749694 ], [ -122.027413117452355, 36.977563040863572 ] ] ] } },
{ "type": "Feature", "properties": { "OBJECTID": 33, "ZONING": "PF", "SHAPE_LENG": 0.0076567, "SHAPE.STArea()": 342136.7509765625, "SHAPE.STLength()": 2420.319786960074 }, "geometry": { "type": "Polygon", "coordinates": [ [ [ -122.050334574534745, 36.976025153796186 ], [ -122.049929913447102, 36.974831537368971 ], [ -122.049834784421435, 36.974852655665018 ], [ -122.049834769937405, 36.974852617401787 ], [ -122.049575250785907, 36.974909994373327 ], [ -122.049327741029629, 36.974964714354364 ], [ -122.04908023433525, 36.975019433764963 ], [ -122.048832727280114, 36.975074152650507 ], [ -122.048585219864236, 36.975128871011123 ], [ -122.048337708665045, 36.975183588892108 ], [ -122.048090200527682, 36.975238306202677 ], [ -122.047769766853236, 36.97530914507248 ], [ -122.047751622420989, 36.975313154519142 ], [ -122.047421611530694, 36.975386110974519 ], [ -122.047476966036186, 36.975548664985247 ], [ -122.04755455731663, 36.975776510142239 ], [ -122.047632142222696, 36.976004355341864 ], [ -122.047709730965593, 36.976232197701719 ], [ -122.047787320236068, 36.976460042759456 ], [ -122.047827862350786, 36.976579091027766 ], [ -122.04786086296069, 36.976571796970028 ], [ -122.049758305680129, 36.976152319098489 ], [ -122.050242763709477, 36.976045214717544 ], [ -122.050334574534745, 36.976025153796186 ] ] ] } },
{ "type": "Feature", "properties": { "OBJECTID": 36, "ZONING": "PF", "SHAPE_LENG": 0.00317115, "SHAPE.STArea()": 55193.142578125, "SHAPE.STLength()": 1054.1277443274691 }, "geometry": { "type": "Polygon", "coordinates": [ [ [ -122.056169226131615, 36.973816036882269 ], [ -122.056216026462025, 36.974069951146468 ], [ -122.056046127190839, 36.974091410211457 ], [ -122.056105255101485, 36.974209199681574 ], [ -122.05639691900123, 36.974790206380625 ], [ -122.056403753813768, 36.974803816413797 ], [ -122.056559162052537, 36.974789095968532 ], [ -122.056533213500245, 36.974739815103796 ], [ -122.056942869032511, 36.974615191950583 ], [ -122.056521994378159, 36.973765495603871 ], [ -122.056169226131615, 36.973816036882269 ] ] ] } },
{ "type": "Feature", "properties": { "OBJECTID": 39, "ZONING": "PF", "SHAPE_LENG": 0.00684965, "SHAPE.STArea()": 265610.6162109375, "SHAPE.STLength()": 2182.4997693044656 }, "geometry": { "type": "Polygon", "coordinates": [ [ [ -122.034773211011029, 36.97471505760587 ], [ -122.034818827497901, 36.974757827020731 ], [ -122.03488871413667, 36.974818378631731 ], [ -122.03503330564422, 36.975167427223475 ], [ -122.035254180633402, 36.975107028817881 ], [ -122.035895477801077, 36.974931668768846 ], [ -122.035968754821525, 36.974910890878917 ], [ -122.036040198578647, 36.974886351953714 ], [ -122.036109513261991, 36.974858152031643 ], [ -122.036176410300925, 36.974826410284173 ], [ -122.036240601407712, 36.974791259613731 ], [ -122.036301822591355, 36.974752849084098 ], [ -122.036359816989119, 36.974711341399946 ], [ -122.036414341542852, 36.974666904577639 ], [ -122.036465163969893, 36.974619731213636 ], [ -122.036853685011067, 36.974230613495777 ], [ -122.036698375461512, 36.974165958638288 ], [ -122.03668925968104, 36.97416216176525 ], [ -122.036537341178672, 36.974098917837892 ], [ -122.036385419397249, 36.974035668265834 ], [ -122.036233501406713, 36.973972423943245 ], [ -122.036081583615925, 36.973909176677004 ], [ -122.035929666193354, 36.973845934705302 ], [ -122.035899284018726, 36.973833281875471 ], [ -122.035777748858223, 36.973782684297731 ], [ -122.035747363368387, 36.973770034219555 ], [ -122.035635095970392, 36.97372329461701 ], [ -122.035625831835247, 36.97371943643865 ], [ -122.035444379100738, 36.973643892370383 ], [ -122.035292462695438, 36.973580646823784 ], [ -122.035366930933279, 36.973465497247474 ], [ -122.035371291489852, 36.973458754057347 ], [ -122.035370752853879, 36.973458530414504 ], [ -122.034991500251337, 36.973300635487647 ], [ -122.034912670950249, 36.973422525250044 ], [ -122.034893323634549, 36.973452440144499 ], [ -122.034795150043351, 36.973604244675187 ], [ -122.034524331732257, 36.974045276628445 ], [ -122.034397898612241, 36.974251172379532 ], [ -122.034253510239736, 36.974486307965691 ], [ -122.034262731868282, 36.974489927838519 ], [ -122.0343152729602, 36.974510546559024 ], [ -122.034727723682678, 36.9746724073349 ], [ -122.034773211011029, 36.97471505760587 ] ] ] } },
{ "type": "Feature", "properties": { "OBJECTID": 43, "ZONING": "PF", "SHAPE_LENG": 0.00169864, "SHAPE.STArea()": 18755.1552734375, "SHAPE.STLength()": 547.98850724843419 }, "geometry": { "type": "Polygon", "coordinates": [ [ [ -122.023182641558392, 36.965339302948635 ], [ -122.023261642291828, 36.965503440271348 ], [ -122.023346925964717, 36.965680628035443 ], [ -122.023347033199258, 36.96568085187414 ], [ -122.023796103851922, 36.965543824046478 ], [ -122.023795314060422, 36.965543364659666 ], [ -122.023794371853029, 36.965542816619276 ], [ -122.023792469227558, 36.965537449466105 ], [ -122.023790740675906, 36.965532563479222 ], [ -122.02378001432875, 36.96551004234405 ], [ -122.023703198085457, 36.965351386942508 ], [ -122.023691119901926, 36.96532651570152 ], [ -122.023630093153272, 36.965200846565359 ], [ -122.023629964549656, 36.965200581803757 ], [ -122.023182641558392, 36.965339302948635 ] ] ] } },
{ "type": "Feature", "properties": { "OBJECTID": 46, "ZONING": "PF", "SHAPE_LENG": 0.00323787, "SHAPE.STArea()": 68012.9775390625, "SHAPE.STLength()": 1046.2316333730676 }, "geometry": { "type": "Polygon", "coordinates": [ [ [ -122.025072336455182, 36.97070785777445 ], [ -122.02503875369888, 36.970573202582401 ], [ -122.024730300168812, 36.970596114599893 ], [ -122.024158293906737, 36.970638602557862 ], [ -122.024183825243242, 36.970773854890915 ], [ -122.024207047900006, 36.970896894796745 ], [ -122.024251483383679, 36.971132323961108 ], [ -122.024253616228492, 36.971143626737032 ], [ -122.024292919542361, 36.97135186622765 ], [ -122.024297453541379, 36.971375882886463 ], [ -122.02459691588453, 36.971326775012955 ], [ -122.02484830792973, 36.971285642640034 ], [ -122.025182417528896, 36.971230973896091 ], [ -122.025214257444532, 36.971225539051439 ], [ -122.025186093438194, 36.971127625973843 ], [ -122.025160272299487, 36.971037862297173 ], [ -122.025157520941931, 36.971028306365021 ], [ -122.025117971454847, 36.970890809343707 ], [ -122.025072336455182, 36.97070785777445 ] ] ] } },
{ "type": "Feature", "properties": { "OBJECTID": 52, "ZONING": "PF", "SHAPE_LENG": 0.00892858, "SHAPE.STArea()": 285133.236328125, "SHAPE.STLength()": 2826.1791691481203 }, "geometry": { "type": "Polygon", "coordinates": [ [ [ -122.028505594797593, 36.973412622205451 ], [ -122.028770481450678, 36.974063925307014 ], [ -122.028801076193673, 36.974137345253851 ], [ -122.028712431277782, 36.974155331509792 ], [ -122.028207836869683, 36.974257739934643 ], [ -122.028230542807322, 36.974332309934134 ], [ -122.0283155890301, 36.974604062584582 ], [ -122.02797802978904, 36.974672549693175 ], [ -122.028058308309284, 36.974945232989128 ], [ -122.028057503475125, 36.974945386368809 ], [ -122.028077690257916, 36.975012075798212 ], [ -122.028977790700537, 36.974829632714041 ], [ -122.029057851830558, 36.974810385387393 ], [ -122.029654684617185, 36.974698179772275 ], [ -122.030877108032783, 36.974457244226464 ], [ -122.030887407371353, 36.974374704186388 ], [ -122.030887374384221, 36.974374597493068 ], [ -122.030887677819905, 36.974374535826783 ], [ -122.030888152778601, 36.974306490653845 ], [ -122.030888153121609, 36.974306339573786 ], [ -122.030887739843919, 36.97427666826492 ], [ -122.030882974113339, 36.974168025088346 ], [ -122.030873115356314, 36.974059605332663 ], [ -122.03086176474433, 36.973974393883637 ], [ -122.030847267393995, 36.973889490179971 ], [ -122.030829631728579, 36.973804971021337 ], [ -122.030829570241352, 36.973804809765547 ], [ -122.030809213371384, 36.973729882537704 ], [ -122.029644901578152, 36.973965935126756 ], [ -122.029622438814357, 36.973891266059191 ], [ -122.029516611751149, 36.973543059718345 ], [ -122.0294641756294, 36.973370526937991 ], [ -122.029422024882038, 36.97323182652913 ], [ -122.029367516445035, 36.973242580975302 ], [ -122.029201317882965, 36.973275376386511 ], [ -122.029068357515001, 36.973301610366079 ], [ -122.028935397054141, 36.973327844194138 ], [ -122.028735959667131, 36.973367197353369 ], [ -122.028594368850989, 36.973395134326736 ], [ -122.028594245874714, 36.973394979369409 ], [ -122.028505594797593, 36.973412622205451 ] ] ] } },
{ "type": "Feature", "properties": { "OBJECTID": 61, "ZONING": "PF", "SHAPE_LENG": 0.01379129, "SHAPE.STArea()": 759805.73046875, "SHAPE.STLength()": 4529.1551154574554 }, "geometry": { "type": "Polygon", "coordinates": [ [ [ -122.022968659378037, 36.979488734086139 ], [ -122.023043317631448, 36.979668305328559 ], [ -122.023094641220268, 36.97979174496303 ], [ -122.023080491965857, 36.979926136879044 ], [ -122.02317876953397, 36.980167878921108 ], [ -122.023260042450843, 36.980367805545157 ], [ -122.023214242517525, 36.980380970391558 ], [ -122.023383777867096, 36.980810373267374 ], [ -122.024840647660568, 36.980435260011824 ], [ -122.024734146067459, 36.980231725280994 ], [ -122.024232652804201, 36.979085247385655 ], [ -122.024219967488307, 36.979070050160487 ], [ -122.024204183259741, 36.979056854664101 ], [ -122.024195274990191, 36.979051134070851 ], [ -122.024185780607255, 36.979046055652859 ], [ -122.024168105420102, 36.979038878436597 ], [ -122.023803676998938, 36.978997034674286 ], [ -122.023626534401174, 36.979016478019126 ], [ -122.023663032738469, 36.978724362511272 ], [ -122.023664143233759, 36.978715481251186 ], [ -122.023665676862223, 36.978696071374408 ], [ -122.023665892312209, 36.978693360189766 ], [ -122.02367379481197, 36.978593519716107 ], [ -122.023684932341624, 36.97853667973947 ], [ -122.023635443242043, 36.978495036103929 ], [ -122.023423107062754, 36.978276116142304 ], [ -122.023339557728036, 36.978156264653776 ], [ -122.02329050731521, 36.978081211005474 ], [ -122.023173086491056, 36.977901547409978 ], [ -122.02302381994248, 36.977640062352052 ], [ -122.022890180082342, 36.977373181586373 ], [ -122.022775806856217, 36.977100604934243 ], [ -122.022736291139012, 36.97699881260219 ], [ -122.022682740511414, 36.977012913487648 ], [ -122.022048447139952, 36.977179912357599 ], [ -122.022036432023469, 36.977150788000451 ], [ -122.021694614230498, 36.977241748346614 ], [ -122.021044535410113, 36.977414740704589 ], [ -122.021016206793774, 36.977422279348168 ], [ -122.020661960599028, 36.977516543827029 ], [ -122.020661899408765, 36.977516396296316 ], [ -122.020496508383999, 36.977560293248679 ], [ -122.021133604185309, 36.979095701414877 ], [ -122.021298725143481, 36.979052350987843 ], [ -122.021410838117859, 36.979022769402462 ], [ -122.021566664333264, 36.97898166312752 ], [ -122.021735209968398, 36.978937201632384 ], [ -122.021853635540182, 36.979241007292607 ], [ -122.021904380341098, 36.97937062983241 ], [ -122.022818746212948, 36.979128648866599 ], [ -122.022863766564356, 36.979238277440651 ], [ -122.022863809810659, 36.979238384002215 ], [ -122.022864497656883, 36.979238199224604 ], [ -122.022968659378037, 36.979488734086139 ] ] ] } },
{ "type": "Feature", "properties": { "OBJECTID": 64, "ZONING": "PF", "SHAPE_LENG": 0.00248168, "SHAPE.STArea()": 36340.1298828125, "SHAPE.STLength()": 811.01720119718823 }, "geometry": { "type": "Polygon", "coordinates": [ [ [ -122.018782747596362, 36.982524533808586 ], [ -122.018790538180241, 36.982526118918614 ], [ -122.018762306694029, 36.982577659845212 ], [ -122.018730707725538, 36.982627928881833 ], [ -122.0187141297925, 36.982646402870209 ], [ -122.018696369724793, 36.982664156098721 ], [ -122.018695879246138, 36.982664621204371 ], [ -122.018695385288908, 36.982665083608524 ], [ -122.018692915502697, 36.982667395629122 ], [ -122.01869240470829, 36.982667871986585 ], [ -122.01869189043525, 36.982668345642487 ], [ -122.018690586259709, 36.982669546503999 ], [ -122.018690082033501, 36.982670009041776 ], [ -122.018689577751672, 36.982670468833504 ], [ -122.018689416392647, 36.982670616516046 ], [ -122.018688942417711, 36.982671051191758 ], [ -122.018688464908692, 36.98267148041981 ], [ -122.018683504442791, 36.982675917948647 ], [ -122.01868299303716, 36.982676364098928 ], [ -122.01868248174263, 36.982676815741449 ], [ -122.018682306747138, 36.982676966348357 ], [ -122.018681808811223, 36.982677401336005 ], [ -122.018681310875323, 36.98267783632361 ], [ -122.018681105628531, 36.982678014792654 ], [ -122.018680637943973, 36.982678421918187 ], [ -122.018680170203808, 36.982678826297587 ], [ -122.018678130871606, 36.982680583348611 ], [ -122.01867714471318, 36.982681425729091 ], [ -122.018670862134584, 36.982686685290545 ], [ -122.018666375377194, 36.982690336552992 ], [ -122.018665853146899, 36.982690755375948 ], [ -122.018665330916562, 36.982691174198834 ], [ -122.01866512202443, 36.982691341728 ], [ -122.018664670454726, 36.982691699200842 ], [ -122.018664229098377, 36.982692053793848 ], [ -122.018660063503248, 36.982695332800176 ], [ -122.018659544362549, 36.982695735101892 ], [ -122.018659025221851, 36.982696137403622 ], [ -122.018624269002885, 36.982720833382977 ], [ -122.018391871806259, 36.982754150800396 ], [ -122.018375904468456, 36.982756435251595 ], [ -122.018402209710004, 36.982805332390939 ], [ -122.018439479337559, 36.982952631848327 ], [ -122.018439610432026, 36.98295284988766 ], [ -122.01855923011091, 36.983152357412834 ], [ -122.018597818242668, 36.983217048157918 ], [ -122.018807642097457, 36.98309551610685 ], [ -122.019061359990772, 36.982943540327959 ], [ -122.01911877995714, 36.982904680340035 ], [ -122.019141782365494, 36.982856998044674 ], [ -122.019160854676386, 36.982784302158954 ], [ -122.019178959867105, 36.982494619752153 ], [ -122.019086565577823, 36.982503544400863 ], [ -122.019005850284088, 36.982511292318954 ], [ -122.018794765962227, 36.982491220406359 ], [ -122.018782747596362, 36.982524533808586 ] ] ] } },
{ "type": "Feature", "properties": { "OBJECTID": 65, "ZONING": "PF", "SHAPE_LENG": 0.00603716, "SHAPE.STArea()": 189275.6796875, "SHAPE.STLength()": 1874.7328612973561 }, "geometry": { "type": "Polygon", "coordinates": [ [ [ -122.013636006816611, 36.98055745487784 ], [ -122.013414082151087, 36.980543282320482 ], [ -122.012027866641645, 36.980454752418886 ], [ -122.012118011670879, 36.981340394833573 ], [ -122.013425992147589, 36.981354709071887 ], [ -122.013532570079079, 36.981352216450652 ], [ -122.013638983868134, 36.981346847193208 ], [ -122.013745110332565, 36.98133860564532 ], [ -122.013850829823909, 36.981327501600951 ], [ -122.013956026227575, 36.981313550302325 ], [ -122.0139560218078, 36.98131350091694 ], [ -122.01411152133555, 36.981301434613918 ], [ -122.014340670869942, 36.980779997220587 ], [ -122.014415935456952, 36.980607343683168 ], [ -122.014301496606336, 36.980599943498163 ], [ -122.013636006816611, 36.98055745487784 ] ] ] } },
{ "type": "Feature", "properties": { "OBJECTID": 66, "ZONING": "PF", "SHAPE_LENG": 0.00129666, "SHAPE.STArea()": 10402.05078125, "SHAPE.STLength()": 431.99942526888799 }, "geometry": { "type": "Polygon", "coordinates": [ [ [ -122.01206729014676, 36.979163763177844 ], [ -122.012273425717524, 36.979516957755081 ], [ -122.012485316134814, 36.979405570798264 ], [ -122.01227917987309, 36.979052376597977 ], [ -122.01206729014676, 36.979163763177844 ] ] ] } },
{ "type": "Feature", "properties": { "OBJECTID": 70, "ZONING": "PF", "SHAPE_LENG": 0.00123231, "SHAPE.STArea()": 7963.40625, "SHAPE.STLength()": 384.1799013709512 }, "geometry": { "type": "Polygon", "coordinates": [ [ [ -122.025198998575917, 36.974336872661908 ], [ -122.025270634098419, 36.974490491485639 ], [ -122.025566055349501, 36.974436017376028 ], [ -122.025696761591902, 36.974411915491523 ], [ -122.025680402531648, 36.9743463045561 ], [ -122.025648311120136, 36.974247605140654 ], [ -122.025198998575917, 36.974336872661908 ] ] ] } },
{ "type": "Feature", "properties": { "OBJECTID": 71, "ZONING": "PF", "SHAPE_LENG": 0.0137404, "SHAPE.STArea()": 974990.7177734375, "SHAPE.STLength()": 4476.8318624669355 }, "geometry": { "type": "Polygon", "coordinates": [ [ [ -122.03264013565844, 36.971769665428219 ], [ -122.033962666270924, 36.972073934355656 ], [ -122.034019402189315, 36.972086988177331 ], [ -122.034019462672191, 36.972086764888587 ], [ -122.034041602575812, 36.97200419239757 ], [ -122.03404116281375, 36.972004115777032 ], [ -122.034294491549431, 36.970984516867965 ], [ -122.033456135329061, 36.970849164607245 ], [ -122.03348938762386, 36.97071445963244 ], [ -122.033756428811444, 36.969632636341991 ], [ -122.033830101695685, 36.969334174856876 ], [ -122.033884937180645, 36.96911203176488 ], [ -122.033885113966761, 36.969111301530035 ], [ -122.033990414461968, 36.968684707394303 ], [ -122.033990957099178, 36.968684793648862 ], [ -122.033990972864416, 36.968684727517598 ], [ -122.034005735278186, 36.968569509880481 ], [ -122.033751977995394, 36.968464347736962 ], [ -122.03375025981876, 36.9684640269802 ], [ -122.032352008383455, 36.968387298918202 ], [ -122.030821821543384, 36.968555380269279 ], [ -122.030851900926123, 36.968637450678528 ], [ -122.030852319970393, 36.968637351785745 ], [ -122.030938405204324, 36.968872270347667 ], [ -122.030986682547891, 36.969004017182129 ], [ -122.031034960004888, 36.969135761251664 ], [ -122.031083237687255, 36.969267508048439 ], [ -122.03077127858937, 36.969341122667551 ], [ -122.030670585282721, 36.969364932589755 ], [ -122.031287946899965, 36.97101694211797 ], [ -122.031535227150457, 36.970972149282076 ], [ -122.031562348228533, 36.97104319966332 ], [ -122.031561912227659, 36.971043307021716 ], [ -122.031634642250182, 36.971256637437754 ], [ -122.031716030474854, 36.97149480629146 ], [ -122.031740793945701, 36.971567571407952 ], [ -122.031982935029816, 36.97152250178479 ], [ -122.03264013565844, 36.971769665428219 ] ] ] } },
{ "type": "Feature", "properties": { "OBJECTID": 77, "ZONING": "PF", "SHAPE_LENG": 0.00828385, "SHAPE.STArea()": 170879.1318359375, "SHAPE.STLength()": 2840.2696174832517 }, "geometry": { "type": "Polygon", "coordinates": [ [ [ -122.026996604004779, 36.967305937369041 ], [ -122.027227393950767, 36.968738801730957 ], [ -122.02722781292438, 36.968741391994392 ], [ -122.027228091155223, 36.96874312159774 ], [ -122.02726048934413, 36.968944264876981 ], [ -122.027365718341159, 36.969010628980811 ], [ -122.027571044978714, 36.969804120902928 ], [ -122.028035747961411, 36.969756146771893 ], [ -122.027788589623157, 36.968964604507882 ], [ -122.027588772841838, 36.968986449793725 ], [ -122.027560845168864, 36.968823198181283 ], [ -122.027533576732736, 36.968659869260051 ], [ -122.027506311837556, 36.968496540289443 ], [ -122.027702100662182, 36.96847532198057 ], [ -122.027693687381102, 36.968428431256399 ], [ -122.027691370660648, 36.968415515814854 ], [ -122.027672837429023, 36.968312216996154 ], [ -122.02766412680819, 36.96826366558944 ], [ -122.027646010862739, 36.968162701597791 ], [ -122.027642837191337, 36.968145017904519 ], [ -122.027673414569506, 36.968141705723781 ], [ -122.027662952209738, 36.968022364098928 ], [ -122.027610377862501, 36.968028062993127 ], [ -122.027548672244194, 36.967758061725277 ], [ -122.02751363177795, 36.967604742418295 ], [ -122.027487677231079, 36.967491166028033 ], [ -122.027881690134706, 36.967428870584214 ], [ -122.027711294440252, 36.966736389515368 ], [ -122.027318595220393, 36.96677895050955 ], [ -122.027021564261688, 36.966811140805291 ], [ -122.02702156016926, 36.966811107896987 ], [ -122.02702077455757, 36.966811192348167 ], [ -122.026918309220491, 36.966822491242837 ], [ -122.026996604004779, 36.967305937369041 ] ] ] } },
{ "type": "Feature", "properties": { "OBJECTID": 83, "ZONING": "PF", "SHAPE_LENG": 0.01152178, "SHAPE.STArea()": 439196.6767578125, "SHAPE.STLength()": 3591.0574697411034 }, "geometry": { "type": "Polygon", "coordinates": [ [ [ -122.033030147942895, 36.962703096907049 ], [ -122.033128404705366, 36.962821292127913 ], [ -122.033344134710006, 36.962909100977129 ], [ -122.033367317462279, 36.962954805502626 ], [ -122.033423339465784, 36.963016215812317 ], [ -122.033480771178802, 36.963062843360554 ], [ -122.033796585885568, 36.962687868164814 ], [ -122.033077940418409, 36.962208863745587 ], [ -122.031737483035997, 36.961336713171079 ], [ -122.031354392301395, 36.961182428742127 ], [ -122.030698170168662, 36.96097850896561 ], [ -122.029678860020681, 36.960845616266319 ], [ -122.02944361692721, 36.960891621092529 ], [ -122.029310879443145, 36.96092872737249 ], [ -122.029266973785994, 36.960957801490146 ], [ -122.029172472162628, 36.961023591178005 ], [ -122.029113775524408, 36.961082730921589 ], [ -122.029105054255311, 36.961158726326509 ], [ -122.029140728143801, 36.961229675980597 ], [ -122.029158935580512, 36.961283343661947 ], [ -122.02915124731598, 36.961326020270782 ], [ -122.029037100718654, 36.96143567330185 ], [ -122.02900060481555, 36.961492461758972 ], [ -122.028979983199861, 36.961572390076547 ], [ -122.029084419130072, 36.961658232376081 ], [ -122.029200893721693, 36.961662885370536 ], [ -122.029289118321529, 36.96162498959287 ], [ -122.029416738000378, 36.961588637181791 ], [ -122.029492406956649, 36.961606529135487 ], [ -122.029517514714044, 36.961662853085464 ], [ -122.029506698236119, 36.961719991585291 ], [ -122.029519598220659, 36.961765145002168 ], [ -122.029666160138788, 36.961818502395836 ], [ -122.029877358580578, 36.961936248732755 ], [ -122.03017911584169, 36.962046626053393 ], [ -122.030355311783566, 36.962126375283589 ], [ -122.030612206064774, 36.962218799182558 ], [ -122.030760081819835, 36.96225256684405 ], [ -122.030896536889784, 36.962229830964453 ], [ -122.030951604571825, 36.962244558908502 ], [ -122.031069374961163, 36.962312713394695 ], [ -122.031194318642633, 36.962396911179198 ], [ -122.031345750067629, 36.96243715513058 ], [ -122.031438089596307, 36.962433195662463 ], [ -122.031524539936925, 36.962392231309991 ], [ -122.031584862712521, 36.962328948738609 ], [ -122.031660962685848, 36.962283999985253 ], [ -122.031749970984649, 36.962284547615539 ], [ -122.031844560507508, 36.962306996473977 ], [ -122.031905580813088, 36.962361818114616 ], [ -122.031946194924927, 36.962423088166339 ], [ -122.032022628667491, 36.962478393965121 ], [ -122.03210883845648, 36.962509536538583 ], [ -122.032221479256322, 36.962493979058927 ], [ -122.032275895991035, 36.962476783075019 ], [ -122.032348167375858, 36.962411969682158 ], [ -122.032403811712257, 36.96237106612417 ], [ -122.032466004107746, 36.962399433866217 ], [ -122.032518820070607, 36.962471530679899 ], [ -122.032612336561499, 36.962525238181101 ], [ -122.032797301570156, 36.962615169123886 ], [ -122.032810912751927, 36.962611213324379 ], [ -122.033030147942895, 36.962703096907049 ] ] ] } },
{ "type": "Feature", "properties": { "OBJECTID": 87, "ZONING": "PF", "SHAPE_LENG": 0.00098252, "SHAPE.STArea()": 5405.998046875, "SHAPE.STLength()": 308.91478304217981 }, "geometry": { "type": "Polygon", "coordinates": [ [ [ -122.038127877477322, 36.957936404626331 ], [ -122.038150971739, 36.958072471797941 ], [ -122.038152560104365, 36.958081839506463 ], [ -122.038153922465455, 36.958086188993185 ], [ -122.038493405409511, 36.958033297457085 ], [ -122.038467864991091, 36.957891634367542 ], [ -122.038127877477322, 36.957936404626331 ] ] ] } },
{ "type": "Feature", "properties": { "OBJECTID": 88, "ZONING": "PF", "SHAPE_LENG": 0.00822649, "SHAPE.STArea()": 358862.3427734375, "SHAPE.STLength()": 2685.4946525740202 }, "geometry": { "type": "Polygon", "coordinates": [ [ [ -122.039932754139642, 36.966233849940728 ], [ -122.040230383483433, 36.966432275683466 ], [ -122.040240779188494, 36.966422241547811 ], [ -122.040281030175279, 36.966443006105152 ], [ -122.04032108049104, 36.96642328225694 ], [ -122.041202913759676, 36.965421261191985 ], [ -122.040807559285071, 36.965154425621698 ], [ -122.040952461476536, 36.964986061232715 ], [ -122.040945851068301, 36.964981704208988 ], [ -122.041152618252823, 36.964741464282007 ], [ -122.041335138114576, 36.964529389094466 ], [ -122.041471288559336, 36.964371195861823 ], [ -122.041471195090466, 36.96437114490756 ], [ -122.041471248548163, 36.964371081023806 ], [ -122.041529761855003, 36.964303353527455 ], [ -122.040530996717564, 36.963756885134167 ], [ -122.040472468851945, 36.963823925605141 ], [ -122.040472224614788, 36.963824200767839 ], [ -122.04047204452408, 36.96382409876724 ], [ -122.040290050556408, 36.964031474050607 ], [ -122.040185529822068, 36.964150570002566 ], [ -122.040086925877503, 36.964262923904627 ], [ -122.0400020959801, 36.964359584467701 ], [ -122.039988321637836, 36.964375277724116 ], [ -122.039889717103136, 36.964487631461168 ], [ -122.039791112329638, 36.964599987861767 ], [ -122.039692507204833, 36.964712341433817 ], [ -122.039593901784968, 36.96482469492333 ], [ -122.039495296070058, 36.96493704833032 ], [ -122.039396690060101, 36.965049401654824 ], [ -122.039348478979534, 36.965104329170664 ], [ -122.039480109480692, 36.965192086042116 ], [ -122.039070812220515, 36.965659203351883 ], [ -122.039070684079448, 36.965659130878585 ], [ -122.03904227380491, 36.965692113453223 ], [ -122.039902876109878, 36.966261020587432 ], [ -122.039933120009806, 36.96623349626185 ], [ -122.039932754139642, 36.966233849940728 ] ] ] } },
{ "type": "Feature", "properties": { "OBJECTID": 89, "ZONING": "PF", "SHAPE_LENG": 0.00307, "SHAPE.STArea()": 40034.5390625, "SHAPE.STLength()": 1032.5563349586594 }, "geometry": { "type": "Polygon", "coordinates": [ [ [ -122.042861158297356, 36.96204570457391 ], [ -122.043143355139946, 36.962202660197171 ], [ -122.043193166858515, 36.962144062086971 ], [ -122.04319294873072, 36.962143941366172 ], [ -122.043434375584155, 36.961860736827049 ], [ -122.043575615639824, 36.96193827273926 ], [ -122.04367080061418, 36.961990526521561 ], [ -122.043670920984695, 36.961990387586532 ], [ -122.043769933481229, 36.962044664480182 ], [ -122.043687789604064, 36.961545485109056 ], [ -122.043554712188936, 36.961232734445176 ], [ -122.043393014044156, 36.961422634424103 ], [ -122.043393128268363, 36.961422696089436 ], [ -122.043151896404254, 36.961705667236814 ], [ -122.042910368749332, 36.961988990628129 ], [ -122.042909894401888, 36.961988727714818 ], [ -122.042861158297356, 36.96204570457391 ] ] ] } },
{ "type": "Feature", "properties": { "OBJECTID": 99, "ZONING": "PF", "SHAPE_LENG": 0.00508572, "SHAPE.STArea()": 150768.5146484375, "SHAPE.STLength()": 1686.5457945071867 }, "geometry": { "type": "Polygon", "coordinates": [ [ [ -122.058046795757051, 36.958853623111878 ], [ -122.058121514114845, 36.959722911141583 ], [ -122.05812114146768, 36.959722932601977 ], [ -122.058127013787185, 36.959790835649599 ], [ -122.058371716677911, 36.959789282398162 ], [ -122.058654053549532, 36.959786882241431 ], [ -122.058842294746697, 36.959786082696347 ], [ -122.05912292063168, 36.959783704277115 ], [ -122.059246138227138, 36.959783430120837 ], [ -122.059287457845926, 36.959795238373239 ], [ -122.059246260725956, 36.959714323497352 ], [ -122.059246505507375, 36.959714243312675 ], [ -122.059021175201138, 36.959273226861157 ], [ -122.05903886477526, 36.958544347322253 ], [ -122.059038998284947, 36.958544348284043 ], [ -122.059039000395586, 36.95854428507856 ], [ -122.059037854327642, 36.958324209923823 ], [ -122.058525637838031, 36.958382217144241 ], [ -122.058013420557202, 36.958440222115044 ], [ -122.058024528802818, 36.958581338105432 ], [ -122.058023397020094, 36.958581394430368 ], [ -122.058046795757051, 36.958853623111878 ] ] ] } },
{ "type": "Feature", "properties": { "OBJECTID": 107, "ZONING": "PF", "SHAPE_LENG": 0.01049363, "SHAPE.STArea()": 602785.1240234375, "SHAPE.STLength()": 3483.5269353978533 }, "geometry": { "type": "Polygon", "coordinates": [ [ [ -122.048001149443607, 36.952684017120447 ], [ -122.048049705753058, 36.95288114439348 ], [ -122.048077032106448, 36.953044561474307 ], [ -122.048385310192344, 36.954965654568227 ], [ -122.048487175239671, 36.954955047726763 ], [ -122.048487171138504, 36.954955014819227 ], [ -122.048657468315142, 36.95493726369309 ], [ -122.048817635666822, 36.954920569810234 ], [ -122.048869380827711, 36.954915174384659 ], [ -122.049163485770151, 36.95488451856118 ], [ -122.049413225754094, 36.954858483889161 ], [ -122.049451944939946, 36.954854447928774 ], [ -122.049502849857902, 36.954849140298002 ], [ -122.049553754825325, 36.954843835391053 ], [ -122.049749304165715, 36.954823450718493 ], [ -122.049802719229874, 36.954817878859224 ], [ -122.049842217104285, 36.954813763747794 ], [ -122.0501386812238, 36.954782859843171 ], [ -122.050347215100601, 36.954761117653788 ], [ -122.050657438954275, 36.954728776913221 ], [ -122.050650794801285, 36.954687462241566 ], [ -122.05062913964781, 36.954552853203559 ], [ -122.050584286016857, 36.954274022499114 ], [ -122.050568064913151, 36.954173168453714 ], [ -122.050563148757035, 36.954142603883682 ], [ -122.050542546312926, 36.954014540279388 ], [ -122.050518410510605, 36.953870498630593 ], [ -122.050498740290848, 36.953753099569973 ], [ -122.050499433581763, 36.953753027173526 ], [ -122.05049942594475, 36.953752988819417 ], [ -122.050525081229821, 36.953752304302519 ], [ -122.050499559328301, 36.953593670676902 ], [ -122.050295380911606, 36.952324258276114 ], [ -122.05026990092658, 36.952323794988487 ], [ -122.050269902477538, 36.952323704322311 ], [ -122.049923890629643, 36.952317492887765 ], [ -122.04992231506489, 36.952307649953276 ], [ -122.049917215151666, 36.952275791302561 ], [ -122.049904265356616, 36.952194909885698 ], [ -122.049904218063801, 36.952194608362696 ], [ -122.049884643569229, 36.952072326835925 ], [ -122.049786047374923, 36.952102987333298 ], [ -122.049811023972126, 36.952259010587369 ], [ -122.049825034870437, 36.952346536233343 ], [ -122.049827345406527, 36.952360981332788 ], [ -122.04983282625669, 36.952395213681299 ], [ -122.049731058705575, 36.952406056676793 ], [ -122.049392735969548, 36.952442100375848 ], [ -122.04936729406694, 36.95244481172351 ], [ -122.049341852049182, 36.952447517573525 ], [ -122.049011645583462, 36.952482652983214 ], [ -122.048908081152334, 36.952493670205271 ], [ -122.048906629863552, 36.952493829573264 ], [ -122.048906138060303, 36.952493880055883 ], [ -122.048902140266307, 36.952494364416893 ], [ -122.048801722200054, 36.952513566511072 ], [ -122.048466679957812, 36.952577622831079 ], [ -122.048441807138985, 36.952582375555288 ], [ -122.048419904901337, 36.952446184546943 ], [ -122.04839800268654, 36.952309990789757 ], [ -122.048373228626374, 36.952315379453985 ], [ -122.0480398025787, 36.952387914537219 ], [ -122.048039817170704, 36.952387958292768 ], [ -122.047956063145662, 36.952406155561036 ], [ -122.047975534183948, 36.952520577312882 ], [ -122.048001149443607, 36.952684017120447 ] ] ] } },
{ "type": "Feature", "properties": { "OBJECTID": 114, "ZONING": "PF", "SHAPE_LENG": 0.00792445, "SHAPE.STArea()": 412057.76953125, "SHAPE.STLength()": 2546.4169276733628 }, "geometry": { "type": "Polygon", "coordinates": [ [ [ -122.008725439877111, 36.984625526420764 ], [ -122.009235830135395, 36.984618171181147 ], [ -122.009408502370491, 36.984615684211377 ], [ -122.009494840195217, 36.984614440608446 ], [ -122.009742235993869, 36.984610873517553 ], [ -122.009914904772302, 36.984608385842456 ], [ -122.010087573484014, 36.984605895165728 ], [ -122.01027878108664, 36.984603139480441 ], [ -122.010369387297033, 36.984601831724348 ], [ -122.010467938250684, 36.984600410033089 ], [ -122.010551578764378, 36.98459920606912 ], [ -122.010733770163597, 36.984596577383265 ], [ -122.010915968396276, 36.984593948324189 ], [ -122.010946581810799, 36.984512105805678 ], [ -122.010984772174567, 36.984410008960154 ], [ -122.010993750572922, 36.984270214081008 ], [ -122.010997736828514, 36.984208161209132 ], [ -122.011009265893748, 36.984028724136181 ], [ -122.011019338524932, 36.983871851833229 ], [ -122.011028530054389, 36.983728873375348 ], [ -122.011037711335021, 36.983585897797141 ], [ -122.011046895948439, 36.983442919429066 ], [ -122.011040588910134, 36.983330299087477 ], [ -122.010993412857644, 36.982989664467226 ], [ -122.010946358096632, 36.98297638882503 ], [ -122.008527759157559, 36.982993461873761 ], [ -122.008725439877111, 36.984625526420764 ] ] ] } },
{ "type": "Feature", "properties": { "OBJECTID": 116, "ZONING": "PF", "SHAPE_LENG": 0.00181177, "SHAPE.STArea()": 20471.3671875, "SHAPE.STLength()": 605.22080182839773 }, "geometry": { "type": "Polygon", "coordinates": [ [ [ -122.007340263939412, 36.978793818014772 ], [ -122.007100295155951, 36.978853786333168 ], [ -122.007076510092048, 36.97885972738711 ], [ -122.007262834523502, 36.979390059579529 ], [ -122.007534327629386, 36.979321418324929 ], [ -122.00759760553052, 36.979305418783049 ], [ -122.00751739502789, 36.979080211093134 ], [ -122.007409251220366, 36.978776577388388 ], [ -122.007340263939412, 36.978793818014772 ] ] ] } },
{ "type": "Feature", "properties": { "OBJECTID": 119, "ZONING": "PF", "SHAPE_LENG": 0.00522093, "SHAPE.STArea()": 179721.40625, "SHAPE.STLength()": 1703.6825845045214 }, "geometry": { "type": "Polygon", "coordinates": [ [ [ -122.007321041654237, 36.975622096343976 ], [ -122.00779930070334, 36.97684889227849 ], [ -122.008419264637467, 36.976692891159971 ], [ -122.009056263664618, 36.976532889433173 ], [ -122.008581526000384, 36.975311889878654 ], [ -122.007321041654237, 36.975622096343976 ] ] ] } },
{ "type": "Feature", "properties": { "OBJECTID": 125, "ZONING": "PF", "SHAPE_LENG": 0.00872263, "SHAPE.STArea()": 433792.48046875, "SHAPE.STLength()": 2751.9480615775569 }, "geometry": { "type": "Polygon", "coordinates": [ [ [ -121.994628685279309, 36.991162293363963 ], [ -121.99488524255716, 36.991436099136358 ], [ -121.99627041394146, 36.991458312447989 ], [ -121.996304653959072, 36.991458862125242 ], [ -121.996338931634611, 36.991459411309435 ], [ -121.996685291429969, 36.991464963753906 ], [ -121.99668934382845, 36.99098983636533 ], [ -121.99692919538569, 36.990992908960713 ], [ -121.99740941570829, 36.990999057021298 ], [ -121.997682947406318, 36.990507631542208 ], [ -121.997737607597116, 36.990409423319647 ], [ -121.997689984842893, 36.989993477444351 ], [ -121.997686833459269, 36.989965961852683 ], [ -121.997469116882414, 36.989962944575261 ], [ -121.997263727411593, 36.989960095544667 ], [ -121.997058331054944, 36.989957243494267 ], [ -121.996852934768597, 36.989954393828405 ], [ -121.996647538552622, 36.989951546546955 ], [ -121.99644214561134, 36.989948690621709 ], [ -121.996348864948487, 36.989947395825993 ], [ -121.996314589441226, 36.989946920789833 ], [ -121.996236749371775, 36.989945839870927 ], [ -121.996031353147899, 36.989942988758607 ], [ -121.995825956884886, 36.989940134538521 ], [ -121.995620564115498, 36.989937282659021 ], [ -121.995338146508743, 36.989933360423969 ], [ -121.994766680204989, 36.989925417582704 ], [ -121.994609670846998, 36.990451705464181 ], [ -121.994531702917115, 36.990713041908307 ], [ -121.994486213583812, 36.990865512508584 ], [ -121.994537531273792, 36.990972412058916 ], [ -121.994628685279309, 36.991162293363963 ] ] ] } },
{ "type": "Feature", "properties": { "OBJECTID": 127, "ZONING": "PF", "SHAPE_LENG": 0.01883168, "SHAPE.STArea()": 1065547.806640625, "SHAPE.STLength()": 5791.4204537032265 }, "geometry": { "type": "Polygon", "coordinates": [ [ [ -121.989575455129199, 36.987020775954491 ], [ -121.989678867029582, 36.987182014405967 ], [ -121.989809915214934, 36.98719073746669 ], [ -121.989694054161689, 36.987302864183292 ], [ -121.989677733442008, 36.987318660760124 ], [ -121.991310349930174, 36.987534440708437 ], [ -121.991995472413123, 36.98760674374482 ], [ -121.992070676133679, 36.987614681517762 ], [ -121.993116876240109, 36.987725085598719 ], [ -121.993303015611687, 36.987727751536603 ], [ -121.993576587385917, 36.98775956762379 ], [ -121.993998046403959, 36.987780191153632 ], [ -121.994597191304024, 36.987809504720268 ], [ -121.9949491010494, 36.987826719885867 ], [ -121.995725620706381, 36.987864703179909 ], [ -121.996779429297149, 36.98791624733137 ], [ -121.997198638819626, 36.987928537868171 ], [ -121.996884829840042, 36.987673927811684 ], [ -121.996737671006926, 36.987552626949693 ], [ -121.996446192200821, 36.987312372506466 ], [ -121.996640121112478, 36.986832463483331 ], [ -121.99632168350881, 36.986674961834559 ], [ -121.996064383708685, 36.986547700502818 ], [ -121.995686676328503, 36.986360882430887 ], [ -121.995686261335294, 36.986360676247301 ], [ -121.995686571273637, 36.986361109016663 ], [ -121.995686100962644, 36.986360876074258 ], [ -121.995686042166881, 36.986360846613181 ], [ -121.995682895294962, 36.986359291063849 ], [ -121.995330433261543, 36.986185093895955 ], [ -121.995329859218629, 36.986184810092404 ], [ -121.995148848414914, 36.986465931915198 ], [ -121.994862267031749, 36.986690036591632 ], [ -121.994757601664276, 36.986735667449196 ], [ -121.994492256181644, 36.986851346045881 ], [ -121.994424478920394, 36.986800711625705 ], [ -121.994414361790433, 36.986206499534092 ], [ -121.994515115226037, 36.985935677673453 ], [ -121.994538161524446, 36.985889373278582 ], [ -121.99451643354962, 36.985829908477328 ], [ -121.994454400094284, 36.985809758794147 ], [ -121.994169722208539, 36.985871432061344 ], [ -121.994033274541323, 36.985897214378483 ], [ -121.993885430222747, 36.98586648947461 ], [ -121.993853617770753, 36.985816424199008 ], [ -121.993803128350663, 36.98577415183054 ], [ -121.993788219949465, 36.985713226163455 ], [ -121.993811054879274, 36.985656280725024 ], [ -121.993724694987591, 36.985532063300887 ], [ -121.993620002619281, 36.985518983118411 ], [ -121.992090746447346, 36.985927571750885 ], [ -121.99189791899984, 36.986045404216455 ], [ -121.991540050022493, 36.986300970624477 ], [ -121.991370726059202, 36.986395497118814 ], [ -121.991276813843797, 36.9864080283565 ], [ -121.990743493477012, 36.986536048317198 ], [ -121.99062501134226, 36.986604515951662 ], [ -121.990260482110827, 36.98669741489347 ], [ -121.989728149250539, 36.986702841107665 ], [ -121.989713378338863, 36.986733577030975 ], [ -121.989713226737621, 36.986733529524436 ], [ -121.989692295727124, 36.986777023394055 ], [ -121.989575455129199, 36.987020775954491 ] ] ] } },
{ "type": "Feature", "properties": { "OBJECTID": 131, "ZONING": "PF", "SHAPE_LENG": 0.01246115, "SHAPE.STArea()": 734679.4443359375, "SHAPE.STLength()": 4278.8863069827466 }, "geometry": { "type": "MultiPolygon", "coordinates": [ [ [ [ -122.017829214382502, 36.994519761934946 ], [ -122.017806451393298, 36.993988640743559 ], [ -122.017804482857287, 36.993942602091742 ], [ -122.017800504595115, 36.993849503505295 ], [ -122.01779820898777, 36.993795926326463 ], [ -122.017760487195289, 36.992916194162312 ], [ -122.017755531254963, 36.992800479954738 ], [ -122.017754316063204, 36.992772219945351 ], [ -122.017753361446978, 36.992749903422542 ], [ -122.017746306980882, 36.992585273586293 ], [ -122.017707605924656, 36.991682283123353 ], [ -122.017697830441705, 36.991453857977952 ], [ -122.017694688845054, 36.991380448749162 ], [ -122.017694572061345, 36.991380431040731 ], [ -122.017700991600549, 36.991353453359032 ], [ -122.017693885115847, 36.991352213604102 ], [ -122.017693833543007, 36.991352203287775 ], [ -122.017687896339297, 36.991155767177538 ], [ -122.017678570404925, 36.990847274484992 ], [ -122.017678687187868, 36.990847292193429 ], [ -122.017651793640511, 36.990703867764658 ], [ -122.017651690606783, 36.990703852624151 ], [ -122.017666772612586, 36.990531348087003 ], [ -122.017711776053844, 36.99036327219747 ], [ -122.017748368648867, 36.990229031235565 ], [ -122.017747747026888, 36.990228940437554 ], [ -122.017790741183191, 36.990068370261923 ], [ -122.017833805026854, 36.989907529974111 ], [ -122.017834313288049, 36.989907603018857 ], [ -122.017844594787533, 36.989867228257971 ], [ -122.017705965256638, 36.989848760386394 ], [ -122.017705949417078, 36.989848823769421 ], [ -122.017368502665008, 36.989827786212814 ], [ -122.017231145358863, 36.98981922550815 ], [ -122.01702416138626, 36.989806320939536 ], [ -122.016851990792972, 36.989795586548702 ], [ -122.016679823672234, 36.989784851859284 ], [ -122.01633634331435, 36.989763436544699 ], [ -122.016164172917811, 36.989752701138841 ], [ -122.015901285732681, 36.989735727941898 ], [ -122.015848927876306, 36.990025096755716 ], [ -122.015609395021613, 36.991135522462308 ], [ -122.015603872668166, 36.991455599204862 ], [ -122.016035765271141, 36.992070426185862 ], [ -122.016256023771916, 36.992294519955308 ], [ -122.016451495458668, 36.99256288473152 ], [ -122.01650324478463, 36.992751399573812 ], [ -122.016501189974576, 36.992988683267349 ], [ -122.016479938518728, 36.993208018793176 ], [ -122.016492713671809, 36.993416611406651 ], [ -122.016564512197277, 36.99358048754349 ], [ -122.017438150642604, 36.994024756719192 ], [ -122.017715004233281, 36.994252918673531 ], [ -122.017829214382502, 36.994519761934946 ] ] ], [ [ [ -122.017829297315046, 36.994521661659199 ], [ -122.017830019457222, 36.994521641276457 ], [ -122.017829214382502, 36.994519761934946 ], [ -122.017829297315046, 36.994521661659199 ] ] ] ] } },
{ "type": "Feature", "properties": { "OBJECTID": 148, "ZONING": "PF", "SHAPE_LENG": 0.00126528, "SHAPE.STArea()": 9957.2509765625, "SHAPE.STLength()": 406.68594629424069 }, "geometry": { "type": "Polygon", "coordinates": [ [ [ -122.009385542625381, 36.964302201035871 ], [ -122.00941403076051, 36.964357111978082 ], [ -122.00951923508579, 36.964567255068658 ], [ -122.009826823613807, 36.964562289736676 ], [ -122.009777401011618, 36.964357794603707 ], [ -122.009760006297711, 36.964284306240543 ], [ -122.009385542625381, 36.964302201035871 ] ] ] } },
{ "type": "Feature", "properties": { "OBJECTID": 189, "ZONING": "PF", "SHAPE_LENG": 0.04232737, "SHAPE.STArea()": 4283016.525390625, "SHAPE.STLength()": 14636.744475417943 }, "geometry": { "type": "Polygon", "coordinates": [ [ [ -122.104109006940575, 36.965610900917724 ], [ -122.104545536158639, 36.965781540666661 ], [ -122.104407283500379, 36.970216885789775 ], [ -122.104065067958942, 36.972031251805092 ], [ -122.103603704074388, 36.974477179728318 ], [ -122.103795567504292, 36.977003840583663 ], [ -122.104071857731256, 36.977693965043166 ], [ -122.10401321844077, 36.978837437127872 ], [ -122.104842440811154, 36.980101147457177 ], [ -122.104397731314549, 36.981228739274236 ], [ -122.104315159229145, 36.981541075696427 ], [ -122.107404089296566, 36.981812732290265 ], [ -122.107720115379436, 36.978932016683054 ], [ -122.109091540704625, 36.97726057826668 ], [ -122.108029986791934, 36.976167572239994 ], [ -122.108554592134752, 36.972404687590718 ], [ -122.107324806296049, 36.972302412398101 ], [ -122.106779733829711, 36.972257076320624 ], [ -122.10557701555075, 36.972157035850188 ], [ -122.10541643316445, 36.972143677239956 ], [ -122.105416025011706, 36.972143641655435 ], [ -122.10423732759736, 36.972045588845198 ], [ -122.104579176287103, 36.970227063068243 ], [ -122.104593326673353, 36.969778442857297 ], [ -122.104604381493814, 36.969427985966711 ], [ -122.104624758521268, 36.968782011339769 ], [ -122.104639074788764, 36.968328043480369 ], [ -122.104695191521273, 36.966548861313143 ], [ -122.104717487664175, 36.965841871764347 ], [ -122.104662386233002, 36.965821273126537 ], [ -122.104686410099333, 36.965153638873282 ], [ -122.104381892074471, 36.965154658941948 ], [ -122.104109006940575, 36.965610900917724 ] ] ] } },
{ "type": "Feature", "properties": { "OBJECTID": 200, "ZONING": "PF", "SHAPE_LENG": 0.00101313, "SHAPE.STArea()": 5444.5048828125, "SHAPE.STLength()": 316.55581142020736 }, "geometry": { "type": "Polygon", "coordinates": [ [ [ -122.025805955324429, 36.974888022720172 ], [ -122.025488066021836, 36.974956761650155 ], [ -122.025548574017094, 36.975086515862301 ], [ -122.025810591347494, 36.975031242010054 ], [ -122.02584451711715, 36.975024090426487 ], [ -122.025860249228444, 36.975020766959908 ], [ -122.025894202146446, 36.975013604019288 ], [ -122.025855853961488, 36.974878280670517 ], [ -122.025805955324429, 36.974888022720172 ] ] ] } }
]
}
